{
  "page": 1,
  "per_page": 15,
  "photos": [
    {
      "id": 1105666,
      "width": 6720,
      "height": 4480,
      "url": "https://www.pexels.com/photo/people-at-concert-1105666/",
      "photographer": "Vishnu R Nair",
      "photographer_url": "https://www.pexels.com/@vishnurnair",
      "photographer_id": 426592,
      "avg_color": "#543421",
      "src": {
        "original": "https://images.pexels.com/photos/1105666/pexels-photo-1105666.jpeg",
        "large2x": "https://images.pexels.com/photos/1105666/pexels-photo-1105666.jpeg?auto=compress\u0026cs=tinysrgb\u0026dpr=2\u0026h=650\u0026w=940",
        "large": "https://images.pexels.com/photos/1105666/pexels-photo-1105666.jpeg?auto=compress\u0026cs=tinysrgb\u0026h=650\u0026w=940",
        "medium": "https://images.pexels.com/photos/1105666/pexels-photo-1105666.jpeg?auto=compress\u0026cs=tinysrgb\u0026h=350",
        "small": "https://images.pexels.com/photos/1105666/pexels-photo-1105666.jpeg?auto=compress\u0026cs=tinysrgb\u0026h=130",
        "portrait": "https://images.pexels.com/photos/1105666/pexels-photo-1105666.jpeg?auto=compress\u0026cs=tinysrgb\u0026fit=crop\u0026h=1200\u0026w=800",
        "landscape": "https://images.pexels.com/photos/1105666/pexels-photo-1105666.jpeg?auto=compress\u0026cs=tinysrgb\u0026fit=crop\u0026h=627\u0026w=1200",
        "tiny": "https://images.pexels.com/photos/1105666/pexels-photo-1105666.jpeg?auto=compress\u0026cs=tinysrgb\u0026dpr=1\u0026fit=crop\u0026h=200\u0026w=280"
      },
      "liked": false
    },
    {
      "id": 1190297,
      "width": 3300,
      "height": 2200,
      "url": "https://www.pexels.com/photo/people-having-a-concert-1190297/",
      "photographer": "Wendy Wei",
      "photographer_url": "https://www.pexels.com/@wendywei",
      "photographer_id": 387315,
      "avg_color": "#29272E",
      "src": {
        "original": "https://images.pexels.com/photos/1190297/pexels-photo-1190297.jpeg",
        "large2x": "https://images.pexels.com/photos/1190297/pexels-photo-1190297.jpeg?auto=compress\u0026cs=tinysrgb\u0026dpr=2\u0026h=650\u0026w=940",
        "large": "https://images.pexels.com/photos/1190297/pexels-photo-1190297.jpeg?auto=compress\u0026cs=tinysrgb\u0026h=650\u0026w=940",
        "medium": "https://images.pexels.com/photos/1190297/pexels-photo-1190297.jpeg?auto=compress\u0026cs=tinysrgb\u0026h=350",
        "small": "https://images.pexels.com/photos/1190297/pexels-photo-1190297.jpeg?auto=compress\u0026cs=tinysrgb\u0026h=130",
        "portrait": "https://images.pexels.com/photos/1190297/pexels-photo-1190297.jpeg?auto=compress\u0026cs=tinysrgb\u0026fit=crop\u0026h=1200\u0026w=800",
        "landscape": "https://images.pexels.com/photos/1190297/pexels-photo-1190297.jpeg?auto=compress\u0026cs=tinysrgb\u0026fit=crop\u0026h=627\u0026w=1200",
        "tiny": "https://images.pexels.com/photos/1190297/pexels-photo-1190297.jpeg?auto=compress\u0026cs=tinysrgb\u0026dpr=1\u0026fit=crop\u0026h=200\u0026w=280"
      },
      "liked": false
    },
    {
      "id": 1540338,
      "width": 4963,
      "height": 3309,
      "url": "https://www.pexels.com/photo/several-people-at-a-party-1540338/",
      "photographer": "Wendy Wei",
      "photographer_url": "https://www.pexels.com/@wendywei",
      "photographer_id": 387315,
      "avg_color": "#AE9C98",
      "src": {
        "original": "https://images.pexels.com/photos/1540338/pexels-photo-1540338.jpeg",
        "large2x": "https://images.pexels.com/photos/1540338/pexels-photo-1540338.jpeg?auto=compress\u0026cs=tinysrgb\u0026dpr=2\u0026h=650\u0026w=940",
        "large": "https://images.pexels.com/photos/1540338/pexels-photo-1540338.jpeg?auto=compress\u0026cs=tinysrgb\u0026h=650\u0026w=940",
        "medium": "https://images.pexels.com/photos/1540338/pexels-photo-1540338.jpeg?auto=compress\u0026cs=tinysrgb\u0026h=350",
        "small": "https://images.pexels.com/photos/1540338/pexels-photo-1540338.jpeg?auto=compress\u0026cs=tinysrgb\u0026h=130",
        "portrait": "https://images.pexels.com/photos/1540338/pexels-photo-1540338.jpeg?auto=compress\u0026cs=tinysrgb\u0026fit=crop\u0026h=1200\u0026w=800",
        "landscape": "https://images.pexels.com/photos/1540338/pexels-photo-1540338.jpeg?auto=compress\u0026cs=tinysrgb\u0026fit=crop\u0026h=627\u0026w=1200",
        "tiny": "https://images.pexels.com/photos/1540338/pexels-photo-1540338.jpeg?auto=compress\u0026cs=tinysrgb\u0026dpr=1\u0026fit=crop\u0026h=200\u0026w=280"
      },
      "liked": false
    },
    {
      "id": 1537638,
      "width": 5153,
      "height": 3435,
      "url": "https://www.pexels.com/photo/two-women-embracing-surrounded-by-crowd-1537638/",
      "photographer": "Wendy Wei",
      "photographer_url": "https://www.pexels.com/@wendywei",
      "photographer_id": 387315,
      "avg_color": "#CABDAF",
      "src": {
        "original": "https://images.pexels.com/photos/1537638/pexels-photo-1537638.jpeg",
        "large2x": "https://images.pexels.com/photos/1537638/pexels-photo-1537638.jpeg?auto=compress\u0026cs=tinysrgb\u0026dpr=2\u0026h=650\u0026w=940",
        "large": "https://images.pexels.com/photos/1537638/pexels-photo-1537638.jpeg?auto=compress\u0026cs=tinysrgb\u0026h=650\u0026w=940",
        "medium": "https://images.pexels.com/photos/1537638/pexels-photo-1537638.jpeg?auto=compress\u0026cs=tinysrgb\u0026h=350",
        "small": "https://images.pexels.com/photos/1537638/pexels-photo-1537638.jpeg?auto=compress\u0026cs=tinysrgb\u0026h=130",
        "portrait": "https://images.pexels.com/photos/1537638/pexels-photo-1537638.jpeg?auto=compress\u0026cs=tinysrgb\u0026fit=crop\u0026h=1200\u0026w=800",
        "landscape": "https://images.pexels.com/photos/1537638/pexels-photo-1537638.jpeg?auto=compress\u0026cs=tinysrgb\u0026fit=crop\u0026h=627\u0026w=1200",
        "tiny": "https://images.pexels.com/photos/1537638/pexels-photo-1537638.jpeg?auto=compress\u0026cs=tinysrgb\u0026dpr=1\u0026fit=crop\u0026h=200\u0026w=280"
      },
      "liked": false
    },
    {
      "id": 1190298,
      "width": 3300,
      "height": 2200,
      "url": "https://www.pexels.com/photo/purple-fireworks-effect-1190298/",
      "photographer": "Wendy Wei",
      "photographer_url": "https://www.pexels.com/@wendywei",
      "photographer_id": 387315,
      "avg_color": "#662C6C",
      "src": {
        "original": "https://images.pexels.com/photos/1190298/pexels-photo-1190298.jpeg",
        "large2x": "https://images.pexels.com/photos/1190298/pexels-photo-1190298.jpeg?auto=compress\u0026cs=tinysrgb\u0026dpr=2\u0026h=650\u0026w=940",
        "large": "https://images.pexels.com/photos/1190298/pexels-photo-1190298.jpeg?auto=compress\u0026cs=tinysrgb\u0026h=650\u0026w=940",
        "medium": "https://images.pexels.com/photos/1190298/pexels-photo-1190298.jpeg?auto=compress\u0026cs=tinysrgb\u0026h=350",
        "small": "https://images.pexels.com/photos/1190298/pexels-photo-1190298.jpeg?auto=compress\u0026cs=tinysrgb\u0026h=130",
        "portrait": "https://images.pexels.com/photos/1190298/pexels-photo-1190298.jpeg?auto=compress\u0026cs=tinysrgb\u0026fit=crop\u0026h=1200\u0026w=800",
        "landscape": "https://images.pexels.com/photos/1190298/pexels-photo-1190298.jpeg?auto=compress\u0026cs=tinysrgb\u0026fit=crop\u0026h=627\u0026w=1200",
        "tiny": "https://images.pexels.com/photos/1190298/pexels-photo-1190298.jpeg?auto=compress\u0026cs=tinysrgb\u0026dpr=1\u0026fit=crop\u0026h=200\u0026w=280"
      },
      "liked": false
    },
    {
      "id": 433452,
      "width": 4556,
      "height": 2912,
      "url": "https://www.pexels.com/photo/people-throwing-pins-433452/",
      "photographer": "Pixabay",
      "photographer_url": "https://www.pexels.com/@pixabay",
      "photographer_id": 2659,
      "avg_color": "#828690",
      "src": {
        "original": "https://images.pexels.com/photos/433452/pexels-photo-433452.jpeg",
        "large2x": "https://images.pexels.com/photos/433452/pexels-photo-433452.jpeg?auto=compress\u0026cs=tinysrgb\u0026dpr=2\u0026h=650\u0026w=940",
        "large": "https://images.pexels.com/photos/433452/pexels-photo-433452.jpeg?auto=compress\u0026cs=tinysrgb\u0026h=650\u0026w=940",
        "medium": "https://images.pexels.com/photos/433452/pexels-photo-433452.jpeg?auto=compress\u0026cs=tinysrgb\u0026h=350",
        "small": "https://images.pexels.com/photos/433452/pexels-photo-433452.jpeg?auto=compress\u0026cs=tinysrgb\u0026h=130",
        "portrait": "https://images.pexels.com/photos/433452/pexels-photo-433452.jpeg?auto=compress\u0026cs=tinysrgb\u0026fit=crop\u0026h=1200\u0026w=800",
        "landscape": "https://images.pexels.com/photos/433452/pexels-photo-433452.jpeg?auto=compress\u0026cs=tinysrgb\u0026fit=crop\u0026h=627\u0026w=1200",
        "tiny": "https://images.pexels.com/photos/433452/pexels-photo-433452.jpeg?auto=compress\u0026cs=tinysrgb\u0026dpr=1\u0026fit=crop\u0026h=200\u0026w=280"
      },
      "liked": false
    },
    {
      "id": 1763067,
      "width": 5865,
      "height": 3915,
      "url": "https://www.pexels.com/photo/silhouette-of-people-in-front-of-stage-1763067/",
      "photographer": "Sebastian Ervi",
      "photographer_url": "https://www.pexels.com/@sebastian-ervi-866902",
      "photographer_id": 866902,
      "avg_color": "#305669",
      "src": {
        "original": "https://images.pexels.com/photos/1763067/pexels-photo-1763067.jpeg",
        "large2x": "https://images.pexels.com/photos/1763067/pexels-photo-1763067.jpeg?auto=compress\u0026cs=tinysrgb\u0026dpr=2\u0026h=650\u0026w=940",
        "large": "https://images.pexels.com/photos/1763067/pexels-photo-1763067.jpeg?auto=compress\u0026cs=tinysrgb\u0026h=650\u0026w=940",
        "medium": "https://images.pexels.com/photos/1763067/pexels-photo-1763067.jpeg?auto=compress\u0026cs=tinysrgb\u0026h=350",
        "small": "https://images.pexels.com/photos/1763067/pexels-photo-1763067.jpeg?auto=compress\u0026cs=tinysrgb\u0026h=130",
        "portrait": "https://images.pexels.com/photos/1763067/pexels-photo-1763067.jpeg?auto=compress\u0026cs=tinysrgb\u0026fit=crop\u0026h=1200\u0026w=800",
        "landscape": "https://images.pexels.com/photos/1763067/pexels-photo-1763067.jpeg?auto=compress\u0026cs=tinysrgb\u0026fit=crop\u0026h=627\u0026w=1200",
        "tiny": "https://images.pexels.com/photos/1763067/pexels-photo-1763067.jpeg?auto=compress\u0026cs=tinysrgb\u0026dpr=1\u0026fit=crop\u0026h=200\u0026w=280"
      },
      "liked": false
    },
    {
      "id": 196652,
      "width": 4000,
      "height": 2667,
      "url": "https://www.pexels.com/photo/crowd-in-front-of-people-playing-musical-instrument-during-nighttime-196652/",
      "photographer": "picjumbo.com",
      "photographer_url": "https://www.pexels.com/@picjumbo-com-55570",
      "photographer_id": 55570,
      "avg_color": "#888CA0",
      "src": {
        "original": "https://images.pexels.com/photos/196652/pexels-photo-196652.jpeg",
        "large2x": "https://images.pexels.com/photos/196652/pexels-photo-196652.jpeg?auto=compress\u0026cs=tinysrgb\u0026dpr=2\u0026h=650\u0026w=940",
        "large": "https://images.pexels.com/photos/196652/pexels-photo-196652.jpeg?auto=compress\u0026cs=tinysrgb\u0026h=650\u0026w=940",
        "medium": "https://images.pexels.com/photos/196652/pexels-photo-196652.jpeg?auto=compress\u0026cs=tinysrgb\u0026h=350",
        "small": "https://images.pexels.com/photos/196652/pexels-photo-196652.jpeg?auto=compress\u0026cs=tinysrgb\u0026h=130",
        "portrait": "https://images.pexels.com/photos/196652/pexels-photo-196652.jpeg?auto=compress\u0026cs=tinysrgb\u0026fit=crop\u0026h=1200\u0026w=800",
        "landscape": "https://images.pexels.com/photos/196652/pexels-photo-196652.jpeg?auto=compress\u0026cs=tinysrgb\u0026fit=crop\u0026h=627\u0026w=1200",
        "tiny": "https://images.pexels.com/photos/196652/pexels-photo-196652.jpeg?auto=compress\u0026cs=tinysrgb\u0026dpr=1\u0026fit=crop\u0026h=200\u0026w=280"
      },
      "liked": false
    },
    {
      "id": 1763075,
      "width": 4439,
      "height": 3171,
      "url": "https://www.pexels.com/photo/people-in-concert-1763075/",
      "photographer": "Sebastian Ervi",
      "photographer_url": "https://www.pexels.com/@sebastian-ervi-866902",
      "photographer_id": 866902,
      "avg_color": "#844F4F",
      "src": {
        "original": "https://images.pexels.com/photos/1763075/pexels-photo-1763075.jpeg",
        "large2x": "https://images.pexels.com/photos/1763075/pexels-photo-1763075.jpeg?auto=compress\u0026cs=tinysrgb\u0026dpr=2\u0026h=650\u0026w=940",
        "large": "https://images.pexels.com/photos/1763075/pexels-photo-1763075.jpeg?auto=compress\u0026cs=tinysrgb\u0026h=650\u0026w=940",
        "medium": "https://images.pexels.com/photos/1763075/pexels-photo-1763075.jpeg?auto=compress\u0026cs=tinysrgb\u0026h=350",
        "small": "https://images.pexels.com/photos/1763075/pexels-photo-1763075.jpeg?auto=compress\u0026cs=tinysrgb\u0026h=130",
        "portrait": "https://images.pexels.com/photos/1763075/pexels-photo-1763075.jpeg?auto=compress\u0026cs=tinysrgb\u0026fit=crop\u0026h=1200\u0026w=800",
        "landscape": "https://images.pexels.com/photos/1763075/pexels-photo-1763075.jpeg?auto=compress\u0026cs=tinysrgb\u0026fit=crop\u0026h=627\u0026w=1200",
        "tiny": "https://images.pexels.com/photos/1763075/pexels-photo-1763075.jpeg?auto=compress\u0026cs=tinysrgb\u0026dpr=1\u0026fit=crop\u0026h=200\u0026w=280"
      },
      "liked": false
    },
    {
      "id": 1540406,
      "width": 2200,
      "height": 3300,
      "url": "https://www.pexels.com/photo/group-of-people-gathering-in-concert-1540406/",
      "photographer": "Wendy Wei",
      "photographer_url": "https://www.pexels.com/@wendywei",
      "photographer_id": 387315,
      "avg_color": "#2E1414",
      "src": {
        "original": "https://images.pexels.com/photos/1540406/pexels-photo-1540406.jpeg",
        "large2x": "https://images.pexels.com/photos/1540406/pexels-photo-1540406.jpeg?auto=compress\u0026cs=tinysrgb\u0026dpr=2\u0026h=650\u0026w=940",
        "large": "https://images.pexels.com/photos/1540406/pexels-photo-1540406.jpeg?auto=compress\u0026cs=tinysrgb\u0026h=650\u0026w=940",
        "medium": "https://images.pexels.com/photos/1540406/pexels-photo-1540406.jpeg?auto=compress\u0026cs=tinysrgb\u0026h=350",
        "small": "https://images.pexels.com/photos/1540406/pexels-photo-1540406.jpeg?auto=compress\u0026cs=tinysrgb\u0026h=130",
        "portrait": "https://images.pexels.com/photos/1540406/pexels-photo-1540406.jpeg?auto=compress\u0026cs=tinysrgb\u0026fit=crop\u0026h=1200\u0026w=800",
        "landscape": "https://images.pexels.com/photos/1540406/pexels-photo-1540406.jpeg?auto=compress\u0026cs=tinysrgb\u0026fit=crop\u0026h=627\u0026w=1200",
        "tiny": "https://images.pexels.com/photos/1540406/pexels-photo-1540406.jpeg?auto=compress\u0026cs=tinysrgb\u0026dpr=1\u0026fit=crop\u0026h=200\u0026w=280"
      },
      "liked": false
    },
    {
      "id": 1378866,
      "width": 5568,
      "height": 3712,
      "url": "https://www.pexels.com/photo/girl-sitting-on-smiling-man-s-shoulder-1378866/",
      "photographer": "Brett Sayles",
      "photographer_url": "https://www.pexels.com/@brett-sayles",
      "photographer_id": 320794,
      "avg_color": "#787C7C",
      "src": {
        "original": "https://images.pexels.com/photos/1378866/pexels-photo-1378866.jpeg",
        "large2x": "https://images.pexels.com/photos/1378866/pexels-photo-1378866.jpeg?auto=compress\u0026cs=tinysrgb\u0026dpr=2\u0026h=650\u0026w=940",
        "large": "https://images.pexels.com/photos/1378866/pexels-photo-1378866.jpeg?auto=compress\u0026cs=tinysrgb\u0026h=650\u0026w=940",
        "medium": "https://images.pexels.com/photos/1378866/pexels-photo-1378866.jpeg?auto=compress\u0026cs=tinysrgb\u0026h=350",
        "small": "https://images.pexels.com/photos/1378866/pexels-photo-1378866.jpeg?auto=compress\u0026cs=tinysrgb\u0026h=130",
        "portrait": "https://images.pexels.com/photos/1378866/pexels-photo-1378866.jpeg?auto=compress\u0026cs=tinysrgb\u0026fit=crop\u0026h=1200\u0026w=800",
        "landscape": "https://images.pexels.com/photos/1378866/pexels-photo-1378866.jpeg?auto=compress\u0026cs=tinysrgb\u0026fit=crop\u0026h=627\u0026w=1200",
        "tiny": "https://images.pexels.com/photos/1378866/pexels-photo-1378866.jpeg?auto=compress\u0026cs=tinysrgb\u0026dpr=1\u0026fit=crop\u0026h=200\u0026w=280"
      },
      "liked": false
    },
    {
      "id": 1405422,
      "width": 2736,
      "height": 4104,
      "url": "https://www.pexels.com/photo/woman-facing-ferris-wheel-while-making-heart-hand-sign-1405422/",
      "photographer": "Garon Piceli",
      "photographer_url": "https://www.pexels.com/@garonpiceli",
      "photographer_id": 171104,
      "avg_color": "#619CB1",
      "src": {
        "original": "https://images.pexels.com/photos/1405422/pexels-photo-1405422.jpeg",
        "large2x": "https://images.pexels.com/photos/1405422/pexels-photo-1405422.jpeg?auto=compress\u0026cs=tinysrgb\u0026dpr=2\u0026h=650\u0026w=940",
        "large": "https://images.pexels.com/photos/1405422/pexels-photo-1405422.jpeg?auto=compress\u0026cs=tinysrgb\u0026h=650\u0026w=940",
        "medium": "https://images.pexels.com/photos/1405422/pexels-photo-1405422.jpeg?auto=compress\u0026cs=tinysrgb\u0026h=350",
        "small": "https://images.pexels.com/photos/1405422/pexels-photo-1405422.jpeg?auto=compress\u0026cs=tinysrgb\u0026h=130",
        "portrait": "https://images.pexels.com/photos/1405422/pexels-photo-1405422.jpeg?auto=compress\u0026cs=tinysrgb\u0026fit=crop\u0026h=1200\u0026w=800",
        "landscape": "https://images.pexels.com/photos/1405422/pexels-photo-1405422.jpeg?auto=compress\u0026cs=tinysrgb\u0026fit=crop\u0026h=627\u0026w=1200",
        "tiny": "https://images.pexels.com/photos/1405422/pexels-photo-1405422.jpeg?auto=compress\u0026cs=tinysrgb\u0026dpr=1\u0026fit=crop\u0026h=200\u0026w=280"
      },
      "liked": false
    },
    {
      "id": 713644,
      "width": 4256,
      "height": 2832,
      "url": "https://www.pexels.com/photo/photo-of-assorted-colored-lanterns-713644/",
      "photographer": "Min An",
      "photographer_url": "https://www.pexels.com/@minan1398",
      "photographer_id": 206851,
      "avg_color": "#644543",
      "src": {
        "original": "https://images.pexels.com/photos/713644/pexels-photo-713644.jpeg",
        "large2x": "https://images.pexels.com/photos/713644/pexels-photo-713644.jpeg?auto=compress\u0026cs=tinysrgb\u0026dpr=2\u0026h=650\u0026w=940",
        "large": "https://images.pexels.com/photos/713644/pexels-photo-713644.jpeg?auto=compress\u0026cs=tinysrgb\u0026h=650\u0026w=940",
        "medium": "https://images.pexels.com/photos/713644/pexels-photo-713644.jpeg?auto=compress\u0026cs=tinysrgb\u0026h=350",
        "small": "https://images.pexels.com/photos/713644/pexels-photo-713644.jpeg?auto=compress\u0026cs=tinysrgb\u0026h=130",
        "portrait": "https://images.pexels.com/photos/713644/pexels-photo-713644.jpeg?auto=compress\u0026cs=tinysrgb\u0026fit=crop\u0026h=1200\u0026w=800",
        "landscape": "https://images.pexels.com/photos/713644/pexels-photo-713644.jpeg?auto=compress\u0026cs=tinysrgb\u0026fit=crop\u0026h=627\u0026w=1200",
        "tiny": "https://images.pexels.com/photos/713644/pexels-photo-713644.jpeg?auto=compress\u0026cs=tinysrgb\u0026dpr=1\u0026fit=crop\u0026h=200\u0026w=280"
      },
      "liked": false
    },
    {
      "id": 769525,
      "width": 4136,
      "height": 3436,
      "url": "https://www.pexels.com/photo/man-with-fireworks-769525/",
      "photographer": "Rakicevic Nenad",
      "photographer_url": "https://www.pexels.com/@rakicevic-nenad-233369",
      "photographer_id": 233369,
      "avg_color": "#7C646E",
      "src": {
        "original": "https://images.pexels.com/photos/769525/pexels-photo-769525.jpeg",
        "large2x": "https://images.pexels.com/photos/769525/pexels-photo-769525.jpeg?auto=compress\u0026cs=tinysrgb\u0026dpr=2\u0026h=650\u0026w=940",
        "large": "https://images.pexels.com/photos/769525/pexels-photo-769525.jpeg?auto=compress\u0026cs=tinysrgb\u0026h=650\u0026w=940",
        "medium": "https://images.pexels.com/photos/769525/pexels-photo-769525.jpeg?auto=compress\u0026cs=tinysrgb\u0026h=350",
        "small": "https://images.pexels.com/photos/769525/pexels-photo-769525.jpeg?auto=compress\u0026cs=tinysrgb\u0026h=130",
        "portrait": "https://images.pexels.com/photos/769525/pexels-photo-769525.jpeg?auto=compress\u0026cs=tinysrgb\u0026fit=crop\u0026h=1200\u0026w=800",
        "landscape": "https://images.pexels.com/photos/769525/pexels-photo-769525.jpeg?auto=compress\u0026cs=tinysrgb\u0026fit=crop\u0026h=627\u0026w=1200",
        "tiny": "https://images.pexels.com/photos/769525/pexels-photo-769525.jpeg?auto=compress\u0026cs=tinysrgb\u0026dpr=1\u0026fit=crop\u0026h=200\u0026w=280"
      },
      "liked": false
    },
    {
      "id": 431722,
      "width": 4048,
      "height": 3036,
      "url": "https://www.pexels.com/photo/group-of-people-throwing-paper-lantern-on-sky-during-night-431722/",
      "photographer": "Abby Kihano",
      "photographer_url": "https://www.pexels.com/@abbykihano",
      "photographer_id": 1881,
      "avg_color": "#1B11A",
      "src": {
        "original": "https://images.pexels.com/photos/431722/pexels-photo-431722.jpeg",
        "large2x": "https://images.pexels.com/photos/431722/pexels-photo-431722.jpeg?auto=compress\u0026cs=tinysrgb\u0026dpr=2\u0026h=650\u0026w=940",
        "large": "https://images.pexels.com/photos/431722/pexels-photo-431722.jpeg?auto=compress\u0026cs=tinysrgb\u0026h=650\u0026w=940",
        "medium": "https://images.pexels.com/photos/431722/pexels-photo-431722.jpeg?auto=compress\u0026cs=tinysrgb\u0026h=350",
        "small": "https://images.pexels.com/photos/431722/pexels-photo-431722.jpeg?auto=compress\u0026cs=tinysrgb\u0026h=130",
        "portrait": "https://images.pexels.com/photos/431722/pexels-photo-431722.jpeg?auto=compress\u0026cs=tinysrgb\u0026fit=crop\u0026h=1200\u0026w=800",
        "landscape": "https://images.pexels.com/photos/431722/pexels-photo-431722.jpeg?auto=compress\u0026cs=tinysrgb\u0026fit=crop\u0026h=627\u0026w=1200",
        "tiny": "https://images.pexels.com/photos/431722/pexels-photo-431722.jpeg?auto=compress\u0026cs=tinysrgb\u0026dpr=1\u0026fit=crop\u0026h=200\u0026w=280"
      },
      "liked": false
    }
  ],
  "total_results": 8000,
  "next_page": "https://api.pexels.com/v1/search/?page=2\u0026per_page=15\u0026query=festival"
}
