{
  "page": 1,
  "per_page": 15,
  "photos": [
    {
      "id": 14111,
      "width": 5184,
      "height": 3456,
      "url": "https://www.pexels.com/photo/person-holding-purple-flowers-14111/",
      "photographer": "Valeria Boltneva",
      "photographer_url": "https://www.pexels.com/@valeriya",
      "photographer_id": 665,
      "avg_color": "#4F3E46",
      "src": {
        "original": "https://images.pexels.com/photos/14111/pexels-photo-14111.jpeg",
        "large2x": "https://images.pexels.com/photos/14111/pexels-photo-14111.jpeg?auto=compress\u0026cs=tinysrgb\u0026dpr=2\u0026h=650\u0026w=940",
        "large": "https://images.pexels.com/photos/14111/pexels-photo-14111.jpeg?auto=compress\u0026cs=tinysrgb\u0026h=650\u0026w=940",
        "medium": "https://images.pexels.com/photos/14111/pexels-photo-14111.jpeg?auto=compress\u0026cs=tinysrgb\u0026h=350",
        "small": "https://images.pexels.com/photos/14111/pexels-photo-14111.jpeg?auto=compress\u0026cs=tinysrgb\u0026h=130",
        "portrait": "https://images.pexels.com/photos/14111/pexels-photo-14111.jpeg?auto=compress\u0026cs=tinysrgb\u0026fit=crop\u0026h=1200\u0026w=800",
        "landscape": "https://images.pexels.com/photos/14111/pexels-photo-14111.jpeg?auto=compress\u0026cs=tinysrgb\u0026fit=crop\u0026h=627\u0026w=1200",
        "tiny": "https://images.pexels.com/photos/14111/pexels-photo-14111.jpeg?auto=compress\u0026cs=tinysrgb\u0026dpr=1\u0026fit=crop\u0026h=200\u0026w=280"
      },
      "liked": false
    },
    {
      "id": 3014451,
      "width": 2668,
      "height": 3996,
      "url": "https://www.pexels.com/photo/photo-of-pink-flower-3014451/",
      "photographer": "Evie Shaffer",
      "photographer_url": "https://www.pexels.com/@evie-shaffer-1259279",
      "photographer_id": 1259279,
      "avg_color": "#E4EBF1",
      "src": {
        "original": "https://images.pexels.com/photos/3014451/pexels-photo-3014451.jpeg",
        "large2x": "https://images.pexels.com/photos/3014451/pexels-photo-3014451.jpeg?auto=compress\u0026cs=tinysrgb\u0026dpr=2\u0026h=650\u0026w=940",
        "large": "https://images.pexels.com/photos/3014451/pexels-photo-3014451.jpeg?auto=compress\u0026cs=tinysrgb\u0026h=650\u0026w=940",
        "medium": "https://images.pexels.com/photos/3014451/pexels-photo-3014451.jpeg?auto=compress\u0026cs=tinysrgb\u0026h=350",
        "small": "https://images.pexels.com/photos/3014451/pexels-photo-3014451.jpeg?auto=compress\u0026cs=tinysrgb\u0026h=130",
        "portrait": "https://images.pexels.com/photos/3014451/pexels-photo-3014451.jpeg?auto=compress\u0026cs=tinysrgb\u0026fit=crop\u0026h=1200\u0026w=800",
        "landscape": "https://images.pexels.com/photos/3014451/pexels-photo-3014451.jpeg?auto=compress\u0026cs=tinysrgb\u0026fit=crop\u0026h=627\u0026w=1200",
        "tiny": "https://images.pexels.com/photos/3014451/pexels-photo-3014451.jpeg?auto=compress\u0026cs=tinysrgb\u0026dpr=1\u0026fit=crop\u0026h=200\u0026w=280"
      },
      "liked": false
    },
    {
      "id": 36445,
      "width": 2592,
      "height": 3888,
      "url": "https://www.pexels.com/photo/closeup-photography-of-pink-rose-flower-36445/",
      "photographer": "Pixabay",
      "photographer_url": "https://www.pexels.com/@pixabay",
      "photographer_id": 2659,
      "avg_color": "#BC697A",
      "src": {
        "original": "https://images.pexels.com/photos/36445/rose-close-up-pink-flower.jpg",
        "large2x": "https://images.pexels.com/photos/36445/rose-close-up-pink-flower.jpg?auto=compress\u0026cs=tinysrgb\u0026dpr=2\u0026h=650\u0026w=940",
        "large": "https://images.pexels.com/photos/36445/rose-close-up-pink-flower.jpg?auto=compress\u0026cs=tinysrgb\u0026h=650\u0026w=940",
        "medium": "https://images.pexels.com/photos/36445/rose-close-up-pink-flower.jpg?auto=compress\u0026cs=tinysrgb\u0026h=350",
        "small": "https://images.pexels.com/photos/36445/rose-close-up-pink-flower.jpg?auto=compress\u0026cs=tinysrgb\u0026h=130",
        "portrait": "https://images.pexels.com/photos/36445/rose-close-up-pink-flower.jpg?auto=compress\u0026cs=tinysrgb\u0026fit=crop\u0026h=1200\u0026w=800",
        "landscape": "https://images.pexels.com/photos/36445/rose-close-up-pink-flower.jpg?auto=compress\u0026cs=tinysrgb\u0026fit=crop\u0026h=627\u0026w=1200",
        "tiny": "https://images.pexels.com/photos/36445/rose-close-up-pink-flower.jpg?auto=compress\u0026cs=tinysrgb\u0026dpr=1\u0026fit=crop\u0026h=200\u0026w=280"
      },
      "liked": false
    },
    {
      "id": 54323,
      "width": 4752,
      "height": 3168,
      "url": "https://www.pexels.com/photo/pink-flower-54323/",
      "photographer": "Pixabay",
      "photographer_url": "https://www.pexels.com/@pixabay",
      "photographer_id": 2659,
      "avg_color": "#DA9AA9",
      "src": {
        "original": "https://images.pexels.com/photos/54323/rose-composites-flowers-spring-54323.jpeg",
        "large2x": "https://images.pexels.com/photos/54323/rose-composites-flowers-spring-54323.jpeg?auto=compress\u0026cs=tinysrgb\u0026dpr=2\u0026h=650\u0026w=940",
        "large": "https://images.pexels.com/photos/54323/rose-composites-flowers-spring-54323.jpeg?auto=compress\u0026cs=tinysrgb\u0026h=650\u0026w=940",
        "medium": "https://images.pexels.com/photos/54323/rose-composites-flowers-spring-54323.jpeg?auto=compress\u0026cs=tinysrgb\u0026h=350",
        "small": "https://images.pexels.com/photos/54323/rose-composites-flowers-spring-54323.jpeg?auto=compress\u0026cs=tinysrgb\u0026h=130",
        "portrait": "https://images.pexels.com/photos/54323/rose-composites-flowers-spring-54323.jpeg?auto=compress\u0026cs=tinysrgb\u0026fit=crop\u0026h=1200\u0026w=800",
        "landscape": "https://images.pexels.com/photos/54323/rose-composites-flowers-spring-54323.jpeg?auto=compress\u0026cs=tinysrgb\u0026fit=crop\u0026h=627\u0026w=1200",
        "tiny": "https://images.pexels.com/photos/54323/rose-composites-flowers-spring-54323.jpeg?auto=compress\u0026cs=tinysrgb\u0026dpr=1\u0026fit=crop\u0026h=200\u0026w=280"
      },
      "liked": false
    },
    {
      "id": 60909,
      "width": 2074,
      "height": 1382,
      "url": "https://www.pexels.com/photo/petals-plant-flower-macro-60909/",
      "photographer": "Pixabay",
      "photographer_url": "https://www.pexels.com/@pixabay",
      "photographer_id": 2659,
      "avg_color": "#827762",
      "src": {
        "original": "https://images.pexels.com/photos/60909/rose-yellow-flower-petals-60909.jpeg",
        "large2x": "https://images.pexels.com/photos/60909/rose-yellow-flower-petals-60909.jpeg?auto=compress\u0026cs=tinysrgb\u0026dpr=2\u0026h=650\u0026w=940",
        "large": "https://images.pexels.com/photos/60909/rose-yellow-flower-petals-60909.jpeg?auto=compress\u0026cs=tinysrgb\u0026h=650\u0026w=940",
        "medium": "https://images.pexels.com/photos/60909/rose-yellow-flower-petals-60909.jpeg?auto=compress\u0026cs=tinysrgb\u0026h=350",
        "small": "https://images.pexels.com/photos/60909/rose-yellow-flower-petals-60909.jpeg?auto=compress\u0026cs=tinysrgb\u0026h=130",
        "portrait": "https://images.pexels.com/photos/60909/rose-yellow-flower-petals-60909.jpeg?auto=compress\u0026cs=tinysrgb\u0026fit=crop\u0026h=1200\u0026w=800",
        "landscape": "https://images.pexels.com/photos/60909/rose-yellow-flower-petals-60909.jpeg?auto=compress\u0026cs=tinysrgb\u0026fit=crop\u0026h=627\u0026w=1200",
        "tiny": "https://images.pexels.com/photos/60909/rose-yellow-flower-petals-60909.jpeg?auto=compress\u0026cs=tinysrgb\u0026dpr=1\u0026fit=crop\u0026h=200\u0026w=280"
      },
      "liked": false
    },
    {
      "id": 70741,
      "width": 3774,
      "height": 2350,
      "url": "https://www.pexels.com/photo/red-field-summer-agriculture-70741/",
      "photographer": "Pixabay",
      "photographer_url": "https://www.pexels.com/@pixabay",
      "photographer_id": 2659,
      "avg_color": "#E5CDB2",
      "src": {
        "original": "https://images.pexels.com/photos/70741/cereals-field-ripe-poppy-70741.jpeg",
        "large2x": "https://images.pexels.com/photos/70741/cereals-field-ripe-poppy-70741.jpeg?auto=compress\u0026cs=tinysrgb\u0026dpr=2\u0026h=650\u0026w=940",
        "large": "https://images.pexels.com/photos/70741/cereals-field-ripe-poppy-70741.jpeg?auto=compress\u0026cs=tinysrgb\u0026h=650\u0026w=940",
        "medium": "https://images.pexels.com/photos/70741/cereals-field-ripe-poppy-70741.jpeg?auto=compress\u0026cs=tinysrgb\u0026h=350",
        "small": "https://images.pexels.com/photos/70741/cereals-field-ripe-poppy-70741.jpeg?auto=compress\u0026cs=tinysrgb\u0026h=130",
        "portrait": "https://images.pexels.com/photos/70741/cereals-field-ripe-poppy-70741.jpeg?auto=compress\u0026cs=tinysrgb\u0026fit=crop\u0026h=1200\u0026w=800",
        "landscape": "https://images.pexels.com/photos/70741/cereals-field-ripe-poppy-70741.jpeg?auto=compress\u0026cs=tinysrgb\u0026fit=crop\u0026h=627\u0026w=1200",
        "tiny": "https://images.pexels.com/photos/70741/cereals-field-ripe-poppy-70741.jpeg?auto=compress\u0026cs=tinysrgb\u0026dpr=1\u0026fit=crop\u0026h=200\u0026w=280"
      },
      "liked": false
    },
    {
      "id": 112324,
      "width": 6000,
      "height": 4000,
      "url": "https://www.pexels.com/photo/pink-petaled-flower-112324/",
      "photographer": "Kristina Paukshtite",
      "photographer_url": "https://www.pexels.com/@kpaukshtite",
      "photographer_id": 28319,
      "avg_color": "#AC9894",
      "src": {
        "original": "https://images.pexels.com/photos/112324/pexels-photo-112324.jpeg",
        "large2x": "https://images.pexels.com/photos/112324/pexels-photo-112324.jpeg?auto=compress\u0026cs=tinysrgb\u0026dpr=2\u0026h=650\u0026w=940",
        "large": "https://images.pexels.com/photos/112324/pexels-photo-112324.jpeg?auto=compress\u0026cs=tinysrgb\u0026h=650\u0026w=940",
        "medium": "https://images.pexels.com/photos/112324/pexels-photo-112324.jpeg?auto=compress\u0026cs=tinysrgb\u0026h=350",
        "small": "https://images.pexels.com/photos/112324/pexels-photo-112324.jpeg?auto=compress\u0026cs=tinysrgb\u0026h=130",
        "portrait": "https://images.pexels.com/photos/112324/pexels-photo-112324.jpeg?auto=compress\u0026cs=tinysrgb\u0026fit=crop\u0026h=1200\u0026w=800",
        "landscape": "https://images.pexels.com/photos/112324/pexels-photo-112324.jpeg?auto=compress\u0026cs=tinysrgb\u0026fit=crop\u0026h=627\u0026w=1200",
        "tiny": "https://images.pexels.com/photos/112324/pexels-photo-112324.jpeg?auto=compress\u0026cs=tinysrgb\u0026dpr=1\u0026fit=crop\u0026h=200\u0026w=280"
      },
      "liked": false
    },
    {
      "id": 136255,
      "width": 5488,
      "height": 3600,
      "url": "https://www.pexels.com/photo/red-petaled-flowers-136255/",
      "photographer": "monicore",
      "photographer_url": "https://www.pexels.com/@monicore",
      "photographer_id": 37786,
      "avg_color": "#673733",
      "src": {
        "original": "https://images.pexels.com/photos/136255/pexels-photo-136255.jpeg",
        "large2x": "https://images.pexels.com/photos/136255/pexels-photo-136255.jpeg?auto=compress\u0026cs=tinysrgb\u0026dpr=2\u0026h=650\u0026w=940",
        "large": "https://images.pexels.com/photos/136255/pexels-photo-136255.jpeg?auto=compress\u0026cs=tinysrgb\u0026h=650\u0026w=940",
        "medium": "https://images.pexels.com/photos/136255/pexels-photo-136255.jpeg?auto=compress\u0026cs=tinysrgb\u0026h=350",
        "small": "https://images.pexels.com/photos/136255/pexels-photo-136255.jpeg?auto=compress\u0026cs=tinysrgb\u0026h=130",
        "portrait": "https://images.pexels.com/photos/136255/pexels-photo-136255.jpeg?auto=compress\u0026cs=tinysrgb\u0026fit=crop\u0026h=1200\u0026w=800",
        "landscape": "https://images.pexels.com/photos/136255/pexels-photo-136255.jpeg?auto=compress\u0026cs=tinysrgb\u0026fit=crop\u0026h=627\u0026w=1200",
        "tiny": "https://images.pexels.com/photos/136255/pexels-photo-136255.jpeg?auto=compress\u0026cs=tinysrgb\u0026dpr=1\u0026fit=crop\u0026h=200\u0026w=280"
      },
      "liked": false
    },
    {
      "id": 289323,
      "width": 5184,
      "height": 3456,
      "url": "https://www.pexels.com/photo/blossom-blur-close-up-dandelion-289323/",
      "photographer": "Pixabay",
      "photographer_url": "https://www.pexels.com/@pixabay",
      "photographer_id": 2659,
      "avg_color": "#202416",
      "src": {
        "original": "https://images.pexels.com/photos/289323/pexels-photo-289323.jpeg",
        "large2x": "https://images.pexels.com/photos/289323/pexels-photo-289323.jpeg?auto=compress\u0026cs=tinysrgb\u0026dpr=2\u0026h=650\u0026w=940",
        "large": "https://images.pexels.com/photos/289323/pexels-photo-289323.jpeg?auto=compress\u0026cs=tinysrgb\u0026h=650\u0026w=940",
        "medium": "https://images.pexels.com/photos/289323/pexels-photo-289323.jpeg?auto=compress\u0026cs=tinysrgb\u0026h=350",
        "small": "https://images.pexels.com/photos/289323/pexels-photo-289323.jpeg?auto=compress\u0026cs=tinysrgb\u0026h=130",
        "portrait": "https://images.pexels.com/photos/289323/pexels-photo-289323.jpeg?auto=compress\u0026cs=tinysrgb\u0026fit=crop\u0026h=1200\u0026w=800",
        "landscape": "https://images.pexels.com/photos/289323/pexels-photo-289323.jpeg?auto=compress\u0026cs=tinysrgb\u0026fit=crop\u0026h=627\u0026w=1200",
        "tiny": "https://images.pexels.com/photos/289323/pexels-photo-289323.jpeg?auto=compress\u0026cs=tinysrgb\u0026dpr=1\u0026fit=crop\u0026h=200\u0026w=280"
      },
      "liked": false
    },
    {
      "id": 2731977,
      "width": 3648,
      "height": 5472,
      "url": "https://www.pexels.com/photo/photo-of-sneakers-2731977/",
      "photographer": "Bella Zhong",
      "photographer_url": "https://www.pexels.com/@bellazhong",
      "photographer_id": 692105,
      "avg_color": "#BCA38F",
      "src": {
        "original": "https://images.pexels.com/photos/2731977/pexels-photo-2731977.jpeg",
        "large2x": "https://images.pexels.com/photos/2731977/pexels-photo-2731977.jpeg?auto=compress\u0026cs=tinysrgb\u0026dpr=2\u0026h=650\u0026w=940",
        "large": "https://images.pexels.com/photos/2731977/pexels-photo-2731977.jpeg?auto=compress\u0026cs=tinysrgb\u0026h=650\u0026w=940",
        "medium": "https://images.pexels.com/photos/2731977/pexels-photo-2731977.jpeg?auto=compress\u0026cs=tinysrgb\u0026h=350",
        "small": "https://images.pexels.com/photos/2731977/pexels-photo-2731977.jpeg?auto=compress\u0026cs=tinysrgb\u0026h=130",
        "portrait": "https://images.pexels.com/photos/2731977/pexels-photo-2731977.jpeg?auto=compress\u0026cs=tinysrgb\u0026fit=crop\u0026h=1200\u0026w=800",
        "landscape": "https://images.pexels.com/photos/2731977/pexels-photo-2731977.jpeg?auto=compress\u0026cs=tinysrgb\u0026fit=crop\u0026h=627\u0026w=1200",
        "tiny": "https://images.pexels.com/photos/2731977/pexels-photo-2731977.jpeg?auto=compress\u0026cs=tinysrgb\u0026dpr=1\u0026fit=crop\u0026h=200\u0026w=280"
      },
      "liked": false
    },
    {
      "id": 2343170,
      "width": 6000,
      "height": 4000,
      "url": "https://www.pexels.com/photo/pink-flower-2343170/",
      "photographer": "Ylanite Koppens",
      "photographer_url": "https://www.pexels.com/@nietjuh",
      "photographer_id": 196863,
      "avg_color": "#423F43",
      "src": {
        "original": "https://images.pexels.com/photos/2343170/pexels-photo-2343170.jpeg",
        "large2x": "https://images.pexels.com/photos/2343170/pexels-photo-2343170.jpeg?auto=compress\u0026cs=tinysrgb\u0026dpr=2\u0026h=650\u0026w=940",
        "large": "https://images.pexels.com/photos/2343170/pexels-photo-2343170.jpeg?auto=compress\u0026cs=tinysrgb\u0026h=650\u0026w=940",
        "medium": "https://images.pexels.com/photos/2343170/pexels-photo-2343170.jpeg?auto=compress\u0026cs=tinysrgb\u0026h=350",
        "small": "https://images.pexels.com/photos/2343170/pexels-photo-2343170.jpeg?auto=compress\u0026cs=tinysrgb\u0026h=130",
        "portrait": "https://images.pexels.com/photos/2343170/pexels-photo-2343170.jpeg?auto=compress\u0026cs=tinysrgb\u0026fit=crop\u0026h=1200\u0026w=800",
        "landscape": "https://images.pexels.com/photos/2343170/pexels-photo-2343170.jpeg?auto=compress\u0026cs=tinysrgb\u0026fit=crop\u0026h=627\u0026w=1200",
        "tiny": "https://images.pexels.com/photos/2343170/pexels-photo-2343170.jpeg?auto=compress\u0026cs=tinysrgb\u0026dpr=1\u0026fit=crop\u0026h=200\u0026w=280"
      },
      "liked": false
    },
    {
      "id": 3746214,
      "width": 4000,
      "height": 6000,
      "url": "https://www.pexels.com/photo/person-in-red-long-sleeve-shirt-holding-white-flowers-3746214/",
      "photographer": "Anna Shvets",
      "photographer_url": "https://www.pexels.com/@shvetsa",
      "photographer_id": 1984515,
      "avg_color": "#6A261C",
      "src": {
        "original": "https://images.pexels.com/photos/3746214/pexels-photo-3746214.jpeg",
        "large2x": "https://images.pexels.com/photos/3746214/pexels-photo-3746214.jpeg?auto=compress\u0026cs=tinysrgb\u0026dpr=2\u0026h=650\u0026w=940",
        "large": "https://images.pexels.com/photos/3746214/pexels-photo-3746214.jpeg?auto=compress\u0026cs=tinysrgb\u0026h=650\u0026w=940",
        "medium": "https://images.pexels.com/photos/3746214/pexels-photo-3746214.jpeg?auto=compress\u0026cs=tinysrgb\u0026h=350",
        "small": "https://images.pexels.com/photos/3746214/pexels-photo-3746214.jpeg?auto=compress\u0026cs=tinysrgb\u0026h=130",
        "portrait": "https://images.pexels.com/photos/3746214/pexels-photo-3746214.jpeg?auto=compress\u0026cs=tinysrgb\u0026fit=crop\u0026h=1200\u0026w=800",
        "landscape": "https://images.pexels.com/photos/3746214/pexels-photo-3746214.jpeg?auto=compress\u0026cs=tinysrgb\u0026fit=crop\u0026h=627\u0026w=1200",
        "tiny": "https://images.pexels.com/photos/3746214/pexels-photo-3746214.jpeg?auto=compress\u0026cs=tinysrgb\u0026dpr=1\u0026fit=crop\u0026h=200\u0026w=280"
      },
      "liked": false
    },
    {
      "id": 2058498,
      "width": 4000,
      "height": 6000,
      "url": "https://www.pexels.com/photo/tulip-flowers-2058498/",
      "photographer": "fotografierende",
      "photographer_url": "https://www.pexels.com/@fotografierende",
      "photographer_id": 116950,
      "avg_color": "#ABA49D",
      "src": {
        "original": "https://images.pexels.com/photos/2058498/pexels-photo-2058498.jpeg",
        "large2x": "https://images.pexels.com/photos/2058498/pexels-photo-2058498.jpeg?auto=compress\u0026cs=tinysrgb\u0026dpr=2\u0026h=650\u0026w=940",
        "large": "https://images.pexels.com/photos/2058498/pexels-photo-2058498.jpeg?auto=compress\u0026cs=tinysrgb\u0026h=650\u0026w=940",
        "medium": "https://images.pexels.com/photos/2058498/pexels-photo-2058498.jpeg?auto=compress\u0026cs=tinysrgb\u0026h=350",
        "small": "https://images.pexels.com/photos/2058498/pexels-photo-2058498.jpeg?auto=compress\u0026cs=tinysrgb\u0026h=130",
        "portrait": "https://images.pexels.com/photos/2058498/pexels-photo-2058498.jpeg?auto=compress\u0026cs=tinysrgb\u0026fit=crop\u0026h=1200\u0026w=800",
        "landscape": "https://images.pexels.com/photos/2058498/pexels-photo-2058498.jpeg?auto=compress\u0026cs=tinysrgb\u0026fit=crop\u0026h=627\u0026w=1200",
        "tiny": "https://images.pexels.com/photos/2058498/pexels-photo-2058498.jpeg?auto=compress\u0026cs=tinysrgb\u0026dpr=1\u0026fit=crop\u0026h=200\u0026w=280"
      },
      "liked": false
    },
    {
      "id": 2106037,
      "width": 3064,
      "height": 4592,
      "url": "https://www.pexels.com/photo/person-holding-yellow-and-white-flowers-2106037/",
      "photographer": "Lisa Fotios",
      "photographer_url": "https://www.pexels.com/@fotios-photos",
      "photographer_id": 26735,
      "avg_color": "#75B6BD",
      "src": {
        "original": "https://images.pexels.com/photos/2106037/pexels-photo-2106037.jpeg",
        "large2x": "https://images.pexels.com/photos/2106037/pexels-photo-2106037.jpeg?auto=compress\u0026cs=tinysrgb\u0026dpr=2\u0026h=650\u0026w=940",
        "large": "https://images.pexels.com/photos/2106037/pexels-photo-2106037.jpeg?auto=compress\u0026cs=tinysrgb\u0026h=650\u0026w=940",
        "medium": "https://images.pexels.com/photos/2106037/pexels-photo-2106037.jpeg?auto=compress\u0026cs=tinysrgb\u0026h=350",
        "small": "https://images.pexels.com/photos/2106037/pexels-photo-2106037.jpeg?auto=compress\u0026cs=tinysrgb\u0026h=130",
        "portrait": "https://images.pexels.com/photos/2106037/pexels-photo-2106037.jpeg?auto=compress\u0026cs=tinysrgb\u0026fit=crop\u0026h=1200\u0026w=800",
        "landscape": "https://images.pexels.com/photos/2106037/pexels-photo-2106037.jpeg?auto=compress\u0026cs=tinysrgb\u0026fit=crop\u0026h=627\u0026w=1200",
        "tiny": "https://images.pexels.com/photos/2106037/pexels-photo-2106037.jpeg?auto=compress\u0026cs=tinysrgb\u0026dpr=1\u0026fit=crop\u0026h=200\u0026w=280"
      },
      "liked": false
    },
    {
      "id": 4523890,
      "width": 4000,
      "height": 6000,
      "url": "https://www.pexels.com/photo/pink-tulips-in-bloom-close-up-photo-4523890/",
      "photographer": "alleksana",
      "photographer_url": "https://www.pexels.com/@alleksana",
      "photographer_id": 2242986,
      "avg_color": "#786C56",
      "src": {
        "original": "https://images.pexels.com/photos/4523890/pexels-photo-4523890.jpeg",
        "large2x": "https://images.pexels.com/photos/4523890/pexels-photo-4523890.jpeg?auto=compress\u0026cs=tinysrgb\u0026dpr=2\u0026h=650\u0026w=940",
        "large": "https://images.pexels.com/photos/4523890/pexels-photo-4523890.jpeg?auto=compress\u0026cs=tinysrgb\u0026h=650\u0026w=940",
        "medium": "https://images.pexels.com/photos/4523890/pexels-photo-4523890.jpeg?auto=compress\u0026cs=tinysrgb\u0026h=350",
        "small": "https://images.pexels.com/photos/4523890/pexels-photo-4523890.jpeg?auto=compress\u0026cs=tinysrgb\u0026h=130",
        "portrait": "https://images.pexels.com/photos/4523890/pexels-photo-4523890.jpeg?auto=compress\u0026cs=tinysrgb\u0026fit=crop\u0026h=1200\u0026w=800",
        "landscape": "https://images.pexels.com/photos/4523890/pexels-photo-4523890.jpeg?auto=compress\u0026cs=tinysrgb\u0026fit=crop\u0026h=627\u0026w=1200",
        "tiny": "https://images.pexels.com/photos/4523890/pexels-photo-4523890.jpeg?auto=compress\u0026cs=tinysrgb\u0026dpr=1\u0026fit=crop\u0026h=200\u0026w=280"
      },
      "liked": false
    }
  ],
  "total_results": 8000,
  "next_page": "https://api.pexels.com/v1/search/?page=2\u0026per_page=15\u0026query=flower"
}
