{
  "page": 1,
  "per_page": 15,
  "photos": [
    {
      "id": 4666748,
      "width": 2832,
      "height": 4240,
      "url": "https://www.pexels.com/photo/photo-of-shark-underwater-4666748/",
      "photographer": "Elianne Dipp",
      "photographer_url": "https://www.pexels.com/@eliannedipp",
      "photographer_id": 3076080,
      "avg_color": "#7E9EB3",
      "src": {
        "original": "https://images.pexels.com/photos/4666748/pexels-photo-4666748.jpeg",
        "large2x": "https://images.pexels.com/photos/4666748/pexels-photo-4666748.jpeg?auto=compress\u0026cs=tinysrgb\u0026dpr=2\u0026h=650\u0026w=940",
        "large": "https://images.pexels.com/photos/4666748/pexels-photo-4666748.jpeg?auto=compress\u0026cs=tinysrgb\u0026h=650\u0026w=940",
        "medium": "https://images.pexels.com/photos/4666748/pexels-photo-4666748.jpeg?auto=compress\u0026cs=tinysrgb\u0026h=350",
        "small": "https://images.pexels.com/photos/4666748/pexels-photo-4666748.jpeg?auto=compress\u0026cs=tinysrgb\u0026h=130",
        "portrait": "https://images.pexels.com/photos/4666748/pexels-photo-4666748.jpeg?auto=compress\u0026cs=tinysrgb\u0026fit=crop\u0026h=1200\u0026w=800",
        "landscape": "https://images.pexels.com/photos/4666748/pexels-photo-4666748.jpeg?auto=compress\u0026cs=tinysrgb\u0026fit=crop\u0026h=627\u0026w=1200",
        "tiny": "https://images.pexels.com/photos/4666748/pexels-photo-4666748.jpeg?auto=compress\u0026cs=tinysrgb\u0026dpr=1\u0026fit=crop\u0026h=200\u0026w=280"
      },
      "liked": false
    },
    {
      "id": 1671325,
      "width": 3312,
      "height": 4416,
      "url": "https://www.pexels.com/photo/forest-photography-1671325/",
      "photographer": "Francesco Ungaro",
      "photographer_url": "https://www.pexels.com/@francesco-ungaro",
      "photographer_id": 21273,
      "avg_color": "#1A1E1B",
      "src": {
        "original": "https://images.pexels.com/photos/1671325/pexels-photo-1671325.jpeg",
        "large2x": "https://images.pexels.com/photos/1671325/pexels-photo-1671325.jpeg?auto=compress\u0026cs=tinysrgb\u0026dpr=2\u0026h=650\u0026w=940",
        "large": "https://images.pexels.com/photos/1671325/pexels-photo-1671325.jpeg?auto=compress\u0026cs=tinysrgb\u0026h=650\u0026w=940",
        "medium": "https://images.pexels.com/photos/1671325/pexels-photo-1671325.jpeg?auto=compress\u0026cs=tinysrgb\u0026h=350",
        "small": "https://images.pexels.com/photos/1671325/pexels-photo-1671325.jpeg?auto=compress\u0026cs=tinysrgb\u0026h=130",
        "portrait": "https://images.pexels.com/photos/1671325/pexels-photo-1671325.jpeg?auto=compress\u0026cs=tinysrgb\u0026fit=crop\u0026h=1200\u0026w=800",
        "landscape": "https://images.pexels.com/photos/1671325/pexels-photo-1671325.jpeg?auto=compress\u0026cs=tinysrgb\u0026fit=crop\u0026h=627\u0026w=1200",
        "tiny": "https://images.pexels.com/photos/1671325/pexels-photo-1671325.jpeg?auto=compress\u0026cs=tinysrgb\u0026dpr=1\u0026fit=crop\u0026h=200\u0026w=280"
      },
      "liked": false
    },
    {
      "id": 15286,
      "width": 2500,
      "height": 1667,
      "url": "https://www.pexels.com/photo/person-walking-between-green-forest-trees-15286/",
      "photographer": "Luis del Río",
      "photographer_url": "https://www.pexels.com/@luisdelrio",
      "photographer_id": 1081,
      "avg_color": "#283419",
      "src": {
        "original": "https://images.pexels.com/photos/15286/pexels-photo.jpg",
        "large2x": "https://images.pexels.com/photos/15286/pexels-photo.jpg?auto=compress\u0026cs=tinysrgb\u0026dpr=2\u0026h=650\u0026w=940",
        "large": "https://images.pexels.com/photos/15286/pexels-photo.jpg?auto=compress\u0026cs=tinysrgb\u0026h=650\u0026w=940",
        "medium": "https://images.pexels.com/photos/15286/pexels-photo.jpg?auto=compress\u0026cs=tinysrgb\u0026h=350",
        "small": "https://images.pexels.com/photos/15286/pexels-photo.jpg?auto=compress\u0026cs=tinysrgb\u0026h=130",
        "portrait": "https://images.pexels.com/photos/15286/pexels-photo.jpg?auto=compress\u0026cs=tinysrgb\u0026fit=crop\u0026h=1200\u0026w=800",
        "landscape": "https://images.pexels.com/photos/15286/pexels-photo.jpg?auto=compress\u0026cs=tinysrgb\u0026fit=crop\u0026h=627\u0026w=1200",
        "tiny": "https://images.pexels.com/photos/15286/pexels-photo.jpg?auto=compress\u0026cs=tinysrgb\u0026dpr=1\u0026fit=crop\u0026h=200\u0026w=280"
      },
      "liked": false
    },
    {
      "id": 3493777,
      "width": 3000,
      "height": 3000,
      "url": "https://www.pexels.com/photo/photo-of-bridge-under-white-clouds-3493777/",
      "photographer": "Aleksey Kuprikov",
      "photographer_url": "https://www.pexels.com/@aleksey-kuprikov-1883853",
      "photographer_id": 1883853,
      "avg_color": "#6B7874",
      "src": {
        "original": "https://images.pexels.com/photos/3493777/pexels-photo-3493777.jpeg",
        "large2x": "https://images.pexels.com/photos/3493777/pexels-photo-3493777.jpeg?auto=compress\u0026cs=tinysrgb\u0026dpr=2\u0026h=650\u0026w=940",
        "large": "https://images.pexels.com/photos/3493777/pexels-photo-3493777.jpeg?auto=compress\u0026cs=tinysrgb\u0026h=650\u0026w=940",
        "medium": "https://images.pexels.com/photos/3493777/pexels-photo-3493777.jpeg?auto=compress\u0026cs=tinysrgb\u0026h=350",
        "small": "https://images.pexels.com/photos/3493777/pexels-photo-3493777.jpeg?auto=compress\u0026cs=tinysrgb\u0026h=130",
        "portrait": "https://images.pexels.com/photos/3493777/pexels-photo-3493777.jpeg?auto=compress\u0026cs=tinysrgb\u0026fit=crop\u0026h=1200\u0026w=800",
        "landscape": "https://images.pexels.com/photos/3493777/pexels-photo-3493777.jpeg?auto=compress\u0026cs=tinysrgb\u0026fit=crop\u0026h=627\u0026w=1200",
        "tiny": "https://images.pexels.com/photos/3493777/pexels-photo-3493777.jpeg?auto=compress\u0026cs=tinysrgb\u0026dpr=1\u0026fit=crop\u0026h=200\u0026w=280"
      },
      "liked": false
    },
    {
      "id": 3509971,
      "width": 3992,
      "height": 2992,
      "url": "https://www.pexels.com/photo/aerial-photography-of-snow-covered-trees-3509971/",
      "photographer": "Tomáš Malík",
      "photographer_url": "https://www.pexels.com/@tomas-malik-793526",
      "photographer_id": 793526,
      "avg_color": "#647185",
      "src": {
        "original": "https://images.pexels.com/photos/3509971/pexels-photo-3509971.jpeg",
        "large2x": "https://images.pexels.com/photos/3509971/pexels-photo-3509971.jpeg?auto=compress\u0026cs=tinysrgb\u0026dpr=2\u0026h=650\u0026w=940",
        "large": "https://images.pexels.com/photos/3509971/pexels-photo-3509971.jpeg?auto=compress\u0026cs=tinysrgb\u0026h=650\u0026w=940",
        "medium": "https://images.pexels.com/photos/3509971/pexels-photo-3509971.jpeg?auto=compress\u0026cs=tinysrgb\u0026h=350",
        "small": "https://images.pexels.com/photos/3509971/pexels-photo-3509971.jpeg?auto=compress\u0026cs=tinysrgb\u0026h=130",
        "portrait": "https://images.pexels.com/photos/3509971/pexels-photo-3509971.jpeg?auto=compress\u0026cs=tinysrgb\u0026fit=crop\u0026h=1200\u0026w=800",
        "landscape": "https://images.pexels.com/photos/3509971/pexels-photo-3509971.jpeg?auto=compress\u0026cs=tinysrgb\u0026fit=crop\u0026h=627\u0026w=1200",
        "tiny": "https://images.pexels.com/photos/3509971/pexels-photo-3509971.jpeg?auto=compress\u0026cs=tinysrgb\u0026dpr=1\u0026fit=crop\u0026h=200\u0026w=280"
      },
      "liked": false
    },
    {
      "id": 1098365,
      "width": 3651,
      "height": 5476,
      "url": "https://www.pexels.com/photo/man-wearing-blue-shorts-about-to-dive-on-body-of-water-1098365/",
      "photographer": "Oliver Sjöström",
      "photographer_url": "https://www.pexels.com/@ollivves",
      "photographer_id": 333270,
      "avg_color": "#9BB0B3",
      "src": {
        "original": "https://images.pexels.com/photos/1098365/pexels-photo-1098365.jpeg",
        "large2x": "https://images.pexels.com/photos/1098365/pexels-photo-1098365.jpeg?auto=compress\u0026cs=tinysrgb\u0026dpr=2\u0026h=650\u0026w=940",
        "large": "https://images.pexels.com/photos/1098365/pexels-photo-1098365.jpeg?auto=compress\u0026cs=tinysrgb\u0026h=650\u0026w=940",
        "medium": "https://images.pexels.com/photos/1098365/pexels-photo-1098365.jpeg?auto=compress\u0026cs=tinysrgb\u0026h=350",
        "small": "https://images.pexels.com/photos/1098365/pexels-photo-1098365.jpeg?auto=compress\u0026cs=tinysrgb\u0026h=130",
        "portrait": "https://images.pexels.com/photos/1098365/pexels-photo-1098365.jpeg?auto=compress\u0026cs=tinysrgb\u0026fit=crop\u0026h=1200\u0026w=800",
        "landscape": "https://images.pexels.com/photos/1098365/pexels-photo-1098365.jpeg?auto=compress\u0026cs=tinysrgb\u0026fit=crop\u0026h=627\u0026w=1200",
        "tiny": "https://images.pexels.com/photos/1098365/pexels-photo-1098365.jpeg?auto=compress\u0026cs=tinysrgb\u0026dpr=1\u0026fit=crop\u0026h=200\u0026w=280"
      },
      "liked": false
    },
    {
      "id": 1894350,
      "width": 3200,
      "height": 4800,
      "url": "https://www.pexels.com/photo/jellyfish-underwater-1894350/",
      "photographer": "Guillaume Meurice",
      "photographer_url": "https://www.pexels.com/@sliceisop",
      "photographer_id": 188188,
      "avg_color": "#153559",
      "src": {
        "original": "https://images.pexels.com/photos/1894350/pexels-photo-1894350.jpeg",
        "large2x": "https://images.pexels.com/photos/1894350/pexels-photo-1894350.jpeg?auto=compress\u0026cs=tinysrgb\u0026dpr=2\u0026h=650\u0026w=940",
        "large": "https://images.pexels.com/photos/1894350/pexels-photo-1894350.jpeg?auto=compress\u0026cs=tinysrgb\u0026h=650\u0026w=940",
        "medium": "https://images.pexels.com/photos/1894350/pexels-photo-1894350.jpeg?auto=compress\u0026cs=tinysrgb\u0026h=350",
        "small": "https://images.pexels.com/photos/1894350/pexels-photo-1894350.jpeg?auto=compress\u0026cs=tinysrgb\u0026h=130",
        "portrait": "https://images.pexels.com/photos/1894350/pexels-photo-1894350.jpeg?auto=compress\u0026cs=tinysrgb\u0026fit=crop\u0026h=1200\u0026w=800",
        "landscape": "https://images.pexels.com/photos/1894350/pexels-photo-1894350.jpeg?auto=compress\u0026cs=tinysrgb\u0026fit=crop\u0026h=627\u0026w=1200",
        "tiny": "https://images.pexels.com/photos/1894350/pexels-photo-1894350.jpeg?auto=compress\u0026cs=tinysrgb\u0026dpr=1\u0026fit=crop\u0026h=200\u0026w=280"
      },
      "liked": false
    },
    {
      "id": 33041,
      "width": 4167,
      "height": 2541,
      "url": "https://www.pexels.com/photo/antelope-canyon-33041/",
      "photographer": "Paul IJsendoorn",
      "photographer_url": "https://www.pexels.com/@photospublic",
      "photographer_id": 148531,
      "avg_color": "#7F4C3E",
      "src": {
        "original": "https://images.pexels.com/photos/33041/antelope-canyon-lower-canyon-arizona.jpg",
        "large2x": "https://images.pexels.com/photos/33041/antelope-canyon-lower-canyon-arizona.jpg?auto=compress\u0026cs=tinysrgb\u0026dpr=2\u0026h=650\u0026w=940",
        "large": "https://images.pexels.com/photos/33041/antelope-canyon-lower-canyon-arizona.jpg?auto=compress\u0026cs=tinysrgb\u0026h=650\u0026w=940",
        "medium": "https://images.pexels.com/photos/33041/antelope-canyon-lower-canyon-arizona.jpg?auto=compress\u0026cs=tinysrgb\u0026h=350",
        "small": "https://images.pexels.com/photos/33041/antelope-canyon-lower-canyon-arizona.jpg?auto=compress\u0026cs=tinysrgb\u0026h=130",
        "portrait": "https://images.pexels.com/photos/33041/antelope-canyon-lower-canyon-arizona.jpg?auto=compress\u0026cs=tinysrgb\u0026fit=crop\u0026h=1200\u0026w=800",
        "landscape": "https://images.pexels.com/photos/33041/antelope-canyon-lower-canyon-arizona.jpg?auto=compress\u0026cs=tinysrgb\u0026fit=crop\u0026h=627\u0026w=1200",
        "tiny": "https://images.pexels.com/photos/33041/antelope-canyon-lower-canyon-arizona.jpg?auto=compress\u0026cs=tinysrgb\u0026dpr=1\u0026fit=crop\u0026h=200\u0026w=280"
      },
      "liked": false
    },
    {
      "id": 2922672,
      "width": 5472,
      "height": 3648,
      "url": "https://www.pexels.com/photo/dolphins-in-water-2922672/",
      "photographer": "Jeremy Bishop",
      "photographer_url": "https://www.pexels.com/@jeremy-bishop-1260133",
      "photographer_id": 1260133,
      "avg_color": "#255B78",
      "src": {
        "original": "https://images.pexels.com/photos/2922672/pexels-photo-2922672.jpeg",
        "large2x": "https://images.pexels.com/photos/2922672/pexels-photo-2922672.jpeg?auto=compress\u0026cs=tinysrgb\u0026dpr=2\u0026h=650\u0026w=940",
        "large": "https://images.pexels.com/photos/2922672/pexels-photo-2922672.jpeg?auto=compress\u0026cs=tinysrgb\u0026h=650\u0026w=940",
        "medium": "https://images.pexels.com/photos/2922672/pexels-photo-2922672.jpeg?auto=compress\u0026cs=tinysrgb\u0026h=350",
        "small": "https://images.pexels.com/photos/2922672/pexels-photo-2922672.jpeg?auto=compress\u0026cs=tinysrgb\u0026h=130",
        "portrait": "https://images.pexels.com/photos/2922672/pexels-photo-2922672.jpeg?auto=compress\u0026cs=tinysrgb\u0026fit=crop\u0026h=1200\u0026w=800",
        "landscape": "https://images.pexels.com/photos/2922672/pexels-photo-2922672.jpeg?auto=compress\u0026cs=tinysrgb\u0026fit=crop\u0026h=627\u0026w=1200",
        "tiny": "https://images.pexels.com/photos/2922672/pexels-photo-2922672.jpeg?auto=compress\u0026cs=tinysrgb\u0026dpr=1\u0026fit=crop\u0026h=200\u0026w=280"
      },
      "liked": false
    },
    {
      "id": 3214944,
      "width": 3807,
      "height": 5710,
      "url": "https://www.pexels.com/photo/palm-trees-at-beach-3214944/",
      "photographer": "Alex Azabache",
      "photographer_url": "https://www.pexels.com/@alexazabache",
      "photographer_id": 1664241,
      "avg_color": "#7F645B",
      "src": {
        "original": "https://images.pexels.com/photos/3214944/pexels-photo-3214944.jpeg",
        "large2x": "https://images.pexels.com/photos/3214944/pexels-photo-3214944.jpeg?auto=compress\u0026cs=tinysrgb\u0026dpr=2\u0026h=650\u0026w=940",
        "large": "https://images.pexels.com/photos/3214944/pexels-photo-3214944.jpeg?auto=compress\u0026cs=tinysrgb\u0026h=650\u0026w=940",
        "medium": "https://images.pexels.com/photos/3214944/pexels-photo-3214944.jpeg?auto=compress\u0026cs=tinysrgb\u0026h=350",
        "small": "https://images.pexels.com/photos/3214944/pexels-photo-3214944.jpeg?auto=compress\u0026cs=tinysrgb\u0026h=130",
        "portrait": "https://images.pexels.com/photos/3214944/pexels-photo-3214944.jpeg?auto=compress\u0026cs=tinysrgb\u0026fit=crop\u0026h=1200\u0026w=800",
        "landscape": "https://images.pexels.com/photos/3214944/pexels-photo-3214944.jpeg?auto=compress\u0026cs=tinysrgb\u0026fit=crop\u0026h=627\u0026w=1200",
        "tiny": "https://images.pexels.com/photos/3214944/pexels-photo-3214944.jpeg?auto=compress\u0026cs=tinysrgb\u0026dpr=1\u0026fit=crop\u0026h=200\u0026w=280"
      },
      "liked": false
    },
    {
      "id": 1770809,
      "width": 2832,
      "height": 4240,
      "url": "https://www.pexels.com/photo/green-grass-near-trees-1770809/",
      "photographer": "Luis Dalvan",
      "photographer_url": "https://www.pexels.com/@luisdalvan",
      "photographer_id": 811128,
      "avg_color": "#325042",
      "src": {
        "original": "https://images.pexels.com/photos/1770809/pexels-photo-1770809.jpeg",
        "large2x": "https://images.pexels.com/photos/1770809/pexels-photo-1770809.jpeg?auto=compress\u0026cs=tinysrgb\u0026dpr=2\u0026h=650\u0026w=940",
        "large": "https://images.pexels.com/photos/1770809/pexels-photo-1770809.jpeg?auto=compress\u0026cs=tinysrgb\u0026h=650\u0026w=940",
        "medium": "https://images.pexels.com/photos/1770809/pexels-photo-1770809.jpeg?auto=compress\u0026cs=tinysrgb\u0026h=350",
        "small": "https://images.pexels.com/photos/1770809/pexels-photo-1770809.jpeg?auto=compress\u0026cs=tinysrgb\u0026h=130",
        "portrait": "https://images.pexels.com/photos/1770809/pexels-photo-1770809.jpeg?auto=compress\u0026cs=tinysrgb\u0026fit=crop\u0026h=1200\u0026w=800",
        "landscape": "https://images.pexels.com/photos/1770809/pexels-photo-1770809.jpeg?auto=compress\u0026cs=tinysrgb\u0026fit=crop\u0026h=627\u0026w=1200",
        "tiny": "https://images.pexels.com/photos/1770809/pexels-photo-1770809.jpeg?auto=compress\u0026cs=tinysrgb\u0026dpr=1\u0026fit=crop\u0026h=200\u0026w=280"
      },
      "liked": false
    },
    {
      "id": 3225517,
      "width": 4664,
      "height": 5830,
      "url": "https://www.pexels.com/photo/photo-of-stream-during-daytime-3225517/",
      "photographer": "Michael Block",
      "photographer_url": "https://www.pexels.com/@michael-block-1691617",
      "photographer_id": 1691617,
      "avg_color": "#6D7B7C",
      "src": {
        "original": "https://images.pexels.com/photos/3225517/pexels-photo-3225517.jpeg",
        "large2x": "https://images.pexels.com/photos/3225517/pexels-photo-3225517.jpeg?auto=compress\u0026cs=tinysrgb\u0026dpr=2\u0026h=650\u0026w=940",
        "large": "https://images.pexels.com/photos/3225517/pexels-photo-3225517.jpeg?auto=compress\u0026cs=tinysrgb\u0026h=650\u0026w=940",
        "medium": "https://images.pexels.com/photos/3225517/pexels-photo-3225517.jpeg?auto=compress\u0026cs=tinysrgb\u0026h=350",
        "small": "https://images.pexels.com/photos/3225517/pexels-photo-3225517.jpeg?auto=compress\u0026cs=tinysrgb\u0026h=130",
        "portrait": "https://images.pexels.com/photos/3225517/pexels-photo-3225517.jpeg?auto=compress\u0026cs=tinysrgb\u0026fit=crop\u0026h=1200\u0026w=800",
        "landscape": "https://images.pexels.com/photos/3225517/pexels-photo-3225517.jpeg?auto=compress\u0026cs=tinysrgb\u0026fit=crop\u0026h=627\u0026w=1200",
        "tiny": "https://images.pexels.com/photos/3225517/pexels-photo-3225517.jpeg?auto=compress\u0026cs=tinysrgb\u0026dpr=1\u0026fit=crop\u0026h=200\u0026w=280"
      },
      "liked": false
    },
    {
      "id": 2414442,
      "width": 3198,
      "height": 3997,
      "url": "https://www.pexels.com/photo/silhouette-of-tree-under-half-moon-2414442/",
      "photographer": "Adrian Lang",
      "photographer_url": "https://www.pexels.com/@adrianlang",
      "photographer_id": 1266616,
      "avg_color": "#7E4722",
      "src": {
        "original": "https://images.pexels.com/photos/2414442/pexels-photo-2414442.jpeg",
        "large2x": "https://images.pexels.com/photos/2414442/pexels-photo-2414442.jpeg?auto=compress\u0026cs=tinysrgb\u0026dpr=2\u0026h=650\u0026w=940",
        "large": "https://images.pexels.com/photos/2414442/pexels-photo-2414442.jpeg?auto=compress\u0026cs=tinysrgb\u0026h=650\u0026w=940",
        "medium": "https://images.pexels.com/photos/2414442/pexels-photo-2414442.jpeg?auto=compress\u0026cs=tinysrgb\u0026h=350",
        "small": "https://images.pexels.com/photos/2414442/pexels-photo-2414442.jpeg?auto=compress\u0026cs=tinysrgb\u0026h=130",
        "portrait": "https://images.pexels.com/photos/2414442/pexels-photo-2414442.jpeg?auto=compress\u0026cs=tinysrgb\u0026fit=crop\u0026h=1200\u0026w=800",
        "landscape": "https://images.pexels.com/photos/2414442/pexels-photo-2414442.jpeg?auto=compress\u0026cs=tinysrgb\u0026fit=crop\u0026h=627\u0026w=1200",
        "tiny": "https://images.pexels.com/photos/2414442/pexels-photo-2414442.jpeg?auto=compress\u0026cs=tinysrgb\u0026dpr=1\u0026fit=crop\u0026h=200\u0026w=280"
      },
      "liked": false
    },
    {
      "id": 1144687,
      "width": 2936,
      "height": 3916,
      "url": "https://www.pexels.com/photo/green-leafed-trees-1144687/",
      "photographer": "Matheus Bertelli",
      "photographer_url": "https://www.pexels.com/@bertellifotografia",
      "photographer_id": 177895,
      "avg_color": "#192623",
      "src": {
        "original": "https://images.pexels.com/photos/1144687/pexels-photo-1144687.jpeg",
        "large2x": "https://images.pexels.com/photos/1144687/pexels-photo-1144687.jpeg?auto=compress\u0026cs=tinysrgb\u0026dpr=2\u0026h=650\u0026w=940",
        "large": "https://images.pexels.com/photos/1144687/pexels-photo-1144687.jpeg?auto=compress\u0026cs=tinysrgb\u0026h=650\u0026w=940",
        "medium": "https://images.pexels.com/photos/1144687/pexels-photo-1144687.jpeg?auto=compress\u0026cs=tinysrgb\u0026h=350",
        "small": "https://images.pexels.com/photos/1144687/pexels-photo-1144687.jpeg?auto=compress\u0026cs=tinysrgb\u0026h=130",
        "portrait": "https://images.pexels.com/photos/1144687/pexels-photo-1144687.jpeg?auto=compress\u0026cs=tinysrgb\u0026fit=crop\u0026h=1200\u0026w=800",
        "landscape": "https://images.pexels.com/photos/1144687/pexels-photo-1144687.jpeg?auto=compress\u0026cs=tinysrgb\u0026fit=crop\u0026h=627\u0026w=1200",
        "tiny": "https://images.pexels.com/photos/1144687/pexels-photo-1144687.jpeg?auto=compress\u0026cs=tinysrgb\u0026dpr=1\u0026fit=crop\u0026h=200\u0026w=280"
      },
      "liked": false
    },
    {
      "id": 3408744,
      "width": 3546,
      "height": 2255,
      "url": "https://www.pexels.com/photo/scenic-view-of-snow-capped-mountains-during-night-3408744/",
      "photographer": "stein egil liland",
      "photographer_url": "https://www.pexels.com/@therato",
      "photographer_id": 144244,
      "avg_color": "#557088",
      "src": {
        "original": "https://images.pexels.com/photos/3408744/pexels-photo-3408744.jpeg",
        "large2x": "https://images.pexels.com/photos/3408744/pexels-photo-3408744.jpeg?auto=compress\u0026cs=tinysrgb\u0026dpr=2\u0026h=650\u0026w=940",
        "large": "https://images.pexels.com/photos/3408744/pexels-photo-3408744.jpeg?auto=compress\u0026cs=tinysrgb\u0026h=650\u0026w=940",
        "medium": "https://images.pexels.com/photos/3408744/pexels-photo-3408744.jpeg?auto=compress\u0026cs=tinysrgb\u0026h=350",
        "small": "https://images.pexels.com/photos/3408744/pexels-photo-3408744.jpeg?auto=compress\u0026cs=tinysrgb\u0026h=130",
        "portrait": "https://images.pexels.com/photos/3408744/pexels-photo-3408744.jpeg?auto=compress\u0026cs=tinysrgb\u0026fit=crop\u0026h=1200\u0026w=800",
        "landscape": "https://images.pexels.com/photos/3408744/pexels-photo-3408744.jpeg?auto=compress\u0026cs=tinysrgb\u0026fit=crop\u0026h=627\u0026w=1200",
        "tiny": "https://images.pexels.com/photos/3408744/pexels-photo-3408744.jpeg?auto=compress\u0026cs=tinysrgb\u0026dpr=1\u0026fit=crop\u0026h=200\u0026w=280"
      },
      "liked": false
    }
  ],
  "total_results": 8000,
  "next_page":"https://api.pexels.com/v1/search/?page=2\u0026per_page=15\u0026query=nature"
}
