{
  "page": 1,
  "per_page": 15,
  "photos": [
    {
      "id": 2407130,
      "width": 5184,
      "height": 3456,
      "url": "https://www.pexels.com/photo/person-holding-fire-cracker-2407130/",
      "photographer": "Luke Barky",
      "photographer_url": "https://www.pexels.com/@lukebarky",
      "photographer_id": 1263901,
      "avg_color": "#3E484D",
      "src": {
        "original": "https://images.pexels.com/photos/2407130/pexels-photo-2407130.jpeg",
        "large2x": "https://images.pexels.com/photos/2407130/pexels-photo-2407130.jpeg?auto=compress\u0026cs=tinysrgb\u0026dpr=2\u0026h=650\u0026w=940",
        "large": "https://images.pexels.com/photos/2407130/pexels-photo-2407130.jpeg?auto=compress\u0026cs=tinysrgb\u0026h=650\u0026w=940",
        "medium": "https://images.pexels.com/photos/2407130/pexels-photo-2407130.jpeg?auto=compress\u0026cs=tinysrgb\u0026h=350",
        "small": "https://images.pexels.com/photos/2407130/pexels-photo-2407130.jpeg?auto=compress\u0026cs=tinysrgb\u0026h=130",
        "portrait": "https://images.pexels.com/photos/2407130/pexels-photo-2407130.jpeg?auto=compress\u0026cs=tinysrgb\u0026fit=crop\u0026h=1200\u0026w=800",
        "landscape": "https://images.pexels.com/photos/2407130/pexels-photo-2407130.jpeg?auto=compress\u0026cs=tinysrgb\u0026fit=crop\u0026h=627\u0026w=1200",
        "tiny": "https://images.pexels.com/photos/2407130/pexels-photo-2407130.jpeg?auto=compress\u0026cs=tinysrgb\u0026dpr=1\u0026fit=crop\u0026h=200\u0026w=280"
      },
      "liked": false
    },
    {
      "id": 3408744,
      "width": 3546,
      "height": 2255,
      "url": "https://www.pexels.com/photo/scenic-view-of-snow-capped-mountains-during-night-3408744/",
      "photographer": "stein egil liland",
      "photographer_url": "https://www.pexels.com/@therato",
      "photographer_id": 144244,
      "avg_color": "#557088",
      "src": {
        "original": "https://images.pexels.com/photos/3408744/pexels-photo-3408744.jpeg",
        "large2x": "https://images.pexels.com/photos/3408744/pexels-photo-3408744.jpeg?auto=compress\u0026cs=tinysrgb\u0026dpr=2\u0026h=650\u0026w=940",
        "large": "https://images.pexels.com/photos/3408744/pexels-photo-3408744.jpeg?auto=compress\u0026cs=tinysrgb\u0026h=650\u0026w=940",
        "medium": "https://images.pexels.com/photos/3408744/pexels-photo-3408744.jpeg?auto=compress\u0026cs=tinysrgb\u0026h=350",
        "small": "https://images.pexels.com/photos/3408744/pexels-photo-3408744.jpeg?auto=compress\u0026cs=tinysrgb\u0026h=130",
        "portrait": "https://images.pexels.com/photos/3408744/pexels-photo-3408744.jpeg?auto=compress\u0026cs=tinysrgb\u0026fit=crop\u0026h=1200\u0026w=800",
        "landscape": "https://images.pexels.com/photos/3408744/pexels-photo-3408744.jpeg?auto=compress\u0026cs=tinysrgb\u0026fit=crop\u0026h=627\u0026w=1200",
        "tiny": "https://images.pexels.com/photos/3408744/pexels-photo-3408744.jpeg?auto=compress\u0026cs=tinysrgb\u0026dpr=1\u0026fit=crop\u0026h=200\u0026w=280"
      },
      "liked": false
    },
    {
      "id": 2888489,
      "width": 5472,
      "height": 3648,
      "url": "https://www.pexels.com/photo/brown-cabin-photo-during-starry-nighttime-2888489/",
      "photographer": "Jonathan Borba",
      "photographer_url": "https://www.pexels.com/@jonathanborba",
      "photographer_id": 1491594,
      "avg_color": "#322A24",
      "src": {
        "original": "https://images.pexels.com/photos/2888489/pexels-photo-2888489.jpeg",
        "large2x": "https://images.pexels.com/photos/2888489/pexels-photo-2888489.jpeg?auto=compress\u0026cs=tinysrgb\u0026dpr=2\u0026h=650\u0026w=940",
        "large": "https://images.pexels.com/photos/2888489/pexels-photo-2888489.jpeg?auto=compress\u0026cs=tinysrgb\u0026h=650\u0026w=940",
        "medium": "https://images.pexels.com/photos/2888489/pexels-photo-2888489.jpeg?auto=compress\u0026cs=tinysrgb\u0026h=350",
        "small": "https://images.pexels.com/photos/2888489/pexels-photo-2888489.jpeg?auto=compress\u0026cs=tinysrgb\u0026h=130",
        "portrait": "https://images.pexels.com/photos/2888489/pexels-photo-2888489.jpeg?auto=compress\u0026cs=tinysrgb\u0026fit=crop\u0026h=1200\u0026w=800",
        "landscape": "https://images.pexels.com/photos/2888489/pexels-photo-2888489.jpeg?auto=compress\u0026cs=tinysrgb\u0026fit=crop\u0026h=627\u0026w=1200",
        "tiny": "https://images.pexels.com/photos/2888489/pexels-photo-2888489.jpeg?auto=compress\u0026cs=tinysrgb\u0026dpr=1\u0026fit=crop\u0026h=200\u0026w=280"
      },
      "liked": false
    },
    {
      "id": 1693095,
      "width": 2848,
      "height": 3560,
      "url": "https://www.pexels.com/photo/aurora-lights-1693095/",
      "photographer": "Tobias Bjørkli",
      "photographer_url": "https://www.pexels.com/@tobias-bjorkli-706370",
      "photographer_id": 706370,
      "avg_color": "#2E606A",
      "src": {
        "original": "https://images.pexels.com/photos/1693095/pexels-photo-1693095.jpeg",
        "large2x": "https://images.pexels.com/photos/1693095/pexels-photo-1693095.jpeg?auto=compress\u0026cs=tinysrgb\u0026dpr=2\u0026h=650\u0026w=940",
        "large": "https://images.pexels.com/photos/1693095/pexels-photo-1693095.jpeg?auto=compress\u0026cs=tinysrgb\u0026h=650\u0026w=940",
        "medium": "https://images.pexels.com/photos/1693095/pexels-photo-1693095.jpeg?auto=compress\u0026cs=tinysrgb\u0026h=350",
        "small": "https://images.pexels.com/photos/1693095/pexels-photo-1693095.jpeg?auto=compress\u0026cs=tinysrgb\u0026h=130",
        "portrait": "https://images.pexels.com/photos/1693095/pexels-photo-1693095.jpeg?auto=compress\u0026cs=tinysrgb\u0026fit=crop\u0026h=1200\u0026w=800",
        "landscape": "https://images.pexels.com/photos/1693095/pexels-photo-1693095.jpeg?auto=compress\u0026cs=tinysrgb\u0026fit=crop\u0026h=627\u0026w=1200",
        "tiny": "https://images.pexels.com/photos/1693095/pexels-photo-1693095.jpeg?auto=compress\u0026cs=tinysrgb\u0026dpr=1\u0026fit=crop\u0026h=200\u0026w=280"
      },
      "liked": false
    },
    {
      "id": 2376991,
      "width": 3439,
      "height": 5159,
      "url": "https://www.pexels.com/photo/silhouette-of-woman-holding-camera-at-night-2376991/",
      "photographer": "Matheus Bertelli",
      "photographer_url": "https://www.pexels.com/@bertellifotografia",
      "photographer_id": 177895,
      "avg_color": "#321F24",
      "src": {
        "original": "https://images.pexels.com/photos/2376991/pexels-photo-2376991.jpeg",
        "large2x": "https://images.pexels.com/photos/2376991/pexels-photo-2376991.jpeg?auto=compress\u0026cs=tinysrgb\u0026dpr=2\u0026h=650\u0026w=940",
        "large": "https://images.pexels.com/photos/2376991/pexels-photo-2376991.jpeg?auto=compress\u0026cs=tinysrgb\u0026h=650\u0026w=940",
        "medium": "https://images.pexels.com/photos/2376991/pexels-photo-2376991.jpeg?auto=compress\u0026cs=tinysrgb\u0026h=350",
        "small": "https://images.pexels.com/photos/2376991/pexels-photo-2376991.jpeg?auto=compress\u0026cs=tinysrgb\u0026h=130",
        "portrait": "https://images.pexels.com/photos/2376991/pexels-photo-2376991.jpeg?auto=compress\u0026cs=tinysrgb\u0026fit=crop\u0026h=1200\u0026w=800",
        "landscape": "https://images.pexels.com/photos/2376991/pexels-photo-2376991.jpeg?auto=compress\u0026cs=tinysrgb\u0026fit=crop\u0026h=627\u0026w=1200",
        "tiny": "https://images.pexels.com/photos/2376991/pexels-photo-2376991.jpeg?auto=compress\u0026cs=tinysrgb\u0026dpr=1\u0026fit=crop\u0026h=200\u0026w=280"
      },
      "liked": false
    },
    {
      "id": 2669601,
      "width": 5000,
      "height": 4000,
      "url": "https://www.pexels.com/photo/close-up-photography-of-smiling-woman-2669601/",
      "photographer": "Max Andrey",
      "photographer_url": "https://www.pexels.com/@maxandrey",
      "photographer_id": 372897,
      "avg_color": "#52637A",
      "src": {
        "original": "https://images.pexels.com/photos/2669601/pexels-photo-2669601.jpeg",
        "large2x": "https://images.pexels.com/photos/2669601/pexels-photo-2669601.jpeg?auto=compress\u0026cs=tinysrgb\u0026dpr=2\u0026h=650\u0026w=940",
        "large": "https://images.pexels.com/photos/2669601/pexels-photo-2669601.jpeg?auto=compress\u0026cs=tinysrgb\u0026h=650\u0026w=940",
        "medium": "https://images.pexels.com/photos/2669601/pexels-photo-2669601.jpeg?auto=compress\u0026cs=tinysrgb\u0026h=350",
        "small": "https://images.pexels.com/photos/2669601/pexels-photo-2669601.jpeg?auto=compress\u0026cs=tinysrgb\u0026h=130",
        "portrait": "https://images.pexels.com/photos/2669601/pexels-photo-2669601.jpeg?auto=compress\u0026cs=tinysrgb\u0026fit=crop\u0026h=1200\u0026w=800",
        "landscape": "https://images.pexels.com/photos/2669601/pexels-photo-2669601.jpeg?auto=compress\u0026cs=tinysrgb\u0026fit=crop\u0026h=627\u0026w=1200",
        "tiny": "https://images.pexels.com/photos/2669601/pexels-photo-2669601.jpeg?auto=compress\u0026cs=tinysrgb\u0026dpr=1\u0026fit=crop\u0026h=200\u0026w=280"
      },
      "liked": false
    },
    {
      "id": 1428277,
      "width": 3648,
      "height": 2432,
      "url": "https://www.pexels.com/photo/snow-covered-mountain-1428277/",
      "photographer": "eberhard grossgasteiger",
      "photographer_url": "https://www.pexels.com/@eberhardgross",
      "photographer_id": 121938,
      "avg_color": "#393939",
      "src": {
        "original": "https://images.pexels.com/photos/1428277/pexels-photo-1428277.jpeg",
        "large2x": "https://images.pexels.com/photos/1428277/pexels-photo-1428277.jpeg?auto=compress\u0026cs=tinysrgb\u0026dpr=2\u0026h=650\u0026w=940",
        "large": "https://images.pexels.com/photos/1428277/pexels-photo-1428277.jpeg?auto=compress\u0026cs=tinysrgb\u0026h=650\u0026w=940",
        "medium": "https://images.pexels.com/photos/1428277/pexels-photo-1428277.jpeg?auto=compress\u0026cs=tinysrgb\u0026h=350",
        "small": "https://images.pexels.com/photos/1428277/pexels-photo-1428277.jpeg?auto=compress\u0026cs=tinysrgb\u0026h=130",
        "portrait": "https://images.pexels.com/photos/1428277/pexels-photo-1428277.jpeg?auto=compress\u0026cs=tinysrgb\u0026fit=crop\u0026h=1200\u0026w=800",
        "landscape": "https://images.pexels.com/photos/1428277/pexels-photo-1428277.jpeg?auto=compress\u0026cs=tinysrgb\u0026fit=crop\u0026h=627\u0026w=1200",
        "tiny": "https://images.pexels.com/photos/1428277/pexels-photo-1428277.jpeg?auto=compress\u0026cs=tinysrgb\u0026dpr=1\u0026fit=crop\u0026h=200\u0026w=280"
      },
      "liked": false
    },
    {
      "id": 2385210,
      "width": 4480,
      "height": 6720,
      "url": "https://www.pexels.com/photo/people-walking-on-the-street-between-buildings-2385210/",
      "photographer": "Aleksandar Pasaric",
      "photographer_url": "https://www.pexels.com/@apasaric",
      "photographer_id": 105079,
      "avg_color": "#3E323B",
      "src": {
        "original": "https://images.pexels.com/photos/2385210/pexels-photo-2385210.jpeg",
        "large2x": "https://images.pexels.com/photos/2385210/pexels-photo-2385210.jpeg?auto=compress\u0026cs=tinysrgb\u0026dpr=2\u0026h=650\u0026w=940",
        "large": "https://images.pexels.com/photos/2385210/pexels-photo-2385210.jpeg?auto=compress\u0026cs=tinysrgb\u0026h=650\u0026w=940",
        "medium": "https://images.pexels.com/photos/2385210/pexels-photo-2385210.jpeg?auto=compress\u0026cs=tinysrgb\u0026h=350",
        "small": "https://images.pexels.com/photos/2385210/pexels-photo-2385210.jpeg?auto=compress\u0026cs=tinysrgb\u0026h=130",
        "portrait": "https://images.pexels.com/photos/2385210/pexels-photo-2385210.jpeg?auto=compress\u0026cs=tinysrgb\u0026fit=crop\u0026h=1200\u0026w=800",
        "landscape": "https://images.pexels.com/photos/2385210/pexels-photo-2385210.jpeg?auto=compress\u0026cs=tinysrgb\u0026fit=crop\u0026h=627\u0026w=1200",
        "tiny": "https://images.pexels.com/photos/2385210/pexels-photo-2385210.jpeg?auto=compress\u0026cs=tinysrgb\u0026dpr=1\u0026fit=crop\u0026h=200\u0026w=280"
      },
      "liked": false
    },
    {
      "id": 3022003,
      "width": 4000,
      "height": 6000,
      "url": "https://www.pexels.com/photo/light-streaks-3022003/",
      "photographer": "Lisa Fotios",
      "photographer_url": "https://www.pexels.com/@fotios-photos",
      "photographer_id": 26735,
      "avg_color": "#141C15",
      "src": {
        "original": "https://images.pexels.com/photos/3022003/pexels-photo-3022003.jpeg",
        "large2x": "https://images.pexels.com/photos/3022003/pexels-photo-3022003.jpeg?auto=compress\u0026cs=tinysrgb\u0026dpr=2\u0026h=650\u0026w=940",
        "large": "https://images.pexels.com/photos/3022003/pexels-photo-3022003.jpeg?auto=compress\u0026cs=tinysrgb\u0026h=650\u0026w=940",
        "medium": "https://images.pexels.com/photos/3022003/pexels-photo-3022003.jpeg?auto=compress\u0026cs=tinysrgb\u0026h=350",
        "small": "https://images.pexels.com/photos/3022003/pexels-photo-3022003.jpeg?auto=compress\u0026cs=tinysrgb\u0026h=130",
        "portrait": "https://images.pexels.com/photos/3022003/pexels-photo-3022003.jpeg?auto=compress\u0026cs=tinysrgb\u0026fit=crop\u0026h=1200\u0026w=800",
        "landscape": "https://images.pexels.com/photos/3022003/pexels-photo-3022003.jpeg?auto=compress\u0026cs=tinysrgb\u0026fit=crop\u0026h=627\u0026w=1200",
        "tiny": "https://images.pexels.com/photos/3022003/pexels-photo-3022003.jpeg?auto=compress\u0026cs=tinysrgb\u0026dpr=1\u0026fit=crop\u0026h=200\u0026w=280"
      },
      "liked": false
    },
    {
      "id": 3698910,
      "width": 5184,
      "height": 3456,
      "url": "https://www.pexels.com/photo/bare-tree-under-the-night-blue-sky-3698910/",
      "photographer": "garvit  jagga",
      "photographer_url": "https://www.pexels.com/@garvit-jagga-443224",
      "photographer_id": 443224,
      "avg_color": "#162F42",
      "src": {
        "original": "https://images.pexels.com/photos/3698910/pexels-photo-3698910.jpeg",
        "large2x": "https://images.pexels.com/photos/3698910/pexels-photo-3698910.jpeg?auto=compress\u0026cs=tinysrgb\u0026dpr=2\u0026h=650\u0026w=940",
        "large": "https://images.pexels.com/photos/3698910/pexels-photo-3698910.jpeg?auto=compress\u0026cs=tinysrgb\u0026h=650\u0026w=940",
        "medium": "https://images.pexels.com/photos/3698910/pexels-photo-3698910.jpeg?auto=compress\u0026cs=tinysrgb\u0026h=350",
        "small": "https://images.pexels.com/photos/3698910/pexels-photo-3698910.jpeg?auto=compress\u0026cs=tinysrgb\u0026h=130",
        "portrait": "https://images.pexels.com/photos/3698910/pexels-photo-3698910.jpeg?auto=compress\u0026cs=tinysrgb\u0026fit=crop\u0026h=1200\u0026w=800",
        "landscape": "https://images.pexels.com/photos/3698910/pexels-photo-3698910.jpeg?auto=compress\u0026cs=tinysrgb\u0026fit=crop\u0026h=627\u0026w=1200",
        "tiny": "https://images.pexels.com/photos/3698910/pexels-photo-3698910.jpeg?auto=compress\u0026cs=tinysrgb\u0026dpr=1\u0026fit=crop\u0026h=200\u0026w=280"
      },
      "liked": false
    },
    {
      "id": 3342739,
      "width": 6720,
      "height": 4480,
      "url": "https://www.pexels.com/photo/nothin-to-see-here-neon-sign-3342739/",
      "photographer": "Aleksandar Pasaric",
      "photographer_url": "https://www.pexels.com/@apasaric",
      "photographer_id": 105079,
      "avg_color": "#2C613",
      "src": {
        "original": "https://images.pexels.com/photos/3342739/pexels-photo-3342739.jpeg",
        "large2x": "https://images.pexels.com/photos/3342739/pexels-photo-3342739.jpeg?auto=compress\u0026cs=tinysrgb\u0026dpr=2\u0026h=650\u0026w=940",
        "large": "https://images.pexels.com/photos/3342739/pexels-photo-3342739.jpeg?auto=compress\u0026cs=tinysrgb\u0026h=650\u0026w=940",
        "medium": "https://images.pexels.com/photos/3342739/pexels-photo-3342739.jpeg?auto=compress\u0026cs=tinysrgb\u0026h=350",
        "small": "https://images.pexels.com/photos/3342739/pexels-photo-3342739.jpeg?auto=compress\u0026cs=tinysrgb\u0026h=130",
        "portrait": "https://images.pexels.com/photos/3342739/pexels-photo-3342739.jpeg?auto=compress\u0026cs=tinysrgb\u0026fit=crop\u0026h=1200\u0026w=800",
        "landscape": "https://images.pexels.com/photos/3342739/pexels-photo-3342739.jpeg?auto=compress\u0026cs=tinysrgb\u0026fit=crop\u0026h=627\u0026w=1200",
        "tiny": "https://images.pexels.com/photos/3342739/pexels-photo-3342739.jpeg?auto=compress\u0026cs=tinysrgb\u0026dpr=1\u0026fit=crop\u0026h=200\u0026w=280"
      },
      "liked": false
    },
    {
      "id": 2129796,
      "width": 3456,
      "height": 5184,
      "url": "https://www.pexels.com/photo/building-photography-2129796/",
      "photographer": "David Skyrius",
      "photographer_url": "https://www.pexels.com/@wikispikis",
      "photographer_id": 2243,
      "avg_color": "#111F23",
      "src": {
        "original": "https://images.pexels.com/photos/2129796/pexels-photo-2129796.png",
        "large2x": "https://images.pexels.com/photos/2129796/pexels-photo-2129796.png?auto=compress\u0026cs=tinysrgb\u0026dpr=2\u0026h=650\u0026w=940",
        "large": "https://images.pexels.com/photos/2129796/pexels-photo-2129796.png?auto=compress\u0026cs=tinysrgb\u0026h=650\u0026w=940",
        "medium": "https://images.pexels.com/photos/2129796/pexels-photo-2129796.png?auto=compress\u0026cs=tinysrgb\u0026h=350",
        "small": "https://images.pexels.com/photos/2129796/pexels-photo-2129796.png?auto=compress\u0026cs=tinysrgb\u0026h=130",
        "portrait": "https://images.pexels.com/photos/2129796/pexels-photo-2129796.png?auto=compress\u0026cs=tinysrgb\u0026fit=crop\u0026h=1200\u0026w=800",
        "landscape": "https://images.pexels.com/photos/2129796/pexels-photo-2129796.png?auto=compress\u0026cs=tinysrgb\u0026fit=crop\u0026h=627\u0026w=1200",
        "tiny": "https://images.pexels.com/photos/2129796/pexels-photo-2129796.png?auto=compress\u0026cs=tinysrgb\u0026dpr=1\u0026fit=crop\u0026h=200\u0026w=280"
      },
      "liked": false
    },
    {
      "id": 3667981,
      "width": 4800,
      "height": 6000,
      "url": "https://www.pexels.com/photo/silhouette-of-person-standing-on-road-during-night-time-3667981/",
      "photographer": "KEHN HERMANO",
      "photographer_url": "https://www.pexels.com/@brotherkehn",
      "photographer_id": 1963377,
      "avg_color": "#43372E",
      "src": {
        "original": "https://images.pexels.com/photos/3667981/pexels-photo-3667981.jpeg",
        "large2x": "https://images.pexels.com/photos/3667981/pexels-photo-3667981.jpeg?auto=compress\u0026cs=tinysrgb\u0026dpr=2\u0026h=650\u0026w=940",
        "large": "https://images.pexels.com/photos/3667981/pexels-photo-3667981.jpeg?auto=compress\u0026cs=tinysrgb\u0026h=650\u0026w=940",
        "medium": "https://images.pexels.com/photos/3667981/pexels-photo-3667981.jpeg?auto=compress\u0026cs=tinysrgb\u0026h=350",
        "small": "https://images.pexels.com/photos/3667981/pexels-photo-3667981.jpeg?auto=compress\u0026cs=tinysrgb\u0026h=130",
        "portrait": "https://images.pexels.com/photos/3667981/pexels-photo-3667981.jpeg?auto=compress\u0026cs=tinysrgb\u0026fit=crop\u0026h=1200\u0026w=800",
        "landscape": "https://images.pexels.com/photos/3667981/pexels-photo-3667981.jpeg?auto=compress\u0026cs=tinysrgb\u0026fit=crop\u0026h=627\u0026w=1200",
        "tiny": "https://images.pexels.com/photos/3667981/pexels-photo-3667981.jpeg?auto=compress\u0026cs=tinysrgb\u0026dpr=1\u0026fit=crop\u0026h=200\u0026w=280"
      },
      "liked": false
    },
    {
      "id": 3052361,
      "width": 3843,
      "height": 5790,
      "url": "https://www.pexels.com/photo/skyline-photography-of-buildings-3052361/",
      "photographer": "Sanaan Mazhar",
      "photographer_url": "https://www.pexels.com/@sanaan",
      "photographer_id": 1193942,
      "avg_color": "#141F21",
      "src": {
        "original": "https://images.pexels.com/photos/3052361/pexels-photo-3052361.jpeg",
        "large2x": "https://images.pexels.com/photos/3052361/pexels-photo-3052361.jpeg?auto=compress\u0026cs=tinysrgb\u0026dpr=2\u0026h=650\u0026w=940",
        "large": "https://images.pexels.com/photos/3052361/pexels-photo-3052361.jpeg?auto=compress\u0026cs=tinysrgb\u0026h=650\u0026w=940",
        "medium": "https://images.pexels.com/photos/3052361/pexels-photo-3052361.jpeg?auto=compress\u0026cs=tinysrgb\u0026h=350",
        "small": "https://images.pexels.com/photos/3052361/pexels-photo-3052361.jpeg?auto=compress\u0026cs=tinysrgb\u0026h=130",
        "portrait": "https://images.pexels.com/photos/3052361/pexels-photo-3052361.jpeg?auto=compress\u0026cs=tinysrgb\u0026fit=crop\u0026h=1200\u0026w=800",
        "landscape": "https://images.pexels.com/photos/3052361/pexels-photo-3052361.jpeg?auto=compress\u0026cs=tinysrgb\u0026fit=crop\u0026h=627\u0026w=1200",
        "tiny": "https://images.pexels.com/photos/3052361/pexels-photo-3052361.jpeg?auto=compress\u0026cs=tinysrgb\u0026dpr=1\u0026fit=crop\u0026h=200\u0026w=280"
      },
      "liked": false
    },
    {
      "id": 1207732,
      "width": 4000,
      "height": 6000,
      "url": "https://www.pexels.com/photo/selective-focus-photography-person-holding-lighted-sparkler-at-nighttime-1207732/",
      "photographer": "Max Andrey",
      "photographer_url": "https://www.pexels.com/@maxandrey",
      "photographer_id": 372897,
      "avg_color": "#1A1112",
      "src": {
        "original": "https://images.pexels.com/photos/1207732/pexels-photo-1207732.jpeg",
        "large2x": "https://images.pexels.com/photos/1207732/pexels-photo-1207732.jpeg?auto=compress\u0026cs=tinysrgb\u0026dpr=2\u0026h=650\u0026w=940",
        "large": "https://images.pexels.com/photos/1207732/pexels-photo-1207732.jpeg?auto=compress\u0026cs=tinysrgb\u0026h=650\u0026w=940",
        "medium": "https://images.pexels.com/photos/1207732/pexels-photo-1207732.jpeg?auto=compress\u0026cs=tinysrgb\u0026h=350",
        "small": "https://images.pexels.com/photos/1207732/pexels-photo-1207732.jpeg?auto=compress\u0026cs=tinysrgb\u0026h=130",
        "portrait": "https://images.pexels.com/photos/1207732/pexels-photo-1207732.jpeg?auto=compress\u0026cs=tinysrgb\u0026fit=crop\u0026h=1200\u0026w=800",
        "landscape": "https://images.pexels.com/photos/1207732/pexels-photo-1207732.jpeg?auto=compress\u0026cs=tinysrgb\u0026fit=crop\u0026h=627\u0026w=1200",
        "tiny": "https://images.pexels.com/photos/1207732/pexels-photo-1207732.jpeg?auto=compress\u0026cs=tinysrgb\u0026dpr=1\u0026fit=crop\u0026h=200\u0026w=280"
      },
      "liked": false
    }
  ],
  "total_results": 8000,
  "next_page": "https://api.pexels.com/v1/search/?page=2\u0026per_page=15\u0026query=night"
}
