{
  "page": 1,
  "per_page": 15,
  "photos": [
    {
      "id": 6354279,
      "width": 4160,
      "height": 6240,
      "url": "https://www.pexels.com/photo/person-putting-finger-in-half-of-exotic-grapefruit-6354279/",
      "photographer": "Anete Lusina",
      "photographer_url": "https://www.pexels.com/@anete-lusina",
      "photographer_id": 2202476,
      "avg_color": "#866C5C",
      "src": {
        "original": "https://images.pexels.com/photos/6354279/pexels-photo-6354279.jpeg",
        "large2x": "https://images.pexels.com/photos/6354279/pexels-photo-6354279.jpeg?auto=compress\u0026cs=tinysrgb\u0026dpr=2\u0026h=650\u0026w=940",
        "large": "https://images.pexels.com/photos/6354279/pexels-photo-6354279.jpeg?auto=compress\u0026cs=tinysrgb\u0026h=650\u0026w=940",
        "medium": "https://images.pexels.com/photos/6354279/pexels-photo-6354279.jpeg?auto=compress\u0026cs=tinysrgb\u0026h=350",
        "small": "https://images.pexels.com/photos/6354279/pexels-photo-6354279.jpeg?auto=compress\u0026cs=tinysrgb\u0026h=130",
        "portrait": "https://images.pexels.com/photos/6354279/pexels-photo-6354279.jpeg?auto=compress\u0026cs=tinysrgb\u0026fit=crop\u0026h=1200\u0026w=800",
        "landscape": "https://images.pexels.com/photos/6354279/pexels-photo-6354279.jpeg?auto=compress\u0026cs=tinysrgb\u0026fit=crop\u0026h=627\u0026w=1200",
        "tiny": "https://images.pexels.com/photos/6354279/pexels-photo-6354279.jpeg?auto=compress\u0026cs=tinysrgb\u0026dpr=1\u0026fit=crop\u0026h=200\u0026w=280"
      },
      "liked": false
    },
    {
      "id": 4997806,
      "width": 3648,
      "height": 5472,
      "url": "https://www.pexels.com/photo/crop-person-with-bunches-of-dried-lavender-at-table-4997806/",
      "photographer": "Rachel Claire",
      "photographer_url": "https://www.pexels.com/@rachel-claire",
      "photographer_id": 2272619,
      "avg_color": "#384143",
      "src": {
        "original": "https://images.pexels.com/photos/4997806/pexels-photo-4997806.jpeg",
        "large2x": "https://images.pexels.com/photos/4997806/pexels-photo-4997806.jpeg?auto=compress\u0026cs=tinysrgb\u0026dpr=2\u0026h=650\u0026w=940",
        "large": "https://images.pexels.com/photos/4997806/pexels-photo-4997806.jpeg?auto=compress\u0026cs=tinysrgb\u0026h=650\u0026w=940",
        "medium": "https://images.pexels.com/photos/4997806/pexels-photo-4997806.jpeg?auto=compress\u0026cs=tinysrgb\u0026h=350",
        "small": "https://images.pexels.com/photos/4997806/pexels-photo-4997806.jpeg?auto=compress\u0026cs=tinysrgb\u0026h=130",
        "portrait": "https://images.pexels.com/photos/4997806/pexels-photo-4997806.jpeg?auto=compress\u0026cs=tinysrgb\u0026fit=crop\u0026h=1200\u0026w=800",
        "landscape": "https://images.pexels.com/photos/4997806/pexels-photo-4997806.jpeg?auto=compress\u0026cs=tinysrgb\u0026fit=crop\u0026h=627\u0026w=1200",
        "tiny": "https://images.pexels.com/photos/4997806/pexels-photo-4997806.jpeg?auto=compress\u0026cs=tinysrgb\u0026dpr=1\u0026fit=crop\u0026h=200\u0026w=280"
      },
      "liked": false
    },
    {
      "id": 6520062,
      "width": 6640,
      "height": 4427,
      "url": "https://www.pexels.com/photo/paramedics-pushing-a-stretcher-6520062/",
      "photographer": "RODNAE Productions",
      "photographer_url": "https://www.pexels.com/@rodnae-prod",
      "photographer_id": 3149039,
      "avg_color": "#606669",
      "src": {
        "original": "https://images.pexels.com/photos/6520062/pexels-photo-6520062.jpeg",
        "large2x": "https://images.pexels.com/photos/6520062/pexels-photo-6520062.jpeg?auto=compress\u0026cs=tinysrgb\u0026dpr=2\u0026h=650\u0026w=940",
        "large": "https://images.pexels.com/photos/6520062/pexels-photo-6520062.jpeg?auto=compress\u0026cs=tinysrgb\u0026h=650\u0026w=940",
        "medium": "https://images.pexels.com/photos/6520062/pexels-photo-6520062.jpeg?auto=compress\u0026cs=tinysrgb\u0026h=350",
        "small": "https://images.pexels.com/photos/6520062/pexels-photo-6520062.jpeg?auto=compress\u0026cs=tinysrgb\u0026h=130",
        "portrait": "https://images.pexels.com/photos/6520062/pexels-photo-6520062.jpeg?auto=compress\u0026cs=tinysrgb\u0026fit=crop\u0026h=1200\u0026w=800",
        "landscape": "https://images.pexels.com/photos/6520062/pexels-photo-6520062.jpeg?auto=compress\u0026cs=tinysrgb\u0026fit=crop\u0026h=627\u0026w=1200",
        "tiny": "https://images.pexels.com/photos/6520062/pexels-photo-6520062.jpeg?auto=compress\u0026cs=tinysrgb\u0026dpr=1\u0026fit=crop\u0026h=200\u0026w=280"
      },
      "liked": false
    },
    {
      "id": 6520073,
      "width": 6393,
      "height": 4262,
      "url": "https://www.pexels.com/photo/paramedic-helping-a-man-6520073/",
      "photographer": "RODNAE Productions",
      "photographer_url": "https://www.pexels.com/@rodnae-prod",
      "photographer_id": 3149039,
      "avg_color": "#314859",
      "src": {
        "original": "https://images.pexels.com/photos/6520073/pexels-photo-6520073.jpeg",
        "large2x": "https://images.pexels.com/photos/6520073/pexels-photo-6520073.jpeg?auto=compress\u0026cs=tinysrgb\u0026dpr=2\u0026h=650\u0026w=940",
        "large": "https://images.pexels.com/photos/6520073/pexels-photo-6520073.jpeg?auto=compress\u0026cs=tinysrgb\u0026h=650\u0026w=940",
        "medium": "https://images.pexels.com/photos/6520073/pexels-photo-6520073.jpeg?auto=compress\u0026cs=tinysrgb\u0026h=350",
        "small": "https://images.pexels.com/photos/6520073/pexels-photo-6520073.jpeg?auto=compress\u0026cs=tinysrgb\u0026h=130",
        "portrait": "https://images.pexels.com/photos/6520073/pexels-photo-6520073.jpeg?auto=compress\u0026cs=tinysrgb\u0026fit=crop\u0026h=1200\u0026w=800",
        "landscape": "https://images.pexels.com/photos/6520073/pexels-photo-6520073.jpeg?auto=compress\u0026cs=tinysrgb\u0026fit=crop\u0026h=627\u0026w=1200",
        "tiny": "https://images.pexels.com/photos/6520073/pexels-photo-6520073.jpeg?auto=compress\u0026cs=tinysrgb\u0026dpr=1\u0026fit=crop\u0026h=200\u0026w=280"
      },
      "liked": false
    },
    {
      "id": 7148408,
      "width": 5092,
      "height": 2868,
      "url": "https://www.pexels.com/photo/three-women-bursting-out-laughing-7148408/",
      "photographer": "Kindel Media",
      "photographer_url": "https://www.pexels.com/@kindelmedia",
      "photographer_id": 10715715,
      "avg_color": "#675A56",
      "src": {
        "original": "https://images.pexels.com/photos/7148408/pexels-photo-7148408.jpeg",
        "large2x": "https://images.pexels.com/photos/7148408/pexels-photo-7148408.jpeg?auto=compress\u0026cs=tinysrgb\u0026dpr=2\u0026h=650\u0026w=940",
        "large": "https://images.pexels.com/photos/7148408/pexels-photo-7148408.jpeg?auto=compress\u0026cs=tinysrgb\u0026h=650\u0026w=940",
        "medium": "https://images.pexels.com/photos/7148408/pexels-photo-7148408.jpeg?auto=compress\u0026cs=tinysrgb\u0026h=350",
        "small": "https://images.pexels.com/photos/7148408/pexels-photo-7148408.jpeg?auto=compress\u0026cs=tinysrgb\u0026h=130",
        "portrait": "https://images.pexels.com/photos/7148408/pexels-photo-7148408.jpeg?auto=compress\u0026cs=tinysrgb\u0026fit=crop\u0026h=1200\u0026w=800",
        "landscape": "https://images.pexels.com/photos/7148408/pexels-photo-7148408.jpeg?auto=compress\u0026cs=tinysrgb\u0026fit=crop\u0026h=627\u0026w=1200",
        "tiny": "https://images.pexels.com/photos/7148408/pexels-photo-7148408.jpeg?auto=compress\u0026cs=tinysrgb\u0026dpr=1\u0026fit=crop\u0026h=200\u0026w=280"
      },
      "liked": false
    },
    {
      "id": 6287544,
      "width": 3360,
      "height": 5040,
      "url": "https://www.pexels.com/photo/person-eating-spaghetti-bolognese-pasta-6287544/",
      "photographer": "Klaus Nielsen",
      "photographer_url": "https://www.pexels.com/@klaus-nielsen",
      "photographer_id": 6928139,
      "avg_color": "#B69059",
      "src": {
        "original": "https://images.pexels.com/photos/6287544/pexels-photo-6287544.jpeg",
        "large2x": "https://images.pexels.com/photos/6287544/pexels-photo-6287544.jpeg?auto=compress\u0026cs=tinysrgb\u0026dpr=2\u0026h=650\u0026w=940",
        "large": "https://images.pexels.com/photos/6287544/pexels-photo-6287544.jpeg?auto=compress\u0026cs=tinysrgb\u0026h=650\u0026w=940",
        "medium": "https://images.pexels.com/photos/6287544/pexels-photo-6287544.jpeg?auto=compress\u0026cs=tinysrgb\u0026h=350",
        "small": "https://images.pexels.com/photos/6287544/pexels-photo-6287544.jpeg?auto=compress\u0026cs=tinysrgb\u0026h=130",
        "portrait": "https://images.pexels.com/photos/6287544/pexels-photo-6287544.jpeg?auto=compress\u0026cs=tinysrgb\u0026fit=crop\u0026h=1200\u0026w=800",
        "landscape": "https://images.pexels.com/photos/6287544/pexels-photo-6287544.jpeg?auto=compress\u0026cs=tinysrgb\u0026fit=crop\u0026h=627\u0026w=1200",
        "tiny": "https://images.pexels.com/photos/6287544/pexels-photo-6287544.jpeg?auto=compress\u0026cs=tinysrgb\u0026dpr=1\u0026fit=crop\u0026h=200\u0026w=280"
      },
      "liked": false
    },
    {
      "id": 6287518,
      "width": 2799,
      "height": 4236,
      "url": "https://www.pexels.com/photo/crop-unrecognizable-chef-grating-cheese-on-spaghetti-served-on-plate-6287518/",
      "photographer": "Klaus Nielsen",
      "photographer_url": "https://www.pexels.com/@klaus-nielsen",
      "photographer_id": 6928139,
      "avg_color": "#817362",
      "src": {
        "original": "https://images.pexels.com/photos/6287518/pexels-photo-6287518.jpeg",
        "large2x": "https://images.pexels.com/photos/6287518/pexels-photo-6287518.jpeg?auto=compress\u0026cs=tinysrgb\u0026dpr=2\u0026h=650\u0026w=940",
        "large": "https://images.pexels.com/photos/6287518/pexels-photo-6287518.jpeg?auto=compress\u0026cs=tinysrgb\u0026h=650\u0026w=940",
        "medium": "https://images.pexels.com/photos/6287518/pexels-photo-6287518.jpeg?auto=compress\u0026cs=tinysrgb\u0026h=350",
        "small": "https://images.pexels.com/photos/6287518/pexels-photo-6287518.jpeg?auto=compress\u0026cs=tinysrgb\u0026h=130",
        "portrait": "https://images.pexels.com/photos/6287518/pexels-photo-6287518.jpeg?auto=compress\u0026cs=tinysrgb\u0026fit=crop\u0026h=1200\u0026w=800",
        "landscape": "https://images.pexels.com/photos/6287518/pexels-photo-6287518.jpeg?auto=compress\u0026cs=tinysrgb\u0026fit=crop\u0026h=627\u0026w=1200",
        "tiny": "https://images.pexels.com/photos/6287518/pexels-photo-6287518.jpeg?auto=compress\u0026cs=tinysrgb\u0026dpr=1\u0026fit=crop\u0026h=200\u0026w=280"
      },
      "liked": false
    },
    {
      "id": 6520050,
      "width": 4443,
      "height": 6664,
      "url": "https://www.pexels.com/photo/paramedics-helping-a-man-on-a-stretcher-6520050/",
      "photographer": "RODNAE Productions",
      "photographer_url": "https://www.pexels.com/@rodnae-prod",
      "photographer_id": 3149039,
      "avg_color": "#5C7078",
      "src": {
        "original": "https://images.pexels.com/photos/6520050/pexels-photo-6520050.jpeg",
        "large2x": "https://images.pexels.com/photos/6520050/pexels-photo-6520050.jpeg?auto=compress\u0026cs=tinysrgb\u0026dpr=2\u0026h=650\u0026w=940",
        "large": "https://images.pexels.com/photos/6520050/pexels-photo-6520050.jpeg?auto=compress\u0026cs=tinysrgb\u0026h=650\u0026w=940",
        "medium": "https://images.pexels.com/photos/6520050/pexels-photo-6520050.jpeg?auto=compress\u0026cs=tinysrgb\u0026h=350",
        "small": "https://images.pexels.com/photos/6520050/pexels-photo-6520050.jpeg?auto=compress\u0026cs=tinysrgb\u0026h=130",
        "portrait": "https://images.pexels.com/photos/6520050/pexels-photo-6520050.jpeg?auto=compress\u0026cs=tinysrgb\u0026fit=crop\u0026h=1200\u0026w=800",
        "landscape": "https://images.pexels.com/photos/6520050/pexels-photo-6520050.jpeg?auto=compress\u0026cs=tinysrgb\u0026fit=crop\u0026h=627\u0026w=1200",
        "tiny": "https://images.pexels.com/photos/6520050/pexels-photo-6520050.jpeg?auto=compress\u0026cs=tinysrgb\u0026dpr=1\u0026fit=crop\u0026h=200\u0026w=280"
      },
      "liked": false
    },
    {
      "id": 4557831,
      "width": 3251,
      "height": 4876,
      "url": "https://www.pexels.com/photo/womans-faces-in-close-up-4557831/",
      "photographer": "Anna Shvets",
      "photographer_url": "https://www.pexels.com/@shvetsa",
      "photographer_id": 1984515,
      "avg_color": "#896F63",
      "src": {
        "original": "https://images.pexels.com/photos/4557831/pexels-photo-4557831.jpeg",
        "large2x": "https://images.pexels.com/photos/4557831/pexels-photo-4557831.jpeg?auto=compress\u0026cs=tinysrgb\u0026dpr=2\u0026h=650\u0026w=940",
        "large": "https://images.pexels.com/photos/4557831/pexels-photo-4557831.jpeg?auto=compress\u0026cs=tinysrgb\u0026h=650\u0026w=940",
        "medium": "https://images.pexels.com/photos/4557831/pexels-photo-4557831.jpeg?auto=compress\u0026cs=tinysrgb\u0026h=350",
        "small": "https://images.pexels.com/photos/4557831/pexels-photo-4557831.jpeg?auto=compress\u0026cs=tinysrgb\u0026h=130",
        "portrait": "https://images.pexels.com/photos/4557831/pexels-photo-4557831.jpeg?auto=compress\u0026cs=tinysrgb\u0026fit=crop\u0026h=1200\u0026w=800",
        "landscape": "https://images.pexels.com/photos/4557831/pexels-photo-4557831.jpeg?auto=compress\u0026cs=tinysrgb\u0026fit=crop\u0026h=627\u0026w=1200",
        "tiny": "https://images.pexels.com/photos/4557831/pexels-photo-4557831.jpeg?auto=compress\u0026cs=tinysrgb\u0026dpr=1\u0026fit=crop\u0026h=200\u0026w=280"
      },
      "liked": false
    },
    {
      "id": 6520080,
      "width": 4194,
      "height": 6291,
      "url": "https://www.pexels.com/photo/man-lying-on-a-stretcher-6520080/",
      "photographer": "RODNAE Productions",
      "photographer_url": "https://www.pexels.com/@rodnae-prod",
      "photographer_id": 3149039,
      "avg_color": "#566B7A",
      "src": {
        "original": "https://images.pexels.com/photos/6520080/pexels-photo-6520080.jpeg",
        "large2x": "https://images.pexels.com/photos/6520080/pexels-photo-6520080.jpeg?auto=compress\u0026cs=tinysrgb\u0026dpr=2\u0026h=650\u0026w=940",
        "large": "https://images.pexels.com/photos/6520080/pexels-photo-6520080.jpeg?auto=compress\u0026cs=tinysrgb\u0026h=650\u0026w=940",
        "medium": "https://images.pexels.com/photos/6520080/pexels-photo-6520080.jpeg?auto=compress\u0026cs=tinysrgb\u0026h=350",
        "small": "https://images.pexels.com/photos/6520080/pexels-photo-6520080.jpeg?auto=compress\u0026cs=tinysrgb\u0026h=130",
        "portrait": "https://images.pexels.com/photos/6520080/pexels-photo-6520080.jpeg?auto=compress\u0026cs=tinysrgb\u0026fit=crop\u0026h=1200\u0026w=800",
        "landscape": "https://images.pexels.com/photos/6520080/pexels-photo-6520080.jpeg?auto=compress\u0026cs=tinysrgb\u0026fit=crop\u0026h=627\u0026w=1200",
        "tiny": "https://images.pexels.com/photos/6520080/pexels-photo-6520080.jpeg?auto=compress\u0026cs=tinysrgb\u0026dpr=1\u0026fit=crop\u0026h=200\u0026w=280"
      },
      "liked": false
    },
    {
      "id": 609771,
      "width": 3480,
      "height": 3481,
      "url": "https://www.pexels.com/photo/people-forming-round-by-shoes-609771/",
      "photographer": "Ingo Joseph",
      "photographer_url": "https://www.pexels.com/@ingo",
      "photographer_id": 3,
      "avg_color": "#776D66",
      "src": {
        "original": "https://images.pexels.com/photos/609771/pexels-photo-609771.jpeg",
        "large2x": "https://images.pexels.com/photos/609771/pexels-photo-609771.jpeg?auto=compress\u0026cs=tinysrgb\u0026dpr=2\u0026h=650\u0026w=940",
        "large": "https://images.pexels.com/photos/609771/pexels-photo-609771.jpeg?auto=compress\u0026cs=tinysrgb\u0026h=650\u0026w=940",
        "medium": "https://images.pexels.com/photos/609771/pexels-photo-609771.jpeg?auto=compress\u0026cs=tinysrgb\u0026h=350",
        "small": "https://images.pexels.com/photos/609771/pexels-photo-609771.jpeg?auto=compress\u0026cs=tinysrgb\u0026h=130",
        "portrait": "https://images.pexels.com/photos/609771/pexels-photo-609771.jpeg?auto=compress\u0026cs=tinysrgb\u0026fit=crop\u0026h=1200\u0026w=800",
        "landscape": "https://images.pexels.com/photos/609771/pexels-photo-609771.jpeg?auto=compress\u0026cs=tinysrgb\u0026fit=crop\u0026h=627\u0026w=1200",
        "tiny": "https://images.pexels.com/photos/609771/pexels-photo-609771.jpeg?auto=compress\u0026cs=tinysrgb\u0026dpr=1\u0026fit=crop\u0026h=200\u0026w=280"
      },
      "liked": false
    },
    {
      "id": 1206059,
      "width": 7457,
      "height": 4974,
      "url": "https://www.pexels.com/photo/woman-falling-in-line-holding-each-other-1206059/",
      "photographer": "mentatdgt",
      "photographer_url": "https://www.pexels.com/@mentatdgt-330508",
      "photographer_id": 330508,
      "avg_color": "#A19FA1",
      "src": {
        "original": "https://images.pexels.com/photos/1206059/pexels-photo-1206059.jpeg",
        "large2x": "https://images.pexels.com/photos/1206059/pexels-photo-1206059.jpeg?auto=compress\u0026cs=tinysrgb\u0026dpr=2\u0026h=650\u0026w=940",
        "large": "https://images.pexels.com/photos/1206059/pexels-photo-1206059.jpeg?auto=compress\u0026cs=tinysrgb\u0026h=650\u0026w=940",
        "medium": "https://images.pexels.com/photos/1206059/pexels-photo-1206059.jpeg?auto=compress\u0026cs=tinysrgb\u0026h=350",
        "small": "https://images.pexels.com/photos/1206059/pexels-photo-1206059.jpeg?auto=compress\u0026cs=tinysrgb\u0026h=130",
        "portrait": "https://images.pexels.com/photos/1206059/pexels-photo-1206059.jpeg?auto=compress\u0026cs=tinysrgb\u0026fit=crop\u0026h=1200\u0026w=800",
        "landscape": "https://images.pexels.com/photos/1206059/pexels-photo-1206059.jpeg?auto=compress\u0026cs=tinysrgb\u0026fit=crop\u0026h=627\u0026w=1200",
        "tiny": "https://images.pexels.com/photos/1206059/pexels-photo-1206059.jpeg?auto=compress\u0026cs=tinysrgb\u0026dpr=1\u0026fit=crop\u0026h=200\u0026w=280"
      },
      "liked": false
    },
    {
      "id": 6520061,
      "width": 6624,
      "height": 4416,
      "url": "https://www.pexels.com/photo/paramedic-helping-a-man-lying-on-the-ground-6520061/",
      "photographer": "RODNAE Productions",
      "photographer_url": "https://www.pexels.com/@rodnae-prod",
      "photographer_id": 3149039,
      "avg_color": "#3B5360",
      "src": {
        "original": "https://images.pexels.com/photos/6520061/pexels-photo-6520061.jpeg",
        "large2x": "https://images.pexels.com/photos/6520061/pexels-photo-6520061.jpeg?auto=compress\u0026cs=tinysrgb\u0026dpr=2\u0026h=650\u0026w=940",
        "large": "https://images.pexels.com/photos/6520061/pexels-photo-6520061.jpeg?auto=compress\u0026cs=tinysrgb\u0026h=650\u0026w=940",
        "medium": "https://images.pexels.com/photos/6520061/pexels-photo-6520061.jpeg?auto=compress\u0026cs=tinysrgb\u0026h=350",
        "small": "https://images.pexels.com/photos/6520061/pexels-photo-6520061.jpeg?auto=compress\u0026cs=tinysrgb\u0026h=130",
        "portrait": "https://images.pexels.com/photos/6520061/pexels-photo-6520061.jpeg?auto=compress\u0026cs=tinysrgb\u0026fit=crop\u0026h=1200\u0026w=800",
        "landscape": "https://images.pexels.com/photos/6520061/pexels-photo-6520061.jpeg?auto=compress\u0026cs=tinysrgb\u0026fit=crop\u0026h=627\u0026w=1200",
        "tiny": "https://images.pexels.com/photos/6520061/pexels-photo-6520061.jpeg?auto=compress\u0026cs=tinysrgb\u0026dpr=1\u0026fit=crop\u0026h=200\u0026w=280"
      },
      "liked": false
    },
    {
      "id": 6287530,
      "width": 3360,
      "height": 5040,
      "url": "https://www.pexels.com/photo/crop-unrecognizable-chef-grating-cheese-on-spaghetti-6287530/",
      "photographer": "Klaus Nielsen",
      "photographer_url": "https://www.pexels.com/@klaus-nielsen",
      "photographer_id": 6928139,
      "avg_color": "#524B3B",
      "src": {
        "original": "https://images.pexels.com/photos/6287530/pexels-photo-6287530.jpeg",
        "large2x": "https://images.pexels.com/photos/6287530/pexels-photo-6287530.jpeg?auto=compress\u0026cs=tinysrgb\u0026dpr=2\u0026h=650\u0026w=940",
        "large": "https://images.pexels.com/photos/6287530/pexels-photo-6287530.jpeg?auto=compress\u0026cs=tinysrgb\u0026h=650\u0026w=940",
        "medium": "https://images.pexels.com/photos/6287530/pexels-photo-6287530.jpeg?auto=compress\u0026cs=tinysrgb\u0026h=350",
        "small": "https://images.pexels.com/photos/6287530/pexels-photo-6287530.jpeg?auto=compress\u0026cs=tinysrgb\u0026h=130",
        "portrait": "https://images.pexels.com/photos/6287530/pexels-photo-6287530.jpeg?auto=compress\u0026cs=tinysrgb\u0026fit=crop\u0026h=1200\u0026w=800",
        "landscape": "https://images.pexels.com/photos/6287530/pexels-photo-6287530.jpeg?auto=compress\u0026cs=tinysrgb\u0026fit=crop\u0026h=627\u0026w=1200",
        "tiny": "https://images.pexels.com/photos/6287530/pexels-photo-6287530.jpeg?auto=compress\u0026cs=tinysrgb\u0026dpr=1\u0026fit=crop\u0026h=200\u0026w=280"
      },
      "liked": false
    },
    {
      "id": 4997800,
      "width": 3641,
      "height": 5461,
      "url": "https://www.pexels.com/photo/people-near-entrance-of-shop-in-city-4997800/",
      "photographer": "Rachel Claire",
      "photographer_url": "https://www.pexels.com/@rachel-claire",
      "photographer_id": 2272619,
      "avg_color": "#6E6A65",
      "src": {
        "original": "https://images.pexels.com/photos/4997800/pexels-photo-4997800.jpeg",
        "large2x": "https://images.pexels.com/photos/4997800/pexels-photo-4997800.jpeg?auto=compress\u0026cs=tinysrgb\u0026dpr=2\u0026h=650\u0026w=940",
        "large": "https://images.pexels.com/photos/4997800/pexels-photo-4997800.jpeg?auto=compress\u0026cs=tinysrgb\u0026h=650\u0026w=940",
        "medium": "https://images.pexels.com/photos/4997800/pexels-photo-4997800.jpeg?auto=compress\u0026cs=tinysrgb\u0026h=350",
        "small": "https://images.pexels.com/photos/4997800/pexels-photo-4997800.jpeg?auto=compress\u0026cs=tinysrgb\u0026h=130",
        "portrait": "https://images.pexels.com/photos/4997800/pexels-photo-4997800.jpeg?auto=compress\u0026cs=tinysrgb\u0026fit=crop\u0026h=1200\u0026w=800",
        "landscape": "https://images.pexels.com/photos/4997800/pexels-photo-4997800.jpeg?auto=compress\u0026cs=tinysrgb\u0026fit=crop\u0026h=627\u0026w=1200",
        "tiny": "https://images.pexels.com/photos/4997800/pexels-photo-4997800.jpeg?auto=compress\u0026cs=tinysrgb\u0026dpr=1\u0026fit=crop\u0026h=200\u0026w=280"
      },
      "liked": false
    }
  ],
  "total_results": 8000,
  "next_page": "https://api.pexels.com/v1/search/?page=2\u0026per_page=15\u0026query=people"
}
