{
  "page": 1,
  "per_page": 15,
  "photos": [
    {
      "id": 4275716,
      "width": 3500,
      "height": 2333,
      "url": "https://www.pexels.com/photo/woman-with-purple-flower-on-her-ear-4275716/",
      "photographer": "cottonbro",
      "photographer_url": "https://www.pexels.com/@cottonbro",
      "photographer_id": 1437723,
      "avg_color": "#8B6E61",
      "src": {
        "original": "https://images.pexels.com/photos/4275716/pexels-photo-4275716.jpeg",
        "large2x": "https://images.pexels.com/photos/4275716/pexels-photo-4275716.jpeg?auto=compress\u0026cs=tinysrgb\u0026dpr=2\u0026h=650\u0026w=940",
        "large": "https://images.pexels.com/photos/4275716/pexels-photo-4275716.jpeg?auto=compress\u0026cs=tinysrgb\u0026h=650\u0026w=940",
        "medium": "https://images.pexels.com/photos/4275716/pexels-photo-4275716.jpeg?auto=compress\u0026cs=tinysrgb\u0026h=350",
        "small": "https://images.pexels.com/photos/4275716/pexels-photo-4275716.jpeg?auto=compress\u0026cs=tinysrgb\u0026h=130",
        "portrait": "https://images.pexels.com/photos/4275716/pexels-photo-4275716.jpeg?auto=compress\u0026cs=tinysrgb\u0026fit=crop\u0026h=1200\u0026w=800",
        "landscape": "https://images.pexels.com/photos/4275716/pexels-photo-4275716.jpeg?auto=compress\u0026cs=tinysrgb\u0026fit=crop\u0026h=627\u0026w=1200",
        "tiny": "https://images.pexels.com/photos/4275716/pexels-photo-4275716.jpeg?auto=compress\u0026cs=tinysrgb\u0026dpr=1\u0026fit=crop\u0026h=200\u0026w=280"
      },
      "liked": false
    },
    {
      "id": 3119709,
      "width": 6000,
      "height": 4000,
      "url": "https://www.pexels.com/photo/asian-woman-3119709/",
      "photographer": "Jaspereology",
      "photographer_url": "https://www.pexels.com/@jaspereology-1587101",
      "photographer_id": 1587101,
      "avg_color": "#6D614C",
      "src": {
        "original": "https://images.pexels.com/photos/3119709/pexels-photo-3119709.jpeg",
        "large2x": "https://images.pexels.com/photos/3119709/pexels-photo-3119709.jpeg?auto=compress\u0026cs=tinysrgb\u0026dpr=2\u0026h=650\u0026w=940",
        "large": "https://images.pexels.com/photos/3119709/pexels-photo-3119709.jpeg?auto=compress\u0026cs=tinysrgb\u0026h=650\u0026w=940",
        "medium": "https://images.pexels.com/photos/3119709/pexels-photo-3119709.jpeg?auto=compress\u0026cs=tinysrgb\u0026h=350",
        "small": "https://images.pexels.com/photos/3119709/pexels-photo-3119709.jpeg?auto=compress\u0026cs=tinysrgb\u0026h=130",
        "portrait": "https://images.pexels.com/photos/3119709/pexels-photo-3119709.jpeg?auto=compress\u0026cs=tinysrgb\u0026fit=crop\u0026h=1200\u0026w=800",
        "landscape": "https://images.pexels.com/photos/3119709/pexels-photo-3119709.jpeg?auto=compress\u0026cs=tinysrgb\u0026fit=crop\u0026h=627\u0026w=1200",
        "tiny": "https://images.pexels.com/photos/3119709/pexels-photo-3119709.jpeg?auto=compress\u0026cs=tinysrgb\u0026dpr=1\u0026fit=crop\u0026h=200\u0026w=280"
      },
      "liked": false
    },
    {
      "id": 4475413,
      "width": 7360,
      "height": 4912,
      "url": "https://www.pexels.com/photo/fashion-love-people-woman-4475413/",
      "photographer": "Cihan Oğuzmetin",
      "photographer_url": "https://www.pexels.com/@cihan-oguzmetin-1582118",
      "photographer_id": 1582118,
      "avg_color": "#4C4A4A",
      "src": {
        "original": "https://images.pexels.com/photos/4475413/pexels-photo-4475413.jpeg",
        "large2x": "https://images.pexels.com/photos/4475413/pexels-photo-4475413.jpeg?auto=compress\u0026cs=tinysrgb\u0026dpr=2\u0026h=650\u0026w=940",
        "large": "https://images.pexels.com/photos/4475413/pexels-photo-4475413.jpeg?auto=compress\u0026cs=tinysrgb\u0026h=650\u0026w=940",
        "medium": "https://images.pexels.com/photos/4475413/pexels-photo-4475413.jpeg?auto=compress\u0026cs=tinysrgb\u0026h=350",
        "small": "https://images.pexels.com/photos/4475413/pexels-photo-4475413.jpeg?auto=compress\u0026cs=tinysrgb\u0026h=130",
        "portrait": "https://images.pexels.com/photos/4475413/pexels-photo-4475413.jpeg?auto=compress\u0026cs=tinysrgb\u0026fit=crop\u0026h=1200\u0026w=800",
        "landscape": "https://images.pexels.com/photos/4475413/pexels-photo-4475413.jpeg?auto=compress\u0026cs=tinysrgb\u0026fit=crop\u0026h=627\u0026w=1200",
        "tiny": "https://images.pexels.com/photos/4475413/pexels-photo-4475413.jpeg?auto=compress\u0026cs=tinysrgb\u0026dpr=1\u0026fit=crop\u0026h=200\u0026w=280"
      },
      "liked": false
    },
    {
      "id": 3772817,
      "width": 2789,
      "height": 4181,
      "url": "https://www.pexels.com/photo/woman-in-white-tank-top-and-white-hat-3772817/",
      "photographer": "Christian Diokno",
      "photographer_url": "https://www.pexels.com/@christian-diokno-1666462",
      "photographer_id": 1666462,
      "avg_color": "#90796D",
      "src": {
        "original": "https://images.pexels.com/photos/3772817/pexels-photo-3772817.jpeg",
        "large2x": "https://images.pexels.com/photos/3772817/pexels-photo-3772817.jpeg?auto=compress\u0026cs=tinysrgb\u0026dpr=2\u0026h=650\u0026w=940",
        "large": "https://images.pexels.com/photos/3772817/pexels-photo-3772817.jpeg?auto=compress\u0026cs=tinysrgb\u0026h=650\u0026w=940",
        "medium": "https://images.pexels.com/photos/3772817/pexels-photo-3772817.jpeg?auto=compress\u0026cs=tinysrgb\u0026h=350",
        "small": "https://images.pexels.com/photos/3772817/pexels-photo-3772817.jpeg?auto=compress\u0026cs=tinysrgb\u0026h=130",
        "portrait": "https://images.pexels.com/photos/3772817/pexels-photo-3772817.jpeg?auto=compress\u0026cs=tinysrgb\u0026fit=crop\u0026h=1200\u0026w=800",
        "landscape": "https://images.pexels.com/photos/3772817/pexels-photo-3772817.jpeg?auto=compress\u0026cs=tinysrgb\u0026fit=crop\u0026h=627\u0026w=1200",
        "tiny": "https://images.pexels.com/photos/3772817/pexels-photo-3772817.jpeg?auto=compress\u0026cs=tinysrgb\u0026dpr=1\u0026fit=crop\u0026h=200\u0026w=280"
      },
      "liked": false
    },
    {
      "id": 2669457,
      "width": 3648,
      "height": 5472,
      "url": "https://www.pexels.com/photo/fashion-beach-people-woman-2669457/",
      "photographer": "Diego Rezende",
      "photographer_url": "https://www.pexels.com/@diego-rezende-175790",
      "photographer_id": 175790,
      "avg_color": "#514C3D",
      "src": {
        "original": "https://images.pexels.com/photos/2669457/pexels-photo-2669457.jpeg",
        "large2x": "https://images.pexels.com/photos/2669457/pexels-photo-2669457.jpeg?auto=compress\u0026cs=tinysrgb\u0026dpr=2\u0026h=650\u0026w=940",
        "large": "https://images.pexels.com/photos/2669457/pexels-photo-2669457.jpeg?auto=compress\u0026cs=tinysrgb\u0026h=650\u0026w=940",
        "medium": "https://images.pexels.com/photos/2669457/pexels-photo-2669457.jpeg?auto=compress\u0026cs=tinysrgb\u0026h=350",
        "small": "https://images.pexels.com/photos/2669457/pexels-photo-2669457.jpeg?auto=compress\u0026cs=tinysrgb\u0026h=130",
        "portrait": "https://images.pexels.com/photos/2669457/pexels-photo-2669457.jpeg?auto=compress\u0026cs=tinysrgb\u0026fit=crop\u0026h=1200\u0026w=800",
        "landscape": "https://images.pexels.com/photos/2669457/pexels-photo-2669457.jpeg?auto=compress\u0026cs=tinysrgb\u0026fit=crop\u0026h=627\u0026w=1200",
        "tiny": "https://images.pexels.com/photos/2669457/pexels-photo-2669457.jpeg?auto=compress\u0026cs=tinysrgb\u0026dpr=1\u0026fit=crop\u0026h=200\u0026w=280"
      },
      "liked": false
    },
    {
      "id": 1884971,
      "width": 3333,
      "height": 5000,
      "url": "https://www.pexels.com/photo/woman-looking-side-holding-her-arm-1884971/",
      "photographer": "Lola Russian",
      "photographer_url": "https://www.pexels.com/@lolarussian",
      "photographer_id": 894518,
      "avg_color": "#766A5F",
      "src": {
        "original": "https://images.pexels.com/photos/1884971/pexels-photo-1884971.jpeg",
        "large2x": "https://images.pexels.com/photos/1884971/pexels-photo-1884971.jpeg?auto=compress\u0026cs=tinysrgb\u0026dpr=2\u0026h=650\u0026w=940",
        "large": "https://images.pexels.com/photos/1884971/pexels-photo-1884971.jpeg?auto=compress\u0026cs=tinysrgb\u0026h=650\u0026w=940",
        "medium": "https://images.pexels.com/photos/1884971/pexels-photo-1884971.jpeg?auto=compress\u0026cs=tinysrgb\u0026h=350",
        "small": "https://images.pexels.com/photos/1884971/pexels-photo-1884971.jpeg?auto=compress\u0026cs=tinysrgb\u0026h=130",
        "portrait": "https://images.pexels.com/photos/1884971/pexels-photo-1884971.jpeg?auto=compress\u0026cs=tinysrgb\u0026fit=crop\u0026h=1200\u0026w=800",
        "landscape": "https://images.pexels.com/photos/1884971/pexels-photo-1884971.jpeg?auto=compress\u0026cs=tinysrgb\u0026fit=crop\u0026h=627\u0026w=1200",
        "tiny": "https://images.pexels.com/photos/1884971/pexels-photo-1884971.jpeg?auto=compress\u0026cs=tinysrgb\u0026dpr=1\u0026fit=crop\u0026h=200\u0026w=280"
      },
      "liked": false
    },
    {
      "id": 2171129,
      "width": 2080,
      "height": 2496,
      "url": "https://www.pexels.com/photo/pink-cherry-blossom-flowers-2171129/",
      "photographer": "Lisa Fotios",
      "photographer_url": "https://www.pexels.com/@fotios-photos",
      "photographer_id": 26735,
      "avg_color": "#BDA6A7",
      "src": {
        "original": "https://images.pexels.com/photos/2171129/pexels-photo-2171129.jpeg",
        "large2x": "https://images.pexels.com/photos/2171129/pexels-photo-2171129.jpeg?auto=compress\u0026cs=tinysrgb\u0026dpr=2\u0026h=650\u0026w=940",
        "large": "https://images.pexels.com/photos/2171129/pexels-photo-2171129.jpeg?auto=compress\u0026cs=tinysrgb\u0026h=650\u0026w=940",
        "medium": "https://images.pexels.com/photos/2171129/pexels-photo-2171129.jpeg?auto=compress\u0026cs=tinysrgb\u0026h=350",
        "small": "https://images.pexels.com/photos/2171129/pexels-photo-2171129.jpeg?auto=compress\u0026cs=tinysrgb\u0026h=130",
        "portrait": "https://images.pexels.com/photos/2171129/pexels-photo-2171129.jpeg?auto=compress\u0026cs=tinysrgb\u0026fit=crop\u0026h=1200\u0026w=800",
        "landscape": "https://images.pexels.com/photos/2171129/pexels-photo-2171129.jpeg?auto=compress\u0026cs=tinysrgb\u0026fit=crop\u0026h=627\u0026w=1200",
        "tiny": "https://images.pexels.com/photos/2171129/pexels-photo-2171129.jpeg?auto=compress\u0026cs=tinysrgb\u0026dpr=1\u0026fit=crop\u0026h=200\u0026w=280"
      },
      "liked": false
    },
    {
      "id": 4590437,
      "width": 4166,
      "height": 6249,
      "url": "https://www.pexels.com/photo/close-up-of-water-droplets-on-a-leaf-4590437/",
      "photographer": "Karolina Grabowska",
      "photographer_url": "https://www.pexels.com/@karolina-grabowska",
      "photographer_id": 2332540,
      "avg_color": "#6C7D5A",
      "src": {
        "original": "https://images.pexels.com/photos/4590437/pexels-photo-4590437.jpeg",
        "large2x": "https://images.pexels.com/photos/4590437/pexels-photo-4590437.jpeg?auto=compress\u0026cs=tinysrgb\u0026dpr=2\u0026h=650\u0026w=940",
        "large": "https://images.pexels.com/photos/4590437/pexels-photo-4590437.jpeg?auto=compress\u0026cs=tinysrgb\u0026h=650\u0026w=940",
        "medium": "https://images.pexels.com/photos/4590437/pexels-photo-4590437.jpeg?auto=compress\u0026cs=tinysrgb\u0026h=350",
        "small": "https://images.pexels.com/photos/4590437/pexels-photo-4590437.jpeg?auto=compress\u0026cs=tinysrgb\u0026h=130",
        "portrait": "https://images.pexels.com/photos/4590437/pexels-photo-4590437.jpeg?auto=compress\u0026cs=tinysrgb\u0026fit=crop\u0026h=1200\u0026w=800",
        "landscape": "https://images.pexels.com/photos/4590437/pexels-photo-4590437.jpeg?auto=compress\u0026cs=tinysrgb\u0026fit=crop\u0026h=627\u0026w=1200",
        "tiny": "https://images.pexels.com/photos/4590437/pexels-photo-4590437.jpeg?auto=compress\u0026cs=tinysrgb\u0026dpr=1\u0026fit=crop\u0026h=200\u0026w=280"
      },
      "liked": false
    },
    {
      "id": 3040703,
      "width": 4000,
      "height": 6000,
      "url": "https://www.pexels.com/photo/yellow-petaled-flower-3040703/",
      "photographer": "fotografierende",
      "photographer_url": "https://www.pexels.com/@fotografierende",
      "photographer_id": 116950,
      "avg_color": "#94918A",
      "src": {
        "original": "https://images.pexels.com/photos/3040703/pexels-photo-3040703.jpeg",
        "large2x": "https://images.pexels.com/photos/3040703/pexels-photo-3040703.jpeg?auto=compress\u0026cs=tinysrgb\u0026dpr=2\u0026h=650\u0026w=940",
        "large": "https://images.pexels.com/photos/3040703/pexels-photo-3040703.jpeg?auto=compress\u0026cs=tinysrgb\u0026h=650\u0026w=940",
        "medium": "https://images.pexels.com/photos/3040703/pexels-photo-3040703.jpeg?auto=compress\u0026cs=tinysrgb\u0026h=350",
        "small": "https://images.pexels.com/photos/3040703/pexels-photo-3040703.jpeg?auto=compress\u0026cs=tinysrgb\u0026h=130",
        "portrait": "https://images.pexels.com/photos/3040703/pexels-photo-3040703.jpeg?auto=compress\u0026cs=tinysrgb\u0026fit=crop\u0026h=1200\u0026w=800",
        "landscape": "https://images.pexels.com/photos/3040703/pexels-photo-3040703.jpeg?auto=compress\u0026cs=tinysrgb\u0026fit=crop\u0026h=627\u0026w=1200",
        "tiny": "https://images.pexels.com/photos/3040703/pexels-photo-3040703.jpeg?auto=compress\u0026cs=tinysrgb\u0026dpr=1\u0026fit=crop\u0026h=200\u0026w=280"
      },
      "liked": false
    },
    {
      "id": 3764430,
      "width": 3663,
      "height": 5215,
      "url": "https://www.pexels.com/photo/person-with-purple-petals-around-the-eye-3764430/",
      "photographer": "Chermiti Mohamed",
      "photographer_url": "https://www.pexels.com/@chermitove",
      "photographer_id": 1554807,
      "avg_color": "#BD928A",
      "src": {
        "original": "https://images.pexels.com/photos/3764430/pexels-photo-3764430.jpeg",
        "large2x": "https://images.pexels.com/photos/3764430/pexels-photo-3764430.jpeg?auto=compress\u0026cs=tinysrgb\u0026dpr=2\u0026h=650\u0026w=940",
        "large": "https://images.pexels.com/photos/3764430/pexels-photo-3764430.jpeg?auto=compress\u0026cs=tinysrgb\u0026h=650\u0026w=940",
        "medium": "https://images.pexels.com/photos/3764430/pexels-photo-3764430.jpeg?auto=compress\u0026cs=tinysrgb\u0026h=350",
        "small": "https://images.pexels.com/photos/3764430/pexels-photo-3764430.jpeg?auto=compress\u0026cs=tinysrgb\u0026h=130",
        "portrait": "https://images.pexels.com/photos/3764430/pexels-photo-3764430.jpeg?auto=compress\u0026cs=tinysrgb\u0026fit=crop\u0026h=1200\u0026w=800",
        "landscape": "https://images.pexels.com/photos/3764430/pexels-photo-3764430.jpeg?auto=compress\u0026cs=tinysrgb\u0026fit=crop\u0026h=627\u0026w=1200",
        "tiny": "https://images.pexels.com/photos/3764430/pexels-photo-3764430.jpeg?auto=compress\u0026cs=tinysrgb\u0026dpr=1\u0026fit=crop\u0026h=200\u0026w=280"
      },
      "liked": false
    },
    {
      "id": 414181,
      "width": 5760,
      "height": 3840,
      "url": "https://www.pexels.com/photo/shallow-focus-photography-of-bird-414181/",
      "photographer": "Pixabay",
      "photographer_url": "https://www.pexels.com/@pixabay",
      "photographer_id": 2659,
      "avg_color": "#D9BFD0",
      "src": {
        "original": "https://images.pexels.com/photos/414181/pexels-photo-414181.jpeg",
        "large2x": "https://images.pexels.com/photos/414181/pexels-photo-414181.jpeg?auto=compress\u0026cs=tinysrgb\u0026dpr=2\u0026h=650\u0026w=940",
        "large": "https://images.pexels.com/photos/414181/pexels-photo-414181.jpeg?auto=compress\u0026cs=tinysrgb\u0026h=650\u0026w=940",
        "medium": "https://images.pexels.com/photos/414181/pexels-photo-414181.jpeg?auto=compress\u0026cs=tinysrgb\u0026h=350",
        "small": "https://images.pexels.com/photos/414181/pexels-photo-414181.jpeg?auto=compress\u0026cs=tinysrgb\u0026h=130",
        "portrait": "https://images.pexels.com/photos/414181/pexels-photo-414181.jpeg?auto=compress\u0026cs=tinysrgb\u0026fit=crop\u0026h=1200\u0026w=800",
        "landscape": "https://images.pexels.com/photos/414181/pexels-photo-414181.jpeg?auto=compress\u0026cs=tinysrgb\u0026fit=crop\u0026h=627\u0026w=1200",
        "tiny": "https://images.pexels.com/photos/414181/pexels-photo-414181.jpeg?auto=compress\u0026cs=tinysrgb\u0026dpr=1\u0026fit=crop\u0026h=200\u0026w=280"
      },
      "liked": false
    },
    {
      "id": 920147,
      "width": 3061,
      "height": 2377,
      "url": "https://www.pexels.com/photo/hello-spring-handwritten-paper-920147/",
      "photographer": "Alena Koval",
      "photographer_url": "https://www.pexels.com/@alena-koval-233944",
      "photographer_id": 233944,
      "avg_color": "#C7BCB7",
      "src": {
        "original": "https://images.pexels.com/photos/920147/pexels-photo-920147.jpeg",
        "large2x": "https://images.pexels.com/photos/920147/pexels-photo-920147.jpeg?auto=compress\u0026cs=tinysrgb\u0026dpr=2\u0026h=650\u0026w=940",
        "large": "https://images.pexels.com/photos/920147/pexels-photo-920147.jpeg?auto=compress\u0026cs=tinysrgb\u0026h=650\u0026w=940",
        "medium": "https://images.pexels.com/photos/920147/pexels-photo-920147.jpeg?auto=compress\u0026cs=tinysrgb\u0026h=350",
        "small": "https://images.pexels.com/photos/920147/pexels-photo-920147.jpeg?auto=compress\u0026cs=tinysrgb\u0026h=130",
        "portrait": "https://images.pexels.com/photos/920147/pexels-photo-920147.jpeg?auto=compress\u0026cs=tinysrgb\u0026fit=crop\u0026h=1200\u0026w=800",
        "landscape": "https://images.pexels.com/photos/920147/pexels-photo-920147.jpeg?auto=compress\u0026cs=tinysrgb\u0026fit=crop\u0026h=627\u0026w=1200",
        "tiny": "https://images.pexels.com/photos/920147/pexels-photo-920147.jpeg?auto=compress\u0026cs=tinysrgb\u0026dpr=1\u0026fit=crop\u0026h=200\u0026w=280"
      },
      "liked": false
    },
    {
      "id": 1883385,
      "width": 4000,
      "height": 6000,
      "url": "https://www.pexels.com/photo/selective-focus-photography-of-pink-and-yellow-tulips-flowers-1883385/",
      "photographer": "Ylanite Koppens",
      "photographer_url": "https://www.pexels.com/@nietjuh",
      "photographer_id": 196863,
      "avg_color": "#CCC4AC",
      "src": {
        "original": "https://images.pexels.com/photos/1883385/pexels-photo-1883385.jpeg",
        "large2x": "https://images.pexels.com/photos/1883385/pexels-photo-1883385.jpeg?auto=compress\u0026cs=tinysrgb\u0026dpr=2\u0026h=650\u0026w=940",
        "large": "https://images.pexels.com/photos/1883385/pexels-photo-1883385.jpeg?auto=compress\u0026cs=tinysrgb\u0026h=650\u0026w=940",
        "medium": "https://images.pexels.com/photos/1883385/pexels-photo-1883385.jpeg?auto=compress\u0026cs=tinysrgb\u0026h=350",
        "small": "https://images.pexels.com/photos/1883385/pexels-photo-1883385.jpeg?auto=compress\u0026cs=tinysrgb\u0026h=130",
        "portrait": "https://images.pexels.com/photos/1883385/pexels-photo-1883385.jpeg?auto=compress\u0026cs=tinysrgb\u0026fit=crop\u0026h=1200\u0026w=800",
        "landscape": "https://images.pexels.com/photos/1883385/pexels-photo-1883385.jpeg?auto=compress\u0026cs=tinysrgb\u0026fit=crop\u0026h=627\u0026w=1200",
        "tiny": "https://images.pexels.com/photos/1883385/pexels-photo-1883385.jpeg?auto=compress\u0026cs=tinysrgb\u0026dpr=1\u0026fit=crop\u0026h=200\u0026w=280"
      },
      "liked": false
    },
    {
      "id": 2099737,
      "width": 6000,
      "height": 4000,
      "url": "https://www.pexels.com/photo/selective-focus-photography-of-pink-cherry-blossom-flowers-2099737/",
      "photographer": "Susanne Jutzeler",
      "photographer_url": "https://www.pexels.com/@suju",
      "photographer_id": 427138,
      "avg_color": "#E0BDBA",
      "src": {
        "original": "https://images.pexels.com/photos/2099737/pexels-photo-2099737.jpeg",
        "large2x": "https://images.pexels.com/photos/2099737/pexels-photo-2099737.jpeg?auto=compress\u0026cs=tinysrgb\u0026dpr=2\u0026h=650\u0026w=940",
        "large": "https://images.pexels.com/photos/2099737/pexels-photo-2099737.jpeg?auto=compress\u0026cs=tinysrgb\u0026h=650\u0026w=940",
        "medium": "https://images.pexels.com/photos/2099737/pexels-photo-2099737.jpeg?auto=compress\u0026cs=tinysrgb\u0026h=350",
        "small": "https://images.pexels.com/photos/2099737/pexels-photo-2099737.jpeg?auto=compress\u0026cs=tinysrgb\u0026h=130",
        "portrait": "https://images.pexels.com/photos/2099737/pexels-photo-2099737.jpeg?auto=compress\u0026cs=tinysrgb\u0026fit=crop\u0026h=1200\u0026w=800",
        "landscape": "https://images.pexels.com/photos/2099737/pexels-photo-2099737.jpeg?auto=compress\u0026cs=tinysrgb\u0026fit=crop\u0026h=627\u0026w=1200",
        "tiny": "https://images.pexels.com/photos/2099737/pexels-photo-2099737.jpeg?auto=compress\u0026cs=tinysrgb\u0026dpr=1\u0026fit=crop\u0026h=200\u0026w=280"
      },
      "liked": false
    },
    {
      "id": 250591,
      "width": 2736,
      "height": 3648,
      "url": "https://www.pexels.com/photo/low-angle-view-of-pink-flowers-against-blue-sky-250591/",
      "photographer": "John-Mark Smith",
      "photographer_url": "https://www.pexels.com/@jmark",
      "photographer_id": 57844,
      "avg_color": "#ACB0CF",
      "src": {
        "original": "https://images.pexels.com/photos/250591/pexels-photo-250591.jpeg",
        "large2x": "https://images.pexels.com/photos/250591/pexels-photo-250591.jpeg?auto=compress\u0026cs=tinysrgb\u0026dpr=2\u0026h=650\u0026w=940",
        "large": "https://images.pexels.com/photos/250591/pexels-photo-250591.jpeg?auto=compress\u0026cs=tinysrgb\u0026h=650\u0026w=940",
        "medium": "https://images.pexels.com/photos/250591/pexels-photo-250591.jpeg?auto=compress\u0026cs=tinysrgb\u0026h=350",
        "small": "https://images.pexels.com/photos/250591/pexels-photo-250591.jpeg?auto=compress\u0026cs=tinysrgb\u0026h=130",
        "portrait": "https://images.pexels.com/photos/250591/pexels-photo-250591.jpeg?auto=compress\u0026cs=tinysrgb\u0026fit=crop\u0026h=1200\u0026w=800",
        "landscape": "https://images.pexels.com/photos/250591/pexels-photo-250591.jpeg?auto=compress\u0026cs=tinysrgb\u0026fit=crop\u0026h=627\u0026w=1200",
        "tiny": "https://images.pexels.com/photos/250591/pexels-photo-250591.jpeg?auto=compress\u0026cs=tinysrgb\u0026dpr=1\u0026fit=crop\u0026h=200\u0026w=280"
      },
      "liked": false
    }
  ],
  "total_results": 7638,
  "next_page": "https://api.pexels.com/v1/search/?page=2\u0026per_page=15\u0026query=spring"
}
