{
  "page": 1,
  "per_page": 15,
  "photos": [
    {
      "id": 2440061,
      "width": 3448,
      "height": 5168,
      "url": "https://www.pexels.com/photo/forest-during-day-2440061/",
      "photographer": "Ian Beckley",
      "photographer_url": "https://www.pexels.com/@ian-beckley-1278367",
      "photographer_id": 1278367,
      "avg_color": "#B47A5B",
      "src": {
        "original": "https://images.pexels.com/photos/2440061/pexels-photo-2440061.jpeg",
        "large2x": "https://images.pexels.com/photos/2440061/pexels-photo-2440061.jpeg?auto=compress\u0026cs=tinysrgb\u0026dpr=2\u0026h=650\u0026w=940",
        "large": "https://images.pexels.com/photos/2440061/pexels-photo-2440061.jpeg?auto=compress\u0026cs=tinysrgb\u0026h=650\u0026w=940",
        "medium": "https://images.pexels.com/photos/2440061/pexels-photo-2440061.jpeg?auto=compress\u0026cs=tinysrgb\u0026h=350",
        "small": "https://images.pexels.com/photos/2440061/pexels-photo-2440061.jpeg?auto=compress\u0026cs=tinysrgb\u0026h=130",
        "portrait": "https://images.pexels.com/photos/2440061/pexels-photo-2440061.jpeg?auto=compress\u0026cs=tinysrgb\u0026fit=crop\u0026h=1200\u0026w=800",
        "landscape": "https://images.pexels.com/photos/2440061/pexels-photo-2440061.jpeg?auto=compress\u0026cs=tinysrgb\u0026fit=crop\u0026h=627\u0026w=1200",
        "tiny": "https://images.pexels.com/photos/2440061/pexels-photo-2440061.jpeg?auto=compress\u0026cs=tinysrgb\u0026dpr=1\u0026fit=crop\u0026h=200\u0026w=280"
      },
      "liked": false
    },
    {
      "id": 189349,
      "width": 5760,
      "height": 3840,
      "url": "https://www.pexels.com/photo/body-of-water-during-golden-hour-189349/",
      "photographer": "Sebastian Voortman",
      "photographer_url": "https://www.pexels.com/@sebastian",
      "photographer_id": 44106,
      "avg_color": "#99775E",
      "src": {
        "original": "https://images.pexels.com/photos/189349/pexels-photo-189349.jpeg",
        "large2x": "https://images.pexels.com/photos/189349/pexels-photo-189349.jpeg?auto=compress\u0026cs=tinysrgb\u0026dpr=2\u0026h=650\u0026w=940",
        "large": "https://images.pexels.com/photos/189349/pexels-photo-189349.jpeg?auto=compress\u0026cs=tinysrgb\u0026h=650\u0026w=940",
        "medium": "https://images.pexels.com/photos/189349/pexels-photo-189349.jpeg?auto=compress\u0026cs=tinysrgb\u0026h=350",
        "small": "https://images.pexels.com/photos/189349/pexels-photo-189349.jpeg?auto=compress\u0026cs=tinysrgb\u0026h=130",
        "portrait": "https://images.pexels.com/photos/189349/pexels-photo-189349.jpeg?auto=compress\u0026cs=tinysrgb\u0026fit=crop\u0026h=1200\u0026w=800",
        "landscape": "https://images.pexels.com/photos/189349/pexels-photo-189349.jpeg?auto=compress\u0026cs=tinysrgb\u0026fit=crop\u0026h=627\u0026w=1200",
        "tiny": "https://images.pexels.com/photos/189349/pexels-photo-189349.jpeg?auto=compress\u0026cs=tinysrgb\u0026dpr=1\u0026fit=crop\u0026h=200\u0026w=280"
      },
      "liked": false
    },
    {
      "id": 1210273,
      "width": 2860,
      "height": 2508,
      "url": "https://www.pexels.com/photo/frozen-wave-against-sunlight-1210273/",
      "photographer": "Hernan Pauccara",
      "photographer_url": "https://www.pexels.com/@hernan-pauccara-466676",
      "photographer_id": 466676,
      "avg_color": "#925032",
      "src": {
        "original": "https://images.pexels.com/photos/1210273/pexels-photo-1210273.jpeg",
        "large2x": "https://images.pexels.com/photos/1210273/pexels-photo-1210273.jpeg?auto=compress\u0026cs=tinysrgb\u0026dpr=2\u0026h=650\u0026w=940",
        "large": "https://images.pexels.com/photos/1210273/pexels-photo-1210273.jpeg?auto=compress\u0026cs=tinysrgb\u0026h=650\u0026w=940",
        "medium": "https://images.pexels.com/photos/1210273/pexels-photo-1210273.jpeg?auto=compress\u0026cs=tinysrgb\u0026h=350",
        "small": "https://images.pexels.com/photos/1210273/pexels-photo-1210273.jpeg?auto=compress\u0026cs=tinysrgb\u0026h=130",
        "portrait": "https://images.pexels.com/photos/1210273/pexels-photo-1210273.jpeg?auto=compress\u0026cs=tinysrgb\u0026fit=crop\u0026h=1200\u0026w=800",
        "landscape": "https://images.pexels.com/photos/1210273/pexels-photo-1210273.jpeg?auto=compress\u0026cs=tinysrgb\u0026fit=crop\u0026h=627\u0026w=1200",
        "tiny": "https://images.pexels.com/photos/1210273/pexels-photo-1210273.jpeg?auto=compress\u0026cs=tinysrgb\u0026dpr=1\u0026fit=crop\u0026h=200\u0026w=280"
      },
      "liked": false
    },
    {
      "id": 2175952,
      "width": 4893,
      "height": 7336,
      "url": "https://www.pexels.com/photo/village-in-front-of-the-mountains-2175952/",
      "photographer": "Quang Nguyen Vinh",
      "photographer_url": "https://www.pexels.com/@quang-nguyen-vinh-222549",
      "photographer_id": 222549,
      "avg_color": "#888961",
      "src": {
        "original": "https://images.pexels.com/photos/2175952/pexels-photo-2175952.jpeg",
        "large2x": "https://images.pexels.com/photos/2175952/pexels-photo-2175952.jpeg?auto=compress\u0026cs=tinysrgb\u0026dpr=2\u0026h=650\u0026w=940",
        "large": "https://images.pexels.com/photos/2175952/pexels-photo-2175952.jpeg?auto=compress\u0026cs=tinysrgb\u0026h=650\u0026w=940",
        "medium": "https://images.pexels.com/photos/2175952/pexels-photo-2175952.jpeg?auto=compress\u0026cs=tinysrgb\u0026h=350",
        "small": "https://images.pexels.com/photos/2175952/pexels-photo-2175952.jpeg?auto=compress\u0026cs=tinysrgb\u0026h=130",
        "portrait": "https://images.pexels.com/photos/2175952/pexels-photo-2175952.jpeg?auto=compress\u0026cs=tinysrgb\u0026fit=crop\u0026h=1200\u0026w=800",
        "landscape": "https://images.pexels.com/photos/2175952/pexels-photo-2175952.jpeg?auto=compress\u0026cs=tinysrgb\u0026fit=crop\u0026h=627\u0026w=1200",
        "tiny": "https://images.pexels.com/photos/2175952/pexels-photo-2175952.jpeg?auto=compress\u0026cs=tinysrgb\u0026dpr=1\u0026fit=crop\u0026h=200\u0026w=280"
      },
      "liked": false
    },
    {
      "id": 3347244,
      "width": 4016,
      "height": 6016,
      "url": "https://www.pexels.com/photo/running-vehicles-on-road-3347244/",
      "photographer": "Bob Ward",
      "photographer_url": "https://www.pexels.com/@wardmedia",
      "photographer_id": 368324,
      "avg_color": "#302021",
      "src": {
        "original": "https://images.pexels.com/photos/3347244/pexels-photo-3347244.jpeg",
        "large2x": "https://images.pexels.com/photos/3347244/pexels-photo-3347244.jpeg?auto=compress\u0026cs=tinysrgb\u0026dpr=2\u0026h=650\u0026w=940",
        "large": "https://images.pexels.com/photos/3347244/pexels-photo-3347244.jpeg?auto=compress\u0026cs=tinysrgb\u0026h=650\u0026w=940",
        "medium": "https://images.pexels.com/photos/3347244/pexels-photo-3347244.jpeg?auto=compress\u0026cs=tinysrgb\u0026h=350",
        "small": "https://images.pexels.com/photos/3347244/pexels-photo-3347244.jpeg?auto=compress\u0026cs=tinysrgb\u0026h=130",
        "portrait": "https://images.pexels.com/photos/3347244/pexels-photo-3347244.jpeg?auto=compress\u0026cs=tinysrgb\u0026fit=crop\u0026h=1200\u0026w=800",
        "landscape": "https://images.pexels.com/photos/3347244/pexels-photo-3347244.jpeg?auto=compress\u0026cs=tinysrgb\u0026fit=crop\u0026h=627\u0026w=1200",
        "tiny": "https://images.pexels.com/photos/3347244/pexels-photo-3347244.jpeg?auto=compress\u0026cs=tinysrgb\u0026dpr=1\u0026fit=crop\u0026h=200\u0026w=280"
      },
      "liked": false
    },
    {
      "id": 2437299,
      "width": 3275,
      "height": 4094,
      "url": "https://www.pexels.com/photo/time-lapse-photography-of-curved-road-with-vehicles-passing-2437299/",
      "photographer": "eberhard grossgasteiger",
      "photographer_url": "https://www.pexels.com/@eberhardgross",
      "photographer_id": 121938,
      "avg_color": "#AC9DA3",
      "src": {
        "original": "https://images.pexels.com/photos/2437299/pexels-photo-2437299.jpeg",
        "large2x": "https://images.pexels.com/photos/2437299/pexels-photo-2437299.jpeg?auto=compress\u0026cs=tinysrgb\u0026dpr=2\u0026h=650\u0026w=940",
        "large": "https://images.pexels.com/photos/2437299/pexels-photo-2437299.jpeg?auto=compress\u0026cs=tinysrgb\u0026h=650\u0026w=940",
        "medium": "https://images.pexels.com/photos/2437299/pexels-photo-2437299.jpeg?auto=compress\u0026cs=tinysrgb\u0026h=350",
        "small": "https://images.pexels.com/photos/2437299/pexels-photo-2437299.jpeg?auto=compress\u0026cs=tinysrgb\u0026h=130",
        "portrait": "https://images.pexels.com/photos/2437299/pexels-photo-2437299.jpeg?auto=compress\u0026cs=tinysrgb\u0026fit=crop\u0026h=1200\u0026w=800",
        "landscape": "https://images.pexels.com/photos/2437299/pexels-photo-2437299.jpeg?auto=compress\u0026cs=tinysrgb\u0026fit=crop\u0026h=627\u0026w=1200",
        "tiny": "https://images.pexels.com/photos/2437299/pexels-photo-2437299.jpeg?auto=compress\u0026cs=tinysrgb\u0026dpr=1\u0026fit=crop\u0026h=200\u0026w=280"
      },
      "liked": false
    },
    {
      "id": 3733269,
      "width": 3563,
      "height": 4454,
      "url": "https://www.pexels.com/photo/black-asphalt-road-near-mountains-under-cloudy-sky-3733269/",
      "photographer": "Benjamin Suter",
      "photographer_url": "https://www.pexels.com/@benjaminjsuter",
      "photographer_id": 1166597,
      "avg_color": "#38322D",
      "src": {
        "original": "https://images.pexels.com/photos/3733269/pexels-photo-3733269.jpeg",
        "large2x": "https://images.pexels.com/photos/3733269/pexels-photo-3733269.jpeg?auto=compress\u0026cs=tinysrgb\u0026dpr=2\u0026h=650\u0026w=940",
        "large": "https://images.pexels.com/photos/3733269/pexels-photo-3733269.jpeg?auto=compress\u0026cs=tinysrgb\u0026h=650\u0026w=940",
        "medium": "https://images.pexels.com/photos/3733269/pexels-photo-3733269.jpeg?auto=compress\u0026cs=tinysrgb\u0026h=350",
        "small": "https://images.pexels.com/photos/3733269/pexels-photo-3733269.jpeg?auto=compress\u0026cs=tinysrgb\u0026h=130",
        "portrait": "https://images.pexels.com/photos/3733269/pexels-photo-3733269.jpeg?auto=compress\u0026cs=tinysrgb\u0026fit=crop\u0026h=1200\u0026w=800",
        "landscape": "https://images.pexels.com/photos/3733269/pexels-photo-3733269.jpeg?auto=compress\u0026cs=tinysrgb\u0026fit=crop\u0026h=627\u0026w=1200",
        "tiny": "https://images.pexels.com/photos/3733269/pexels-photo-3733269.jpeg?auto=compress\u0026cs=tinysrgb\u0026dpr=1\u0026fit=crop\u0026h=200\u0026w=280"
      },
      "liked": false
    },
    {
      "id": 2131801,
      "width": 7507,
      "height": 5007,
      "url": "https://www.pexels.com/photo/reflection-of-tree-on-body-of-water-during-golden-hour-2131801/",
      "photographer": "Quang Nguyen Vinh",
      "photographer_url": "https://www.pexels.com/@quang-nguyen-vinh-222549",
      "photographer_id": 222549,
      "avg_color": "#574D61",
      "src": {
        "original": "https://images.pexels.com/photos/2131801/pexels-photo-2131801.jpeg",
        "large2x": "https://images.pexels.com/photos/2131801/pexels-photo-2131801.jpeg?auto=compress\u0026cs=tinysrgb\u0026dpr=2\u0026h=650\u0026w=940",
        "large": "https://images.pexels.com/photos/2131801/pexels-photo-2131801.jpeg?auto=compress\u0026cs=tinysrgb\u0026h=650\u0026w=940",
        "medium": "https://images.pexels.com/photos/2131801/pexels-photo-2131801.jpeg?auto=compress\u0026cs=tinysrgb\u0026h=350",
        "small": "https://images.pexels.com/photos/2131801/pexels-photo-2131801.jpeg?auto=compress\u0026cs=tinysrgb\u0026h=130",
        "portrait": "https://images.pexels.com/photos/2131801/pexels-photo-2131801.jpeg?auto=compress\u0026cs=tinysrgb\u0026fit=crop\u0026h=1200\u0026w=800",
        "landscape": "https://images.pexels.com/photos/2131801/pexels-photo-2131801.jpeg?auto=compress\u0026cs=tinysrgb\u0026fit=crop\u0026h=627\u0026w=1200",
        "tiny": "https://images.pexels.com/photos/2131801/pexels-photo-2131801.jpeg?auto=compress\u0026cs=tinysrgb\u0026dpr=1\u0026fit=crop\u0026h=200\u0026w=280"
      },
      "liked": false
    },
    {
      "id": 3225528,
      "width": 4882,
      "height": 6102,
      "url": "https://www.pexels.com/photo/colorful-cliffside-village-3225528/",
      "photographer": "Michael Block",
      "photographer_url": "https://www.pexels.com/@michael-block-1691617",
      "photographer_id": 1691617,
      "avg_color": "#6C6052",
      "src": {
        "original": "https://images.pexels.com/photos/3225528/pexels-photo-3225528.jpeg",
        "large2x": "https://images.pexels.com/photos/3225528/pexels-photo-3225528.jpeg?auto=compress\u0026cs=tinysrgb\u0026dpr=2\u0026h=650\u0026w=940",
        "large": "https://images.pexels.com/photos/3225528/pexels-photo-3225528.jpeg?auto=compress\u0026cs=tinysrgb\u0026h=650\u0026w=940",
        "medium": "https://images.pexels.com/photos/3225528/pexels-photo-3225528.jpeg?auto=compress\u0026cs=tinysrgb\u0026h=350",
        "small": "https://images.pexels.com/photos/3225528/pexels-photo-3225528.jpeg?auto=compress\u0026cs=tinysrgb\u0026h=130",
        "portrait": "https://images.pexels.com/photos/3225528/pexels-photo-3225528.jpeg?auto=compress\u0026cs=tinysrgb\u0026fit=crop\u0026h=1200\u0026w=800",
        "landscape": "https://images.pexels.com/photos/3225528/pexels-photo-3225528.jpeg?auto=compress\u0026cs=tinysrgb\u0026fit=crop\u0026h=627\u0026w=1200",
        "tiny": "https://images.pexels.com/photos/3225528/pexels-photo-3225528.jpeg?auto=compress\u0026cs=tinysrgb\u0026dpr=1\u0026fit=crop\u0026h=200\u0026w=280"
      },
      "liked": false
    },
    {
      "id": 1142941,
      "width": 4877,
      "height": 7736,
      "url": "https://www.pexels.com/photo/silhouette-photography-of-man-at-beach-during-sunset-1142941/",
      "photographer": "Jacub Gomez",
      "photographer_url": "https://www.pexels.com/@jacub-gomez-447561",
      "photographer_id": 447561,
      "avg_color": "#6A5B4E",
      "src": {
        "original": "https://images.pexels.com/photos/1142941/pexels-photo-1142941.jpeg",
        "large2x": "https://images.pexels.com/photos/1142941/pexels-photo-1142941.jpeg?auto=compress\u0026cs=tinysrgb\u0026dpr=2\u0026h=650\u0026w=940",
        "large": "https://images.pexels.com/photos/1142941/pexels-photo-1142941.jpeg?auto=compress\u0026cs=tinysrgb\u0026h=650\u0026w=940",
        "medium": "https://images.pexels.com/photos/1142941/pexels-photo-1142941.jpeg?auto=compress\u0026cs=tinysrgb\u0026h=350",
        "small": "https://images.pexels.com/photos/1142941/pexels-photo-1142941.jpeg?auto=compress\u0026cs=tinysrgb\u0026h=130",
        "portrait": "https://images.pexels.com/photos/1142941/pexels-photo-1142941.jpeg?auto=compress\u0026cs=tinysrgb\u0026fit=crop\u0026h=1200\u0026w=800",
        "landscape": "https://images.pexels.com/photos/1142941/pexels-photo-1142941.jpeg?auto=compress\u0026cs=tinysrgb\u0026fit=crop\u0026h=627\u0026w=1200",
        "tiny": "https://images.pexels.com/photos/1142941/pexels-photo-1142941.jpeg?auto=compress\u0026cs=tinysrgb\u0026dpr=1\u0026fit=crop\u0026h=200\u0026w=280"
      },
      "liked": false
    },
    {
      "id": 1461441,
      "width": 2887,
      "height": 3849,
      "url": "https://www.pexels.com/photo/silhouette-photo-of-person-riding-on-horse-1461441/",
      "photographer": "Arvind shakya",
      "photographer_url": "https://www.pexels.com/@aarv",
      "photographer_id": 207415,
      "avg_color": "#73606A",
      "src": {
        "original": "https://images.pexels.com/photos/1461441/pexels-photo-1461441.jpeg",
        "large2x": "https://images.pexels.com/photos/1461441/pexels-photo-1461441.jpeg?auto=compress\u0026cs=tinysrgb\u0026dpr=2\u0026h=650\u0026w=940",
        "large": "https://images.pexels.com/photos/1461441/pexels-photo-1461441.jpeg?auto=compress\u0026cs=tinysrgb\u0026h=650\u0026w=940",
        "medium": "https://images.pexels.com/photos/1461441/pexels-photo-1461441.jpeg?auto=compress\u0026cs=tinysrgb\u0026h=350",
        "small": "https://images.pexels.com/photos/1461441/pexels-photo-1461441.jpeg?auto=compress\u0026cs=tinysrgb\u0026h=130",
        "portrait": "https://images.pexels.com/photos/1461441/pexels-photo-1461441.jpeg?auto=compress\u0026cs=tinysrgb\u0026fit=crop\u0026h=1200\u0026w=800",
        "landscape": "https://images.pexels.com/photos/1461441/pexels-photo-1461441.jpeg?auto=compress\u0026cs=tinysrgb\u0026fit=crop\u0026h=627\u0026w=1200",
        "tiny": "https://images.pexels.com/photos/1461441/pexels-photo-1461441.jpeg?auto=compress\u0026cs=tinysrgb\u0026dpr=1\u0026fit=crop\u0026h=200\u0026w=280"
      },
      "liked": false
    },
    {
      "id": 1840142,
      "width": 3024,
      "height": 4032,
      "url": "https://www.pexels.com/photo/scenic-photo-of-pink-sky-1840142/",
      "photographer": "Vitor  Almeida",
      "photographer_url": "https://www.pexels.com/@vitor-almeida-862456",
      "photographer_id": 862456,
      "avg_color": "#5A515B",
      "src": {
        "original": "https://images.pexels.com/photos/1840142/pexels-photo-1840142.jpeg",
        "large2x": "https://images.pexels.com/photos/1840142/pexels-photo-1840142.jpeg?auto=compress\u0026cs=tinysrgb\u0026dpr=2\u0026h=650\u0026w=940",
        "large": "https://images.pexels.com/photos/1840142/pexels-photo-1840142.jpeg?auto=compress\u0026cs=tinysrgb\u0026h=650\u0026w=940",
        "medium": "https://images.pexels.com/photos/1840142/pexels-photo-1840142.jpeg?auto=compress\u0026cs=tinysrgb\u0026h=350",
        "small": "https://images.pexels.com/photos/1840142/pexels-photo-1840142.jpeg?auto=compress\u0026cs=tinysrgb\u0026h=130",
        "portrait": "https://images.pexels.com/photos/1840142/pexels-photo-1840142.jpeg?auto=compress\u0026cs=tinysrgb\u0026fit=crop\u0026h=1200\u0026w=800",
        "landscape": "https://images.pexels.com/photos/1840142/pexels-photo-1840142.jpeg?auto=compress\u0026cs=tinysrgb\u0026fit=crop\u0026h=627\u0026w=1200",
        "tiny": "https://images.pexels.com/photos/1840142/pexels-photo-1840142.jpeg?auto=compress\u0026cs=tinysrgb\u0026dpr=1\u0026fit=crop\u0026h=200\u0026w=280"
      },
      "liked": false
    },
    {
      "id": 2387871,
      "width": 3520,
      "height": 4591,
      "url": "https://www.pexels.com/photo/person-sitting-in-front-of-the-taj-mahal-2387871/",
      "photographer": "Sam Kolder",
      "photographer_url": "https://www.pexels.com/@samkolder",
      "photographer_id": 1257221,
      "avg_color": "#CAB3A5",
      "src": {
        "original": "https://images.pexels.com/photos/2387871/pexels-photo-2387871.jpeg",
        "large2x": "https://images.pexels.com/photos/2387871/pexels-photo-2387871.jpeg?auto=compress\u0026cs=tinysrgb\u0026dpr=2\u0026h=650\u0026w=940",
        "large": "https://images.pexels.com/photos/2387871/pexels-photo-2387871.jpeg?auto=compress\u0026cs=tinysrgb\u0026h=650\u0026w=940",
        "medium": "https://images.pexels.com/photos/2387871/pexels-photo-2387871.jpeg?auto=compress\u0026cs=tinysrgb\u0026h=350",
        "small": "https://images.pexels.com/photos/2387871/pexels-photo-2387871.jpeg?auto=compress\u0026cs=tinysrgb\u0026h=130",
        "portrait": "https://images.pexels.com/photos/2387871/pexels-photo-2387871.jpeg?auto=compress\u0026cs=tinysrgb\u0026fit=crop\u0026h=1200\u0026w=800",
        "landscape": "https://images.pexels.com/photos/2387871/pexels-photo-2387871.jpeg?auto=compress\u0026cs=tinysrgb\u0026fit=crop\u0026h=627\u0026w=1200",
        "tiny": "https://images.pexels.com/photos/2387871/pexels-photo-2387871.jpeg?auto=compress\u0026cs=tinysrgb\u0026dpr=1\u0026fit=crop\u0026h=200\u0026w=280"
      },
      "liked": false
    },
    {
      "id": 3601453,
      "width": 5464,
      "height": 3640,
      "url": "https://www.pexels.com/photo/silhouette-dusk-falling-rapidly-3601453/",
      "photographer": "Asad Photo Maldives",
      "photographer_url": "https://www.pexels.com/@asadphotography",
      "photographer_id": 45786,
      "avg_color": "#63574B",
      "src": {
        "original": "https://images.pexels.com/photos/3601453/pexels-photo-3601453.jpeg",
        "large2x": "https://images.pexels.com/photos/3601453/pexels-photo-3601453.jpeg?auto=compress\u0026cs=tinysrgb\u0026dpr=2\u0026h=650\u0026w=940",
        "large": "https://images.pexels.com/photos/3601453/pexels-photo-3601453.jpeg?auto=compress\u0026cs=tinysrgb\u0026h=650\u0026w=940",
        "medium": "https://images.pexels.com/photos/3601453/pexels-photo-3601453.jpeg?auto=compress\u0026cs=tinysrgb\u0026h=350",
        "small": "https://images.pexels.com/photos/3601453/pexels-photo-3601453.jpeg?auto=compress\u0026cs=tinysrgb\u0026h=130",
        "portrait": "https://images.pexels.com/photos/3601453/pexels-photo-3601453.jpeg?auto=compress\u0026cs=tinysrgb\u0026fit=crop\u0026h=1200\u0026w=800",
        "landscape": "https://images.pexels.com/photos/3601453/pexels-photo-3601453.jpeg?auto=compress\u0026cs=tinysrgb\u0026fit=crop\u0026h=627\u0026w=1200",
        "tiny": "https://images.pexels.com/photos/3601453/pexels-photo-3601453.jpeg?auto=compress\u0026cs=tinysrgb\u0026dpr=1\u0026fit=crop\u0026h=200\u0026w=280"
      },
      "liked": false
    },
    {
      "id": 3793306,
      "width": 3024,
      "height": 4032,
      "url": "https://www.pexels.com/photo/photo-of-orange-cloudy-sky-3793306/",
      "photographer": "Daria Shevtsova",
      "photographer_url": "https://www.pexels.com/@daria",
      "photographer_id": 220024,
      "avg_color": "#885B44",
      "src": {
        "original": "https://images.pexels.com/photos/3793306/pexels-photo-3793306.jpeg",
        "large2x": "https://images.pexels.com/photos/3793306/pexels-photo-3793306.jpeg?auto=compress\u0026cs=tinysrgb\u0026dpr=2\u0026h=650\u0026w=940",
        "large": "https://images.pexels.com/photos/3793306/pexels-photo-3793306.jpeg?auto=compress\u0026cs=tinysrgb\u0026h=650\u0026w=940",
        "medium": "https://images.pexels.com/photos/3793306/pexels-photo-3793306.jpeg?auto=compress\u0026cs=tinysrgb\u0026h=350",
        "small": "https://images.pexels.com/photos/3793306/pexels-photo-3793306.jpeg?auto=compress\u0026cs=tinysrgb\u0026h=130",
        "portrait": "https://images.pexels.com/photos/3793306/pexels-photo-3793306.jpeg?auto=compress\u0026cs=tinysrgb\u0026fit=crop\u0026h=1200\u0026w=800",
        "landscape": "https://images.pexels.com/photos/3793306/pexels-photo-3793306.jpeg?auto=compress\u0026cs=tinysrgb\u0026fit=crop\u0026h=627\u0026w=1200",
        "tiny": "https://images.pexels.com/photos/3793306/pexels-photo-3793306.jpeg?auto=compress\u0026cs=tinysrgb\u0026dpr=1\u0026fit=crop\u0026h=200\u0026w=280"
      },
      "liked": false
    }
  ],
  "total_results": 8000,
  "next_page": "https://api.pexels.com/v1/search/?page=2\u0026per_page=15\u0026query=sunset"
}
