{
  "page": 1,
  "per_page": 15,
  "photos": [
    {
      "id": 1458684,
      "width": 3840,
      "height": 5760,
      "url": "https://www.pexels.com/photo/person-holding-drinking-cup-sitting-1458684/",
      "photographer": "Daria Shevtsova",
      "photographer_url": "https://www.pexels.com/@daria",
      "photographer_id": 220024,
      "avg_color": "#A69C8F",
      "src": {
        "original": "https://images.pexels.com/photos/1458684/pexels-photo-1458684.jpeg",
        "large2x": "https://images.pexels.com/photos/1458684/pexels-photo-1458684.jpeg?auto=compress\u0026cs=tinysrgb\u0026dpr=2\u0026h=650\u0026w=940",
        "large": "https://images.pexels.com/photos/1458684/pexels-photo-1458684.jpeg?auto=compress\u0026cs=tinysrgb\u0026h=650\u0026w=940",
        "medium": "https://images.pexels.com/photos/1458684/pexels-photo-1458684.jpeg?auto=compress\u0026cs=tinysrgb\u0026h=350",
        "small": "https://images.pexels.com/photos/1458684/pexels-photo-1458684.jpeg?auto=compress\u0026cs=tinysrgb\u0026h=130",
        "portrait": "https://images.pexels.com/photos/1458684/pexels-photo-1458684.jpeg?auto=compress\u0026cs=tinysrgb\u0026fit=crop\u0026h=1200\u0026w=800",
        "landscape": "https://images.pexels.com/photos/1458684/pexels-photo-1458684.jpeg?auto=compress\u0026cs=tinysrgb\u0026fit=crop\u0026h=627\u0026w=1200",
        "tiny": "https://images.pexels.com/photos/1458684/pexels-photo-1458684.jpeg?auto=compress\u0026cs=tinysrgb\u0026dpr=1\u0026fit=crop\u0026h=200\u0026w=280"
      },
      "liked": false
    },
    {
      "id": 2033981,
      "width": 3840,
      "height": 5760,
      "url": "https://www.pexels.com/photo/silhouette-of-moutain-2033981/",
      "photographer": "Oleg Magni",
      "photographer_url": "https://www.pexels.com/@oleg-magni",
      "photographer_id": 293608,
      "avg_color": "#6D6E6A",
      "src": {
        "original": "https://images.pexels.com/photos/2033981/pexels-photo-2033981.jpeg",
        "large2x": "https://images.pexels.com/photos/2033981/pexels-photo-2033981.jpeg?auto=compress\u0026cs=tinysrgb\u0026dpr=2\u0026h=650\u0026w=940",
        "large": "https://images.pexels.com/photos/2033981/pexels-photo-2033981.jpeg?auto=compress\u0026cs=tinysrgb\u0026h=650\u0026w=940",
        "medium": "https://images.pexels.com/photos/2033981/pexels-photo-2033981.jpeg?auto=compress\u0026cs=tinysrgb\u0026h=350",
        "small": "https://images.pexels.com/photos/2033981/pexels-photo-2033981.jpeg?auto=compress\u0026cs=tinysrgb\u0026h=130",
        "portrait": "https://images.pexels.com/photos/2033981/pexels-photo-2033981.jpeg?auto=compress\u0026cs=tinysrgb\u0026fit=crop\u0026h=1200\u0026w=800",
        "landscape": "https://images.pexels.com/photos/2033981/pexels-photo-2033981.jpeg?auto=compress\u0026cs=tinysrgb\u0026fit=crop\u0026h=627\u0026w=1200",
        "tiny": "https://images.pexels.com/photos/2033981/pexels-photo-2033981.jpeg?auto=compress\u0026cs=tinysrgb\u0026dpr=1\u0026fit=crop\u0026h=200\u0026w=280"
      },
      "liked": false
    },
    {
      "id": 4610337,
      "width": 4800,
      "height": 6000,
      "url": "https://www.pexels.com/photo/water-splash-in-close-up-photography-4610337/",
      "photographer": "Jess Vide",
      "photographer_url": "https://www.pexels.com/@jess-vide",
      "photographer_id": 2653860,
      "avg_color": "#6993A0",
      "src": {
        "original": "https://images.pexels.com/photos/4610337/pexels-photo-4610337.jpeg",
        "large2x": "https://images.pexels.com/photos/4610337/pexels-photo-4610337.jpeg?auto=compress\u0026cs=tinysrgb\u0026dpr=2\u0026h=650\u0026w=940",
        "large": "https://images.pexels.com/photos/4610337/pexels-photo-4610337.jpeg?auto=compress\u0026cs=tinysrgb\u0026h=650\u0026w=940",
        "medium": "https://images.pexels.com/photos/4610337/pexels-photo-4610337.jpeg?auto=compress\u0026cs=tinysrgb\u0026h=350",
        "small": "https://images.pexels.com/photos/4610337/pexels-photo-4610337.jpeg?auto=compress\u0026cs=tinysrgb\u0026h=130",
        "portrait": "https://images.pexels.com/photos/4610337/pexels-photo-4610337.jpeg?auto=compress\u0026cs=tinysrgb\u0026fit=crop\u0026h=1200\u0026w=800",
        "landscape": "https://images.pexels.com/photos/4610337/pexels-photo-4610337.jpeg?auto=compress\u0026cs=tinysrgb\u0026fit=crop\u0026h=627\u0026w=1200",
        "tiny": "https://images.pexels.com/photos/4610337/pexels-photo-4610337.jpeg?auto=compress\u0026cs=tinysrgb\u0026dpr=1\u0026fit=crop\u0026h=200\u0026w=280"
      },
      "liked": false
    },
    {
      "id": 4327786,
      "width": 1687,
      "height": 3000,
      "url": "https://www.pexels.com/photo/aerial-view-of-people-swimming-on-sea-4327786/",
      "photographer": "Jess Vide",
      "photographer_url": "https://www.pexels.com/@jess-vide",
      "photographer_id": 2653860,
      "avg_color": "#2297A5",
      "src": {
        "original": "https://images.pexels.com/photos/4327786/pexels-photo-4327786.jpeg",
        "large2x": "https://images.pexels.com/photos/4327786/pexels-photo-4327786.jpeg?auto=compress\u0026cs=tinysrgb\u0026dpr=2\u0026h=650\u0026w=940",
        "large": "https://images.pexels.com/photos/4327786/pexels-photo-4327786.jpeg?auto=compress\u0026cs=tinysrgb\u0026h=650\u0026w=940",
        "medium": "https://images.pexels.com/photos/4327786/pexels-photo-4327786.jpeg?auto=compress\u0026cs=tinysrgb\u0026h=350",
        "small": "https://images.pexels.com/photos/4327786/pexels-photo-4327786.jpeg?auto=compress\u0026cs=tinysrgb\u0026h=130",
        "portrait": "https://images.pexels.com/photos/4327786/pexels-photo-4327786.jpeg?auto=compress\u0026cs=tinysrgb\u0026fit=crop\u0026h=1200\u0026w=800",
        "landscape": "https://images.pexels.com/photos/4327786/pexels-photo-4327786.jpeg?auto=compress\u0026cs=tinysrgb\u0026fit=crop\u0026h=627\u0026w=1200",
        "tiny": "https://images.pexels.com/photos/4327786/pexels-photo-4327786.jpeg?auto=compress\u0026cs=tinysrgb\u0026dpr=1\u0026fit=crop\u0026h=200\u0026w=280"
      },
      "liked": false
    },
    {
      "id": 3049348,
      "width": 5472,
      "height": 3648,
      "url": "https://www.pexels.com/photo/body-of-water-3049348/",
      "photographer": "JACK REDGATE",
      "photographer_url": "https://www.pexels.com/@jack-redgate-333633",
      "photographer_id": 333633,
      "avg_color": "#6C8F97",
      "src": {
        "original": "https://images.pexels.com/photos/3049348/pexels-photo-3049348.jpeg",
        "large2x": "https://images.pexels.com/photos/3049348/pexels-photo-3049348.jpeg?auto=compress\u0026cs=tinysrgb\u0026dpr=2\u0026h=650\u0026w=940",
        "large": "https://images.pexels.com/photos/3049348/pexels-photo-3049348.jpeg?auto=compress\u0026cs=tinysrgb\u0026h=650\u0026w=940",
        "medium": "https://images.pexels.com/photos/3049348/pexels-photo-3049348.jpeg?auto=compress\u0026cs=tinysrgb\u0026h=350",
        "small": "https://images.pexels.com/photos/3049348/pexels-photo-3049348.jpeg?auto=compress\u0026cs=tinysrgb\u0026h=130",
        "portrait": "https://images.pexels.com/photos/3049348/pexels-photo-3049348.jpeg?auto=compress\u0026cs=tinysrgb\u0026fit=crop\u0026h=1200\u0026w=800",
        "landscape": "https://images.pexels.com/photos/3049348/pexels-photo-3049348.jpeg?auto=compress\u0026cs=tinysrgb\u0026fit=crop\u0026h=627\u0026w=1200",
        "tiny": "https://images.pexels.com/photos/3049348/pexels-photo-3049348.jpeg?auto=compress\u0026cs=tinysrgb\u0026dpr=1\u0026fit=crop\u0026h=200\u0026w=280"
      },
      "liked": false
    },
    {
      "id": 3943905,
      "width": 4000,
      "height": 6000,
      "url": "https://www.pexels.com/photo/person-washing-hands-3943905/",
      "photographer": "Anna Shvets",
      "photographer_url": "https://www.pexels.com/@shvetsa",
      "photographer_id": 1984515,
      "avg_color": "#B7ADAD",
      "src": {
        "original": "https://images.pexels.com/photos/3943905/pexels-photo-3943905.jpeg",
        "large2x": "https://images.pexels.com/photos/3943905/pexels-photo-3943905.jpeg?auto=compress\u0026cs=tinysrgb\u0026dpr=2\u0026h=650\u0026w=940",
        "large": "https://images.pexels.com/photos/3943905/pexels-photo-3943905.jpeg?auto=compress\u0026cs=tinysrgb\u0026h=650\u0026w=940",
        "medium": "https://images.pexels.com/photos/3943905/pexels-photo-3943905.jpeg?auto=compress\u0026cs=tinysrgb\u0026h=350",
        "small": "https://images.pexels.com/photos/3943905/pexels-photo-3943905.jpeg?auto=compress\u0026cs=tinysrgb\u0026h=130",
        "portrait": "https://images.pexels.com/photos/3943905/pexels-photo-3943905.jpeg?auto=compress\u0026cs=tinysrgb\u0026fit=crop\u0026h=1200\u0026w=800",
        "landscape": "https://images.pexels.com/photos/3943905/pexels-photo-3943905.jpeg?auto=compress\u0026cs=tinysrgb\u0026fit=crop\u0026h=627\u0026w=1200",
        "tiny": "https://images.pexels.com/photos/3943905/pexels-photo-3943905.jpeg?auto=compress\u0026cs=tinysrgb\u0026dpr=1\u0026fit=crop\u0026h=200\u0026w=280"
      },
      "liked": false
    },
    {
      "id": 4065878,
      "width": 2832,
      "height": 4240,
      "url": "https://www.pexels.com/photo/green-plant-in-clear-glass-vase-4065878/",
      "photographer": "cottonbro",
      "photographer_url": "https://www.pexels.com/@cottonbro",
      "photographer_id": 1437723,
      "avg_color": "#9E9E99",
      "src": {
        "original": "https://images.pexels.com/photos/4065878/pexels-photo-4065878.jpeg",
        "large2x": "https://images.pexels.com/photos/4065878/pexels-photo-4065878.jpeg?auto=compress\u0026cs=tinysrgb\u0026dpr=2\u0026h=650\u0026w=940",
        "large": "https://images.pexels.com/photos/4065878/pexels-photo-4065878.jpeg?auto=compress\u0026cs=tinysrgb\u0026h=650\u0026w=940",
        "medium": "https://images.pexels.com/photos/4065878/pexels-photo-4065878.jpeg?auto=compress\u0026cs=tinysrgb\u0026h=350",
        "small": "https://images.pexels.com/photos/4065878/pexels-photo-4065878.jpeg?auto=compress\u0026cs=tinysrgb\u0026h=130",
        "portrait": "https://images.pexels.com/photos/4065878/pexels-photo-4065878.jpeg?auto=compress\u0026cs=tinysrgb\u0026fit=crop\u0026h=1200\u0026w=800",
        "landscape": "https://images.pexels.com/photos/4065878/pexels-photo-4065878.jpeg?auto=compress\u0026cs=tinysrgb\u0026fit=crop\u0026h=627\u0026w=1200",
        "tiny": "https://images.pexels.com/photos/4065878/pexels-photo-4065878.jpeg?auto=compress\u0026cs=tinysrgb\u0026dpr=1\u0026fit=crop\u0026h=200\u0026w=280"
      },
      "liked": false
    },
    {
      "id": 4098280,
      "width": 3795,
      "height": 5692,
      "url": "https://www.pexels.com/photo/person-in-white-dress-shirt-holding-clear-drinking-glass-4098280/",
      "photographer": "cottonbro",
      "photographer_url": "https://www.pexels.com/@cottonbro",
      "photographer_id": 1437723,
      "avg_color": "#C5C4C5",
      "src": {
        "original": "https://images.pexels.com/photos/4098280/pexels-photo-4098280.jpeg",
        "large2x": "https://images.pexels.com/photos/4098280/pexels-photo-4098280.jpeg?auto=compress\u0026cs=tinysrgb\u0026dpr=2\u0026h=650\u0026w=940",
        "large": "https://images.pexels.com/photos/4098280/pexels-photo-4098280.jpeg?auto=compress\u0026cs=tinysrgb\u0026h=650\u0026w=940",
        "medium": "https://images.pexels.com/photos/4098280/pexels-photo-4098280.jpeg?auto=compress\u0026cs=tinysrgb\u0026h=350",
        "small": "https://images.pexels.com/photos/4098280/pexels-photo-4098280.jpeg?auto=compress\u0026cs=tinysrgb\u0026h=130",
        "portrait": "https://images.pexels.com/photos/4098280/pexels-photo-4098280.jpeg?auto=compress\u0026cs=tinysrgb\u0026fit=crop\u0026h=1200\u0026w=800",
        "landscape": "https://images.pexels.com/photos/4098280/pexels-photo-4098280.jpeg?auto=compress\u0026cs=tinysrgb\u0026fit=crop\u0026h=627\u0026w=1200",
        "tiny": "https://images.pexels.com/photos/4098280/pexels-photo-4098280.jpeg?auto=compress\u0026cs=tinysrgb\u0026dpr=1\u0026fit=crop\u0026h=200\u0026w=280"
      },
      "liked": false
    },
    {
      "id": 1458671,
      "width": 5760,
      "height": 3840,
      "url": "https://www.pexels.com/photo/woman-drinking-water-1458671/",
      "photographer": "Daria Shevtsova",
      "photographer_url": "https://www.pexels.com/@daria",
      "photographer_id": 220024,
      "avg_color": "#B59476",
      "src": {
        "original": "https://images.pexels.com/photos/1458671/pexels-photo-1458671.jpeg",
        "large2x": "https://images.pexels.com/photos/1458671/pexels-photo-1458671.jpeg?auto=compress\u0026cs=tinysrgb\u0026dpr=2\u0026h=650\u0026w=940",
        "large": "https://images.pexels.com/photos/1458671/pexels-photo-1458671.jpeg?auto=compress\u0026cs=tinysrgb\u0026h=650\u0026w=940",
        "medium": "https://images.pexels.com/photos/1458671/pexels-photo-1458671.jpeg?auto=compress\u0026cs=tinysrgb\u0026h=350",
        "small": "https://images.pexels.com/photos/1458671/pexels-photo-1458671.jpeg?auto=compress\u0026cs=tinysrgb\u0026h=130",
        "portrait": "https://images.pexels.com/photos/1458671/pexels-photo-1458671.jpeg?auto=compress\u0026cs=tinysrgb\u0026fit=crop\u0026h=1200\u0026w=800",
        "landscape": "https://images.pexels.com/photos/1458671/pexels-photo-1458671.jpeg?auto=compress\u0026cs=tinysrgb\u0026fit=crop\u0026h=627\u0026w=1200",
        "tiny": "https://images.pexels.com/photos/1458671/pexels-photo-1458671.jpeg?auto=compress\u0026cs=tinysrgb\u0026dpr=1\u0026fit=crop\u0026h=200\u0026w=280"
      },
      "liked": false
    },
    {
      "id": 564899,
      "width": 2538,
      "height": 3472,
      "url": "https://www.pexels.com/photo/beach-shore-564899/",
      "photographer": "Adrianna Calvo",
      "photographer_url": "https://www.pexels.com/@adriannaca",
      "photographer_id": 118468,
      "avg_color": "#657669",
      "src": {
        "original": "https://images.pexels.com/photos/564899/pexels-photo-564899.jpeg",
        "large2x": "https://images.pexels.com/photos/564899/pexels-photo-564899.jpeg?auto=compress\u0026cs=tinysrgb\u0026dpr=2\u0026h=650\u0026w=940",
        "large": "https://images.pexels.com/photos/564899/pexels-photo-564899.jpeg?auto=compress\u0026cs=tinysrgb\u0026h=650\u0026w=940",
        "medium": "https://images.pexels.com/photos/564899/pexels-photo-564899.jpeg?auto=compress\u0026cs=tinysrgb\u0026h=350",
        "small": "https://images.pexels.com/photos/564899/pexels-photo-564899.jpeg?auto=compress\u0026cs=tinysrgb\u0026h=130",
        "portrait": "https://images.pexels.com/photos/564899/pexels-photo-564899.jpeg?auto=compress\u0026cs=tinysrgb\u0026fit=crop\u0026h=1200\u0026w=800",
        "landscape": "https://images.pexels.com/photos/564899/pexels-photo-564899.jpeg?auto=compress\u0026cs=tinysrgb\u0026fit=crop\u0026h=627\u0026w=1200",
        "tiny": "https://images.pexels.com/photos/564899/pexels-photo-564899.jpeg?auto=compress\u0026cs=tinysrgb\u0026dpr=1\u0026fit=crop\u0026h=200\u0026w=280"
      },
      "liked": false
    },
    {
      "id": 4609300,
      "width": 3600,
      "height": 4500,
      "url": "https://www.pexels.com/photo/woman-in-blue-bikini-top-swimming-in-water-4609300/",
      "photographer": "Jess Vide",
      "photographer_url": "https://www.pexels.com/@jess-vide",
      "photographer_id": 2653860,
      "avg_color": "#A8B7A1",
      "src": {
        "original": "https://images.pexels.com/photos/4609300/pexels-photo-4609300.jpeg",
        "large2x": "https://images.pexels.com/photos/4609300/pexels-photo-4609300.jpeg?auto=compress\u0026cs=tinysrgb\u0026dpr=2\u0026h=650\u0026w=940",
        "large": "https://images.pexels.com/photos/4609300/pexels-photo-4609300.jpeg?auto=compress\u0026cs=tinysrgb\u0026h=650\u0026w=940",
        "medium": "https://images.pexels.com/photos/4609300/pexels-photo-4609300.jpeg?auto=compress\u0026cs=tinysrgb\u0026h=350",
        "small": "https://images.pexels.com/photos/4609300/pexels-photo-4609300.jpeg?auto=compress\u0026cs=tinysrgb\u0026h=130",
        "portrait": "https://images.pexels.com/photos/4609300/pexels-photo-4609300.jpeg?auto=compress\u0026cs=tinysrgb\u0026fit=crop\u0026h=1200\u0026w=800",
        "landscape": "https://images.pexels.com/photos/4609300/pexels-photo-4609300.jpeg?auto=compress\u0026cs=tinysrgb\u0026fit=crop\u0026h=627\u0026w=1200",
        "tiny": "https://images.pexels.com/photos/4609300/pexels-photo-4609300.jpeg?auto=compress\u0026cs=tinysrgb\u0026dpr=1\u0026fit=crop\u0026h=200\u0026w=280"
      },
      "liked": false
    },
    {
      "id": 4672521,
      "width": 4480,
      "height": 6720,
      "url": "https://www.pexels.com/photo/photo-of-woman-sitting-on-bathtub-4672521/",
      "photographer": "Ekaterina Bolovtsova",
      "photographer_url": "https://www.pexels.com/@ekaterina-bolovtsova",
      "photographer_id": 2408093,
      "avg_color": "#CDCAC3",
      "src": {
        "original": "https://images.pexels.com/photos/4672521/pexels-photo-4672521.jpeg",
        "large2x": "https://images.pexels.com/photos/4672521/pexels-photo-4672521.jpeg?auto=compress\u0026cs=tinysrgb\u0026dpr=2\u0026h=650\u0026w=940",
        "large": "https://images.pexels.com/photos/4672521/pexels-photo-4672521.jpeg?auto=compress\u0026cs=tinysrgb\u0026h=650\u0026w=940",
        "medium": "https://images.pexels.com/photos/4672521/pexels-photo-4672521.jpeg?auto=compress\u0026cs=tinysrgb\u0026h=350",
        "small": "https://images.pexels.com/photos/4672521/pexels-photo-4672521.jpeg?auto=compress\u0026cs=tinysrgb\u0026h=130",
        "portrait": "https://images.pexels.com/photos/4672521/pexels-photo-4672521.jpeg?auto=compress\u0026cs=tinysrgb\u0026fit=crop\u0026h=1200\u0026w=800",
        "landscape": "https://images.pexels.com/photos/4672521/pexels-photo-4672521.jpeg?auto=compress\u0026cs=tinysrgb\u0026fit=crop\u0026h=627\u0026w=1200",
        "tiny": "https://images.pexels.com/photos/4672521/pexels-photo-4672521.jpeg?auto=compress\u0026cs=tinysrgb\u0026dpr=1\u0026fit=crop\u0026h=200\u0026w=280"
      },
      "liked": false
    },
    {
      "id": 4098281,
      "width": 5941,
      "height": 3961,
      "url": "https://www.pexels.com/photo/clear-drinking-glass-on-table-4098281/",
      "photographer": "cottonbro",
      "photographer_url": "https://www.pexels.com/@cottonbro",
      "photographer_id": 1437723,
      "avg_color": "#A1A4A7",
      "src": {
        "original": "https://images.pexels.com/photos/4098281/pexels-photo-4098281.jpeg",
        "large2x": "https://images.pexels.com/photos/4098281/pexels-photo-4098281.jpeg?auto=compress\u0026cs=tinysrgb\u0026dpr=2\u0026h=650\u0026w=940",
        "large": "https://images.pexels.com/photos/4098281/pexels-photo-4098281.jpeg?auto=compress\u0026cs=tinysrgb\u0026h=650\u0026w=940",
        "medium": "https://images.pexels.com/photos/4098281/pexels-photo-4098281.jpeg?auto=compress\u0026cs=tinysrgb\u0026h=350",
        "small": "https://images.pexels.com/photos/4098281/pexels-photo-4098281.jpeg?auto=compress\u0026cs=tinysrgb\u0026h=130",
        "portrait": "https://images.pexels.com/photos/4098281/pexels-photo-4098281.jpeg?auto=compress\u0026cs=tinysrgb\u0026fit=crop\u0026h=1200\u0026w=800",
        "landscape": "https://images.pexels.com/photos/4098281/pexels-photo-4098281.jpeg?auto=compress\u0026cs=tinysrgb\u0026fit=crop\u0026h=627\u0026w=1200",
        "tiny": "https://images.pexels.com/photos/4098281/pexels-photo-4098281.jpeg?auto=compress\u0026cs=tinysrgb\u0026dpr=1\u0026fit=crop\u0026h=200\u0026w=280"
      },
      "liked": false
    },
    {
      "id": 4321565,
      "width": 4800,
      "height": 6000,
      "url": "https://www.pexels.com/photo/people-swimming-in-the-sea-4321565/",
      "photographer": "Jess Vide",
      "photographer_url": "https://www.pexels.com/@jess-vide",
      "photographer_id": 2653860,
      "avg_color": "#6EACB3",
      "src": {
        "original": "https://images.pexels.com/photos/4321565/pexels-photo-4321565.jpeg",
        "large2x": "https://images.pexels.com/photos/4321565/pexels-photo-4321565.jpeg?auto=compress\u0026cs=tinysrgb\u0026dpr=2\u0026h=650\u0026w=940",
        "large": "https://images.pexels.com/photos/4321565/pexels-photo-4321565.jpeg?auto=compress\u0026cs=tinysrgb\u0026h=650\u0026w=940",
        "medium": "https://images.pexels.com/photos/4321565/pexels-photo-4321565.jpeg?auto=compress\u0026cs=tinysrgb\u0026h=350",
        "small": "https://images.pexels.com/photos/4321565/pexels-photo-4321565.jpeg?auto=compress\u0026cs=tinysrgb\u0026h=130",
        "portrait": "https://images.pexels.com/photos/4321565/pexels-photo-4321565.jpeg?auto=compress\u0026cs=tinysrgb\u0026fit=crop\u0026h=1200\u0026w=800",
        "landscape": "https://images.pexels.com/photos/4321565/pexels-photo-4321565.jpeg?auto=compress\u0026cs=tinysrgb\u0026fit=crop\u0026h=627\u0026w=1200",
        "tiny": "https://images.pexels.com/photos/4321565/pexels-photo-4321565.jpeg?auto=compress\u0026cs=tinysrgb\u0026dpr=1\u0026fit=crop\u0026h=200\u0026w=280"
      },
      "liked": false
    },
    {
      "id": 4420454,
      "width": 3024,
      "height": 4032,
      "url": "https://www.pexels.com/photo/water-drops-on-a-glass-surface-4420454/",
      "photographer": "Dids",
      "photographer_url": "https://www.pexels.com/@didsss",
      "photographer_id": 447505,
      "avg_color": "#5D6F7D",
      "src": {
        "original": "https://images.pexels.com/photos/4420454/pexels-photo-4420454.jpeg",
        "large2x": "https://images.pexels.com/photos/4420454/pexels-photo-4420454.jpeg?auto=compress\u0026cs=tinysrgb\u0026dpr=2\u0026h=650\u0026w=940",
        "large": "https://images.pexels.com/photos/4420454/pexels-photo-4420454.jpeg?auto=compress\u0026cs=tinysrgb\u0026h=650\u0026w=940",
        "medium": "https://images.pexels.com/photos/4420454/pexels-photo-4420454.jpeg?auto=compress\u0026cs=tinysrgb\u0026h=350",
        "small": "https://images.pexels.com/photos/4420454/pexels-photo-4420454.jpeg?auto=compress\u0026cs=tinysrgb\u0026h=130",
        "portrait": "https://images.pexels.com/photos/4420454/pexels-photo-4420454.jpeg?auto=compress\u0026cs=tinysrgb\u0026fit=crop\u0026h=1200\u0026w=800",
        "landscape": "https://images.pexels.com/photos/4420454/pexels-photo-4420454.jpeg?auto=compress\u0026cs=tinysrgb\u0026fit=crop\u0026h=627\u0026w=1200",
        "tiny": "https://images.pexels.com/photos/4420454/pexels-photo-4420454.jpeg?auto=compress\u0026cs=tinysrgb\u0026dpr=1\u0026fit=crop\u0026h=200\u0026w=280"
      },
      "liked": false
    }
  ],
  "total_results": 8000,
  "next_page": "https://api.pexels.com/v1/search/?page=2\u0026per_page=15\u0026query=water"
}
