{
  "page": 1,
  "per_page": 15,
  "photos": [
    {
      "id": 3732527,
      "width": 2918,
      "height": 3631,
      "url": "https://www.pexels.com/photo/leafless-tree-under-gray-sky-3732527/",
      "photographer": "Simon Berger",
      "photographer_url": "https://www.pexels.com/@8moments",
      "photographer_id": 181980,
      "avg_color": "#A2B1C6",
      "src": {
        "original": "https://images.pexels.com/photos/3732527/pexels-photo-3732527.jpeg",
        "large2x": "https://images.pexels.com/photos/3732527/pexels-photo-3732527.jpeg?auto=compress\u0026cs=tinysrgb\u0026dpr=2\u0026h=650\u0026w=940",
        "large": "https://images.pexels.com/photos/3732527/pexels-photo-3732527.jpeg?auto=compress\u0026cs=tinysrgb\u0026h=650\u0026w=940",
        "medium": "https://images.pexels.com/photos/3732527/pexels-photo-3732527.jpeg?auto=compress\u0026cs=tinysrgb\u0026h=350",
        "small": "https://images.pexels.com/photos/3732527/pexels-photo-3732527.jpeg?auto=compress\u0026cs=tinysrgb\u0026h=130",
        "portrait": "https://images.pexels.com/photos/3732527/pexels-photo-3732527.jpeg?auto=compress\u0026cs=tinysrgb\u0026fit=crop\u0026h=1200\u0026w=800",
        "landscape": "https://images.pexels.com/photos/3732527/pexels-photo-3732527.jpeg?auto=compress\u0026cs=tinysrgb\u0026fit=crop\u0026h=627\u0026w=1200",
        "tiny": "https://images.pexels.com/photos/3732527/pexels-photo-3732527.jpeg?auto=compress\u0026cs=tinysrgb\u0026dpr=1\u0026fit=crop\u0026h=200\u0026w=280"
      },
      "liked": false
    },
    {
      "id": 3363359,
      "width": 2500,
      "height": 3125,
      "url": "https://www.pexels.com/photo/photography-of-snow-capped-mountain-3363359/",
      "photographer": "Zack Melhus",
      "photographer_url": "https://www.pexels.com/@zmelhus",
      "photographer_id": 1787606,
      "avg_color": "#9DA9B3",
      "src": {
        "original": "https://images.pexels.com/photos/3363359/pexels-photo-3363359.jpeg",
        "large2x": "https://images.pexels.com/photos/3363359/pexels-photo-3363359.jpeg?auto=compress\u0026cs=tinysrgb\u0026dpr=2\u0026h=650\u0026w=940",
        "large": "https://images.pexels.com/photos/3363359/pexels-photo-3363359.jpeg?auto=compress\u0026cs=tinysrgb\u0026h=650\u0026w=940",
        "medium": "https://images.pexels.com/photos/3363359/pexels-photo-3363359.jpeg?auto=compress\u0026cs=tinysrgb\u0026h=350",
        "small": "https://images.pexels.com/photos/3363359/pexels-photo-3363359.jpeg?auto=compress\u0026cs=tinysrgb\u0026h=130",
        "portrait": "https://images.pexels.com/photos/3363359/pexels-photo-3363359.jpeg?auto=compress\u0026cs=tinysrgb\u0026fit=crop\u0026h=1200\u0026w=800",
        "landscape": "https://images.pexels.com/photos/3363359/pexels-photo-3363359.jpeg?auto=compress\u0026cs=tinysrgb\u0026fit=crop\u0026h=627\u0026w=1200",
        "tiny": "https://images.pexels.com/photos/3363359/pexels-photo-3363359.jpeg?auto=compress\u0026cs=tinysrgb\u0026dpr=1\u0026fit=crop\u0026h=200\u0026w=280"
      },
      "liked": false
    },
    {
      "id": 1978126,
      "width": 3648,
      "height": 5472,
      "url": "https://www.pexels.com/photo/photo-of-snow-field-near-trees-1978126/",
      "photographer": "Burak K",
      "photographer_url": "https://www.pexels.com/@weekendplayer",
      "photographer_id": 7528,
      "avg_color": "#929FAA",
      "src": {
        "original": "https://images.pexels.com/photos/1978126/pexels-photo-1978126.jpeg",
        "large2x": "https://images.pexels.com/photos/1978126/pexels-photo-1978126.jpeg?auto=compress\u0026cs=tinysrgb\u0026dpr=2\u0026h=650\u0026w=940",
        "large": "https://images.pexels.com/photos/1978126/pexels-photo-1978126.jpeg?auto=compress\u0026cs=tinysrgb\u0026h=650\u0026w=940",
        "medium": "https://images.pexels.com/photos/1978126/pexels-photo-1978126.jpeg?auto=compress\u0026cs=tinysrgb\u0026h=350",
        "small": "https://images.pexels.com/photos/1978126/pexels-photo-1978126.jpeg?auto=compress\u0026cs=tinysrgb\u0026h=130",
        "portrait": "https://images.pexels.com/photos/1978126/pexels-photo-1978126.jpeg?auto=compress\u0026cs=tinysrgb\u0026fit=crop\u0026h=1200\u0026w=800",
        "landscape": "https://images.pexels.com/photos/1978126/pexels-photo-1978126.jpeg?auto=compress\u0026cs=tinysrgb\u0026fit=crop\u0026h=627\u0026w=1200",
        "tiny": "https://images.pexels.com/photos/1978126/pexels-photo-1978126.jpeg?auto=compress\u0026cs=tinysrgb\u0026dpr=1\u0026fit=crop\u0026h=200\u0026w=280"
      },
      "liked": false
    },
    {
      "id": 2422497,
      "width": 3154,
      "height": 3942,
      "url": "https://www.pexels.com/photo/person-standing-in-front-of-a-train-2422497/",
      "photographer": "Josh Hild",
      "photographer_url": "https://www.pexels.com/@josh-hild-1270765",
      "photographer_id": 1270765,
      "avg_color": "#35545B",
      "src": {
        "original": "https://images.pexels.com/photos/2422497/pexels-photo-2422497.jpeg",
        "large2x": "https://images.pexels.com/photos/2422497/pexels-photo-2422497.jpeg?auto=compress\u0026cs=tinysrgb\u0026dpr=2\u0026h=650\u0026w=940",
        "large": "https://images.pexels.com/photos/2422497/pexels-photo-2422497.jpeg?auto=compress\u0026cs=tinysrgb\u0026h=650\u0026w=940",
        "medium": "https://images.pexels.com/photos/2422497/pexels-photo-2422497.jpeg?auto=compress\u0026cs=tinysrgb\u0026h=350",
        "small": "https://images.pexels.com/photos/2422497/pexels-photo-2422497.jpeg?auto=compress\u0026cs=tinysrgb\u0026h=130",
        "portrait": "https://images.pexels.com/photos/2422497/pexels-photo-2422497.jpeg?auto=compress\u0026cs=tinysrgb\u0026fit=crop\u0026h=1200\u0026w=800",
        "landscape": "https://images.pexels.com/photos/2422497/pexels-photo-2422497.jpeg?auto=compress\u0026cs=tinysrgb\u0026fit=crop\u0026h=627\u0026w=1200",
        "tiny": "https://images.pexels.com/photos/2422497/pexels-photo-2422497.jpeg?auto=compress\u0026cs=tinysrgb\u0026dpr=1\u0026fit=crop\u0026h=200\u0026w=280"
      },
      "liked": false
    },
    {
      "id": 3265460,
      "width": 3959,
      "height": 5939,
      "url": "https://www.pexels.com/photo/reflection-of-trees-3265460/",
      "photographer": "Stijn Dijkstra",
      "photographer_url": "https://www.pexels.com/@stijn-dijkstra-1306815",
      "photographer_id": 1306815,
      "avg_color": "#829DAB",
      "src": {
        "original": "https://images.pexels.com/photos/3265460/pexels-photo-3265460.jpeg",
        "large2x": "https://images.pexels.com/photos/3265460/pexels-photo-3265460.jpeg?auto=compress\u0026cs=tinysrgb\u0026dpr=2\u0026h=650\u0026w=940",
        "large": "https://images.pexels.com/photos/3265460/pexels-photo-3265460.jpeg?auto=compress\u0026cs=tinysrgb\u0026h=650\u0026w=940",
        "medium": "https://images.pexels.com/photos/3265460/pexels-photo-3265460.jpeg?auto=compress\u0026cs=tinysrgb\u0026h=350",
        "small": "https://images.pexels.com/photos/3265460/pexels-photo-3265460.jpeg?auto=compress\u0026cs=tinysrgb\u0026h=130",
        "portrait": "https://images.pexels.com/photos/3265460/pexels-photo-3265460.jpeg?auto=compress\u0026cs=tinysrgb\u0026fit=crop\u0026h=1200\u0026w=800",
        "landscape": "https://images.pexels.com/photos/3265460/pexels-photo-3265460.jpeg?auto=compress\u0026cs=tinysrgb\u0026fit=crop\u0026h=627\u0026w=1200",
        "tiny": "https://images.pexels.com/photos/3265460/pexels-photo-3265460.jpeg?auto=compress\u0026cs=tinysrgb\u0026dpr=1\u0026fit=crop\u0026h=200\u0026w=280"
      },
      "liked": false
    },
    {
      "id": 624015,
      "width": 4216,
      "height": 2848,
      "url": "https://www.pexels.com/photo/aurora-borealis-624015/",
      "photographer": "Frans Van Heerden",
      "photographer_url": "https://www.pexels.com/@frans-van-heerden-201846",
      "photographer_id": 201846,
      "avg_color": "#71839F",
      "src": {
        "original": "https://images.pexels.com/photos/624015/pexels-photo-624015.jpeg",
        "large2x": "https://images.pexels.com/photos/624015/pexels-photo-624015.jpeg?auto=compress\u0026cs=tinysrgb\u0026dpr=2\u0026h=650\u0026w=940",
        "large": "https://images.pexels.com/photos/624015/pexels-photo-624015.jpeg?auto=compress\u0026cs=tinysrgb\u0026h=650\u0026w=940",
        "medium": "https://images.pexels.com/photos/624015/pexels-photo-624015.jpeg?auto=compress\u0026cs=tinysrgb\u0026h=350",
        "small": "https://images.pexels.com/photos/624015/pexels-photo-624015.jpeg?auto=compress\u0026cs=tinysrgb\u0026h=130",
        "portrait": "https://images.pexels.com/photos/624015/pexels-photo-624015.jpeg?auto=compress\u0026cs=tinysrgb\u0026fit=crop\u0026h=1200\u0026w=800",
        "landscape": "https://images.pexels.com/photos/624015/pexels-photo-624015.jpeg?auto=compress\u0026cs=tinysrgb\u0026fit=crop\u0026h=627\u0026w=1200",
        "tiny": "https://images.pexels.com/photos/624015/pexels-photo-624015.jpeg?auto=compress\u0026cs=tinysrgb\u0026dpr=1\u0026fit=crop\u0026h=200\u0026w=280"
      },
      "liked": false
    },
    {
      "id": 890049,
      "width": 3840,
      "height": 5760,
      "url": "https://www.pexels.com/photo/worm-eye-view-of-trees-890049/",
      "photographer": "Oleg Magni",
      "photographer_url": "https://www.pexels.com/@oleg-magni",
      "photographer_id": 293608,
      "avg_color": "#ACB4BD",
      "src": {
        "original": "https://images.pexels.com/photos/890049/pexels-photo-890049.jpeg",
        "large2x": "https://images.pexels.com/photos/890049/pexels-photo-890049.jpeg?auto=compress\u0026cs=tinysrgb\u0026dpr=2\u0026h=650\u0026w=940",
        "large": "https://images.pexels.com/photos/890049/pexels-photo-890049.jpeg?auto=compress\u0026cs=tinysrgb\u0026h=650\u0026w=940",
        "medium": "https://images.pexels.com/photos/890049/pexels-photo-890049.jpeg?auto=compress\u0026cs=tinysrgb\u0026h=350",
        "small": "https://images.pexels.com/photos/890049/pexels-photo-890049.jpeg?auto=compress\u0026cs=tinysrgb\u0026h=130",
        "portrait": "https://images.pexels.com/photos/890049/pexels-photo-890049.jpeg?auto=compress\u0026cs=tinysrgb\u0026fit=crop\u0026h=1200\u0026w=800",
        "landscape": "https://images.pexels.com/photos/890049/pexels-photo-890049.jpeg?auto=compress\u0026cs=tinysrgb\u0026fit=crop\u0026h=627\u0026w=1200",
        "tiny": "https://images.pexels.com/photos/890049/pexels-photo-890049.jpeg?auto=compress\u0026cs=tinysrgb\u0026dpr=1\u0026fit=crop\u0026h=200\u0026w=280"
      },
      "liked": false
    },
    {
      "id": 954713,
      "width": 3456,
      "height": 5184,
      "url": "https://www.pexels.com/photo/brown-outdoor-bench-with-snow-on-top-954713/",
      "photographer": "Trang Pham",
      "photographer_url": "https://www.pexels.com/@trang-pham-294089",
      "photographer_id": 294089,
      "avg_color": "#B2B6BD",
      "src": {
        "original": "https://images.pexels.com/photos/954713/pexels-photo-954713.jpeg",
        "large2x": "https://images.pexels.com/photos/954713/pexels-photo-954713.jpeg?auto=compress\u0026cs=tinysrgb\u0026dpr=2\u0026h=650\u0026w=940",
        "large": "https://images.pexels.com/photos/954713/pexels-photo-954713.jpeg?auto=compress\u0026cs=tinysrgb\u0026h=650\u0026w=940",
        "medium": "https://images.pexels.com/photos/954713/pexels-photo-954713.jpeg?auto=compress\u0026cs=tinysrgb\u0026h=350",
        "small": "https://images.pexels.com/photos/954713/pexels-photo-954713.jpeg?auto=compress\u0026cs=tinysrgb\u0026h=130",
        "portrait": "https://images.pexels.com/photos/954713/pexels-photo-954713.jpeg?auto=compress\u0026cs=tinysrgb\u0026fit=crop\u0026h=1200\u0026w=800",
        "landscape": "https://images.pexels.com/photos/954713/pexels-photo-954713.jpeg?auto=compress\u0026cs=tinysrgb\u0026fit=crop\u0026h=627\u0026w=1200",
        "tiny": "https://images.pexels.com/photos/954713/pexels-photo-954713.jpeg?auto=compress\u0026cs=tinysrgb\u0026dpr=1\u0026fit=crop\u0026h=200\u0026w=280"
      },
      "liked": false
    },
    {
      "id": 1438761,
      "width": 3200,
      "height": 1800,
      "url": "https://www.pexels.com/photo/aerial-photography-of-snow-covered-trees-1438761/",
      "photographer": "Ruvim Miksanskiy",
      "photographer_url": "https://www.pexels.com/@digitech",
      "photographer_id": 574687,
      "avg_color": "#688FB4",
      "src": {
        "original": "https://images.pexels.com/photos/1438761/pexels-photo-1438761.jpeg",
        "large2x": "https://images.pexels.com/photos/1438761/pexels-photo-1438761.jpeg?auto=compress\u0026cs=tinysrgb\u0026dpr=2\u0026h=650\u0026w=940",
        "large": "https://images.pexels.com/photos/1438761/pexels-photo-1438761.jpeg?auto=compress\u0026cs=tinysrgb\u0026h=650\u0026w=940",
        "medium": "https://images.pexels.com/photos/1438761/pexels-photo-1438761.jpeg?auto=compress\u0026cs=tinysrgb\u0026h=350",
        "small": "https://images.pexels.com/photos/1438761/pexels-photo-1438761.jpeg?auto=compress\u0026cs=tinysrgb\u0026h=130",
        "portrait": "https://images.pexels.com/photos/1438761/pexels-photo-1438761.jpeg?auto=compress\u0026cs=tinysrgb\u0026fit=crop\u0026h=1200\u0026w=800",
        "landscape": "https://images.pexels.com/photos/1438761/pexels-photo-1438761.jpeg?auto=compress\u0026cs=tinysrgb\u0026fit=crop\u0026h=627\u0026w=1200",
        "tiny": "https://images.pexels.com/photos/1438761/pexels-photo-1438761.jpeg?auto=compress\u0026cs=tinysrgb\u0026dpr=1\u0026fit=crop\u0026h=200\u0026w=280"
      },
      "liked": false
    },
    {
      "id": 1755243,
      "width": 5440,
      "height": 8160,
      "url": "https://www.pexels.com/photo/snow-covered-mountain-1755243/",
      "photographer": "Zhaocan Li",
      "photographer_url": "https://www.pexels.com/@skylar-t800",
      "photographer_id": 861078,
      "avg_color": "#A9B0C3",
      "src": {
        "original": "https://images.pexels.com/photos/1755243/pexels-photo-1755243.jpeg",
        "large2x": "https://images.pexels.com/photos/1755243/pexels-photo-1755243.jpeg?auto=compress\u0026cs=tinysrgb\u0026dpr=2\u0026h=650\u0026w=940",
        "large": "https://images.pexels.com/photos/1755243/pexels-photo-1755243.jpeg?auto=compress\u0026cs=tinysrgb\u0026h=650\u0026w=940",
        "medium": "https://images.pexels.com/photos/1755243/pexels-photo-1755243.jpeg?auto=compress\u0026cs=tinysrgb\u0026h=350",
        "small": "https://images.pexels.com/photos/1755243/pexels-photo-1755243.jpeg?auto=compress\u0026cs=tinysrgb\u0026h=130",
        "portrait": "https://images.pexels.com/photos/1755243/pexels-photo-1755243.jpeg?auto=compress\u0026cs=tinysrgb\u0026fit=crop\u0026h=1200\u0026w=800",
        "landscape": "https://images.pexels.com/photos/1755243/pexels-photo-1755243.jpeg?auto=compress\u0026cs=tinysrgb\u0026fit=crop\u0026h=627\u0026w=1200",
        "tiny": "https://images.pexels.com/photos/1755243/pexels-photo-1755243.jpeg?auto=compress\u0026cs=tinysrgb\u0026dpr=1\u0026fit=crop\u0026h=200\u0026w=280"
      },
      "liked": false
    },
    {
      "id": 3375674,
      "width": 3949,
      "height": 4936,
      "url": "https://www.pexels.com/photo/house-field-and-tree-covered-with-snow-near-body-of-water-3375674/",
      "photographer": "Luca Chiandoni",
      "photographer_url": "https://www.pexels.com/@luca-chiandoni-1804165",
      "photographer_id": 1804165,
      "avg_color": "#7E8D9B",
      "src": {
        "original": "https://images.pexels.com/photos/3375674/pexels-photo-3375674.jpeg",
        "large2x": "https://images.pexels.com/photos/3375674/pexels-photo-3375674.jpeg?auto=compress\u0026cs=tinysrgb\u0026dpr=2\u0026h=650\u0026w=940",
        "large": "https://images.pexels.com/photos/3375674/pexels-photo-3375674.jpeg?auto=compress\u0026cs=tinysrgb\u0026h=650\u0026w=940",
        "medium": "https://images.pexels.com/photos/3375674/pexels-photo-3375674.jpeg?auto=compress\u0026cs=tinysrgb\u0026h=350",
        "small": "https://images.pexels.com/photos/3375674/pexels-photo-3375674.jpeg?auto=compress\u0026cs=tinysrgb\u0026h=130",
        "portrait": "https://images.pexels.com/photos/3375674/pexels-photo-3375674.jpeg?auto=compress\u0026cs=tinysrgb\u0026fit=crop\u0026h=1200\u0026w=800",
        "landscape": "https://images.pexels.com/photos/3375674/pexels-photo-3375674.jpeg?auto=compress\u0026cs=tinysrgb\u0026fit=crop\u0026h=627\u0026w=1200",
        "tiny": "https://images.pexels.com/photos/3375674/pexels-photo-3375674.jpeg?auto=compress\u0026cs=tinysrgb\u0026dpr=1\u0026fit=crop\u0026h=200\u0026w=280"
      },
      "liked": false
    },
    {
      "id": 3540375,
      "width": 2248,
      "height": 2810,
      "url": "https://www.pexels.com/photo/aerial-photography-of-house-field-and-trees-covered-with-snow-3540375/",
      "photographer": "Mohan Reddy Atalu",
      "photographer_url": "https://www.pexels.com/@mohan-reddy-atalu-1263154",
      "photographer_id": 1263154,
      "avg_color": "#8B8F96",
      "src": {
        "original": "https://images.pexels.com/photos/3540375/pexels-photo-3540375.jpeg",
        "large2x": "https://images.pexels.com/photos/3540375/pexels-photo-3540375.jpeg?auto=compress\u0026cs=tinysrgb\u0026dpr=2\u0026h=650\u0026w=940",
        "large": "https://images.pexels.com/photos/3540375/pexels-photo-3540375.jpeg?auto=compress\u0026cs=tinysrgb\u0026h=650\u0026w=940",
        "medium": "https://images.pexels.com/photos/3540375/pexels-photo-3540375.jpeg?auto=compress\u0026cs=tinysrgb\u0026h=350",
        "small": "https://images.pexels.com/photos/3540375/pexels-photo-3540375.jpeg?auto=compress\u0026cs=tinysrgb\u0026h=130",
        "portrait": "https://images.pexels.com/photos/3540375/pexels-photo-3540375.jpeg?auto=compress\u0026cs=tinysrgb\u0026fit=crop\u0026h=1200\u0026w=800",
        "landscape": "https://images.pexels.com/photos/3540375/pexels-photo-3540375.jpeg?auto=compress\u0026cs=tinysrgb\u0026fit=crop\u0026h=627\u0026w=1200",
        "tiny": "https://images.pexels.com/photos/3540375/pexels-photo-3540375.jpeg?auto=compress\u0026cs=tinysrgb\u0026dpr=1\u0026fit=crop\u0026h=200\u0026w=280"
      },
      "liked": false
    },
    {
      "id": 3551230,
      "width": 3024,
      "height": 4032,
      "url": "https://www.pexels.com/photo/brown-wooden-house-in-the-middle-of-forest-during-night-time-3551230/",
      "photographer": "Aleksey Kuprikov",
      "photographer_url": "https://www.pexels.com/@aleksey-kuprikov-1883853",
      "photographer_id": 1883853,
      "avg_color": "#373334",
      "src": {
        "original": "https://images.pexels.com/photos/3551230/pexels-photo-3551230.jpeg",
        "large2x": "https://images.pexels.com/photos/3551230/pexels-photo-3551230.jpeg?auto=compress\u0026cs=tinysrgb\u0026dpr=2\u0026h=650\u0026w=940",
        "large": "https://images.pexels.com/photos/3551230/pexels-photo-3551230.jpeg?auto=compress\u0026cs=tinysrgb\u0026h=650\u0026w=940",
        "medium": "https://images.pexels.com/photos/3551230/pexels-photo-3551230.jpeg?auto=compress\u0026cs=tinysrgb\u0026h=350",
        "small": "https://images.pexels.com/photos/3551230/pexels-photo-3551230.jpeg?auto=compress\u0026cs=tinysrgb\u0026h=130",
        "portrait": "https://images.pexels.com/photos/3551230/pexels-photo-3551230.jpeg?auto=compress\u0026cs=tinysrgb\u0026fit=crop\u0026h=1200\u0026w=800",
        "landscape": "https://images.pexels.com/photos/3551230/pexels-photo-3551230.jpeg?auto=compress\u0026cs=tinysrgb\u0026fit=crop\u0026h=627\u0026w=1200",
        "tiny": "https://images.pexels.com/photos/3551230/pexels-photo-3551230.jpeg?auto=compress\u0026cs=tinysrgb\u0026dpr=1\u0026fit=crop\u0026h=200\u0026w=280"
      },
      "liked": false
    },
    {
      "id": 3607084,
      "width": 4160,
      "height": 6240,
      "url": "https://www.pexels.com/photo/people-walking-on-snow-covered-field-3607084/",
      "photographer": "Tomáš Malík",
      "photographer_url": "https://www.pexels.com/@tomas-malik-793526",
      "photographer_id": 793526,
      "avg_color": "#A2B4C5",
      "src": {
        "original": "https://images.pexels.com/photos/3607084/pexels-photo-3607084.jpeg",
        "large2x": "https://images.pexels.com/photos/3607084/pexels-photo-3607084.jpeg?auto=compress\u0026cs=tinysrgb\u0026dpr=2\u0026h=650\u0026w=940",
        "large": "https://images.pexels.com/photos/3607084/pexels-photo-3607084.jpeg?auto=compress\u0026cs=tinysrgb\u0026h=650\u0026w=940",
        "medium": "https://images.pexels.com/photos/3607084/pexels-photo-3607084.jpeg?auto=compress\u0026cs=tinysrgb\u0026h=350",
        "small": "https://images.pexels.com/photos/3607084/pexels-photo-3607084.jpeg?auto=compress\u0026cs=tinysrgb\u0026h=130",
        "portrait": "https://images.pexels.com/photos/3607084/pexels-photo-3607084.jpeg?auto=compress\u0026cs=tinysrgb\u0026fit=crop\u0026h=1200\u0026w=800",
        "landscape": "https://images.pexels.com/photos/3607084/pexels-photo-3607084.jpeg?auto=compress\u0026cs=tinysrgb\u0026fit=crop\u0026h=627\u0026w=1200",
        "tiny": "https://images.pexels.com/photos/3607084/pexels-photo-3607084.jpeg?auto=compress\u0026cs=tinysrgb\u0026dpr=1\u0026fit=crop\u0026h=200\u0026w=280"
      },
      "liked": false
    },
    {
      "id": 3634855,
      "width": 2631,
      "height": 3289,
      "url": "https://www.pexels.com/photo/photo-of-snow-covered-trees-3634855/",
      "photographer": "Jan Kopřiva",
      "photographer_url": "https://www.pexels.com/@koprivakart",
      "photographer_id": 1721787,
      "avg_color": "#D4D4D4",
      "src": {
        "original": "https://images.pexels.com/photos/3634855/pexels-photo-3634855.jpeg",
        "large2x": "https://images.pexels.com/photos/3634855/pexels-photo-3634855.jpeg?auto=compress\u0026cs=tinysrgb\u0026dpr=2\u0026h=650\u0026w=940",
        "large": "https://images.pexels.com/photos/3634855/pexels-photo-3634855.jpeg?auto=compress\u0026cs=tinysrgb\u0026h=650\u0026w=940",
        "medium": "https://images.pexels.com/photos/3634855/pexels-photo-3634855.jpeg?auto=compress\u0026cs=tinysrgb\u0026h=350",
        "small": "https://images.pexels.com/photos/3634855/pexels-photo-3634855.jpeg?auto=compress\u0026cs=tinysrgb\u0026h=130",
        "portrait": "https://images.pexels.com/photos/3634855/pexels-photo-3634855.jpeg?auto=compress\u0026cs=tinysrgb\u0026fit=crop\u0026h=1200\u0026w=800",
        "landscape": "https://images.pexels.com/photos/3634855/pexels-photo-3634855.jpeg?auto=compress\u0026cs=tinysrgb\u0026fit=crop\u0026h=627\u0026w=1200",
        "tiny": "https://images.pexels.com/photos/3634855/pexels-photo-3634855.jpeg?auto=compress\u0026cs=tinysrgb\u0026dpr=1\u0026fit=crop\u0026h=200\u0026w=280"
      },
      "liked": false
    }
  ],
  "total_results": 8000,
  "next_page": "https://api.pexels.com/v1/search/?page=2\u0026per_page=15\u0026query=winter"
}
